2017-07-28 03:28:45	-59.8
2017-07-28 03:29:48	-59.9
2017-07-28 03:30:05	-60.0
2017-07-28 03:30:20	-59.8
2017-07-28 03:30:55	-59.7
2017-07-28 03:31:28	-59.1
2017-07-28 03:32:03	-59.6
2017-07-28 03:32:38	-59.5
2017-07-28 03:33:05	-59.1
2017-07-28 03:34:40	-59.0
2017-07-28 03:35:10	-58.6
2017-07-28 03:35:43	-58.2
2017-07-28 03:36:45	-58.4
2017-07-28 03:37:18	-58.0
2017-07-28 03:37:48	-57.8
2017-07-28 03:38:20	-57.9
2017-07-28 03:38:53	-57.5
2017-07-28 03:39:25	-57.3
2017-07-28 03:39:58	-57.4
2017-07-28 03:40:28	-56.8
2017-07-28 03:41:00	-57.2
2017-07-28 03:41:33	-56.8
2017-07-28 03:42:05	-57.0
2017-07-28 03:42:38	-56.7
2017-07-28 03:43:10	-56.5
2017-07-28 03:43:40	-56.8
2017-07-28 03:44:13	-56.2
2017-07-28 03:44:45	-56.5
2017-07-28 03:45:23	-57.3
2017-07-28 03:45:53	-57.5
2017-07-28 03:46:23	-58.5
2017-07-28 03:46:55	-59.4
2017-07-28 03:47:28	-60.0
2017-07-28 03:47:55	-59.7
2017-07-28 03:52:20	-60.0
2017-07-28 18:20:38	-59.2
2017-07-28 18:21:10	-59.6
2017-07-28 18:21:43	-59.3
2017-07-28 18:22:13	-59.2
2017-07-28 18:23:05	-59.8
2017-07-28 18:23:15	-58.7
2017-07-28 18:23:45	-58.6
2017-07-28 18:24:18	-58.4
2017-07-28 18:24:48	-58.9
2017-07-28 18:25:38	-58.3
2017-07-28 18:26:20	-58.5
2017-07-28 18:26:53	-58.0
2017-07-28 18:27:25	-57.9
2017-07-28 18:27:58	-58.2
2017-07-28 18:28:10	-57.5
2017-07-28 18:28:30	-58.1
2017-07-28 18:29:03	-57.6
2017-07-28 18:29:33	-57.0
2017-07-28 18:30:03	-57.1
2017-07-28 18:30:43	-57.5
2017-07-28 18:31:08	-56.9
2017-07-28 18:31:40	-56.8
2017-07-28 18:32:13	-56.5
2017-07-28 18:32:43	-56.7
2017-07-28 18:33:18	-56.1
2017-07-28 18:33:48	-56.4
2017-07-28 18:34:18	-56.1
2017-07-28 18:34:50	-56.3
2017-07-28 18:35:23	-55.8
2017-07-28 18:35:50	-55.5
2017-07-28 18:35:53	-55.9
2017-07-28 18:36:28	-55.2
2017-07-28 18:36:58	-55.6
2017-07-28 18:37:30	-55.3
2017-07-28 18:38:00	-55.1
2017-07-28 18:38:20	-55.0
2017-07-28 18:39:05	-54.9
2017-07-28 18:39:38	-55.2
2017-07-28 18:40:10	-55.3
2017-07-28 18:40:40	-56.1
2017-07-28 18:41:13	-56.7
2017-07-28 18:41:43	-57.4
2017-07-28 18:42:15	-58.0
2017-07-28 18:42:45	-57.8
2017-07-28 18:43:15	-58.7
2017-07-28 18:43:25	-59.1
2017-07-28 18:43:48	-59.3
2017-07-28 18:44:20	-59.4
2017-07-28 18:44:53	-60.0
2017-07-29 10:34:03	-59.9
2017-07-29 10:34:23	-60.0
2017-07-29 10:34:35	-59.9
2017-07-29 10:35:08	-60.0
2017-07-29 10:36:13	-59.8
2017-07-29 10:36:45	-59.2
2017-07-29 10:36:58	-59.3
2017-07-29 10:37:15	-59.1
2017-07-29 10:37:48	-59.4
2017-07-29 10:38:50	-59.1
2017-07-29 10:39:28	-58.7
2017-07-29 10:39:53	-59.1
2017-07-29 10:40:23	-58.4
2017-07-29 10:40:55	-58.7
2017-07-29 10:41:25	-58.8
2017-07-29 10:42:00	-58.1
2017-07-29 10:43:08	-58.3
2017-07-29 10:43:38	-58.1
2017-07-29 10:44:08	-57.6
2017-07-29 10:44:35	-57.4
2017-07-29 10:44:40	-57.9
2017-07-29 10:45:13	-57.5
2017-07-29 10:45:45	-57.2
2017-07-29 10:46:18	-57.4
2017-07-29 10:47:20	-57.0
2017-07-29 10:47:53	-56.6
2017-07-29 10:49:30	-56.4
2017-07-29 10:49:40	-56.1
2017-07-29 10:50:30	-56.5
2017-07-29 10:51:03	-56.0
2017-07-29 10:52:10	-56.1
2017-07-29 10:52:38	-56.5
2017-07-29 10:53:10	-57.2
2017-07-29 10:53:43	-57.6
2017-07-29 10:54:13	-58.1
2017-07-29 10:54:43	-58.9
2017-07-29 10:54:45	-58.6
2017-07-29 10:55:18	-59.3
2017-07-29 10:56:25	-60.0
2017-07-29 23:48:38	-59.8
2017-07-29 23:50:43	-60.0
2017-07-29 23:50:53	-59.9
2017-07-29 23:51:13	-59.7
2017-07-29 23:51:45	-59.9
2017-07-29 23:52:15	-60.0
2017-07-29 23:53:53	-58.7
2017-07-29 23:54:23	-59.4
2017-07-29 23:55:20	-59.2
2017-07-29 23:55:25	-59.1
2017-07-29 23:56:30	-58.9
2017-07-29 23:57:03	-59.1
2017-07-29 23:57:33	-58.7
2017-07-29 23:57:50	-58.5
2017-07-29 23:58:03	-59.1
2017-07-29 23:58:33	-58.2
2017-07-29 23:59:05	-58.5
2017-07-29 23:59:35	-58.4
2017-07-30 00:00:08	-58.1
2017-07-30 00:00:23	-58.3
2017-07-30 00:00:38	-58.1
2017-07-30 00:01:38	-57.8
2017-07-30 00:02:10	-58.1
2017-07-30 00:02:40	-57.4
2017-07-30 00:02:55	-57.7
2017-07-30 00:03:43	-57.2
2017-07-30 00:05:15	-57.0
2017-07-30 00:05:30	-56.9
2017-07-30 00:05:48	-57.1
2017-07-30 00:06:18	-56.7
2017-07-30 00:07:23	-56.5
2017-07-30 00:07:58	-56.6
2017-07-30 00:08:25	-56.5
2017-07-30 00:08:58	-56.4
2017-07-30 00:09:30	-55.9
2017-07-30 00:10:33	-55.8
2017-07-30 00:11:08	-56.4
2017-07-30 00:11:38	-57.0
2017-07-30 00:12:10	-57.4
2017-07-30 00:12:40	-58.4
2017-07-30 00:13:08	-59.2
2017-07-30 00:13:13	-59.1
2017-07-30 00:13:43	-59.3
2017-07-30 00:14:15	-59.9
2017-07-30 00:19:35	-60.0
2017-07-30 14:24:15	-59.9
2017-07-30 14:24:48	-59.6
2017-07-30 14:25:03	-60.0
2017-07-30 14:25:18	-59.9
2017-07-30 14:25:50	-59.7
2017-07-30 14:26:20	-59.8
2017-07-30 14:26:53	-59.1
2017-07-30 14:27:38	-59.8
2017-07-30 14:27:55	-59.3
2017-07-30 14:28:25	-58.9
2017-07-30 14:28:58	-59.1
2017-07-30 14:29:28	-58.6
2017-07-30 14:30:00	-58.8
2017-07-30 14:30:10	-58.4
2017-07-30 14:30:30	-58.5
2017-07-30 14:31:35	-57.8
2017-07-30 14:32:43	-58.0
2017-07-30 14:33:10	-58.1
2017-07-30 14:33:40	-57.5
2017-07-30 14:34:13	-57.3
2017-07-30 14:34:43	-57.4
2017-07-30 14:35:15	-57.2
2017-07-30 14:35:48	-57.3
2017-07-30 14:36:53	-57.2
2017-07-30 14:37:25	-57.5
2017-07-30 14:37:48	-57.8
2017-07-30 14:37:55	-58.0
2017-07-30 14:38:25	-59.0
2017-07-30 14:38:55	-59.3
2017-07-30 14:40:20	-59.0
2017-07-30 14:40:55	-59.9
2017-07-30 14:42:10	-59.8
2017-07-30 14:46:28	-60.0
2017-07-31 04:03:38	-59.9
2017-07-31 04:04:10	-60.0
2017-07-31 04:04:43	-59.5
2017-07-31 04:06:18	-59.7
2017-07-31 04:06:33	-59.4
2017-07-31 04:07:20	-59.1
2017-07-31 04:08:55	-58.6
2017-07-31 04:09:03	-58.9
2017-07-31 04:09:30	-58.8
2017-07-31 04:10:00	-58.9
2017-07-31 04:10:33	-58.5
2017-07-31 04:11:05	-58.2
2017-07-31 04:11:38	-57.7
2017-07-31 04:12:38	-58.1
2017-07-31 04:13:08	-57.4
2017-07-31 04:15:15	-57.0
2017-07-31 04:15:48	-57.4
2017-07-31 04:16:18	-57.0
2017-07-31 04:16:43	-57.2
2017-07-31 04:17:20	-57.6
2017-07-31 04:17:50	-58.1
2017-07-31 04:18:20	-58.7
2017-07-31 04:18:53	-60.0
2017-07-31 19:46:48	-59.7
2017-07-31 19:47:20	-59.8
2017-07-31 19:47:50	-60.0
2017-07-31 19:48:23	-59.6
2017-07-31 19:48:55	-59.1
2017-07-31 19:49:25	-59.4
2017-07-31 19:49:58	-59.0
2017-07-31 19:50:30	-59.3
2017-07-31 19:51:03	-59.0
2017-07-31 19:51:35	-58.8
2017-07-31 19:52:40	-58.4
2017-07-31 19:53:10	-58.3
2017-07-31 19:53:43	-57.7
2017-07-31 19:54:13	-57.9
2017-07-31 19:55:53	-57.4
2017-07-31 19:56:25	-57.6
2017-07-31 19:56:55	-58.1
2017-07-31 19:57:28	-59.0
2017-07-31 19:57:58	-59.8
2017-07-31 19:58:43	-60.0
2017-08-01 07:49:58	-60.1
2017-08-01 09:49:35	-60.0
2017-08-01 09:50:38	-59.7
2017-08-01 09:51:10	-59.8
2017-08-01 09:51:43	-59.6
2017-08-01 09:52:15	-59.8
2017-08-01 09:52:48	-59.1
2017-08-01 09:53:20	-59.3
2017-08-01 09:54:23	-59.6
2017-08-01 09:54:55	-59.0
2017-08-01 09:56:00	-58.8
2017-08-01 09:56:33	-58.6
2017-08-01 09:57:03	-58.5
2017-08-01 09:57:33	-58.1
2017-08-01 09:58:05	-58.4
2017-08-01 09:58:38	-57.6
2017-08-01 09:59:08	-57.9
2017-08-01 10:00:43	-57.8
2017-08-01 10:01:13	-57.5
2017-08-01 10:01:43	-57.3
2017-08-01 10:02:15	-57.2
2017-08-01 10:02:48	-57.0
2017-08-01 10:03:50	-56.9
2017-08-01 10:04:23	-56.7
2017-08-01 10:04:55	-56.5
2017-08-01 10:05:25	-56.8
2017-08-01 10:05:55	-57.2
2017-08-01 10:06:28	-57.9
2017-08-01 10:07:00	-58.4
2017-08-01 10:07:30	-59.2
2017-08-01 10:08:03	-59.5
2017-08-01 10:10:50	-60.0
2017-08-01 10:11:23	-59.8
2017-08-01 10:11:53	-59.9
2017-08-01 10:16:13	-60.0
2017-08-01 21:55:35	-59.8
2017-08-01 21:56:08	-59.9
2017-08-01 21:56:38	-59.2
2017-08-01 21:57:08	-59.3
2017-08-01 21:58:13	-59.5
2017-08-01 21:58:43	-58.6
2017-08-01 21:59:15	-58.7
2017-08-01 21:59:48	-59.1
2017-08-01 22:00:18	-58.6
2017-08-01 22:00:48	-58.0
2017-08-01 22:01:50	-58.1
2017-08-01 22:02:23	-58.0
2017-08-01 22:02:55	-57.8
2017-08-01 22:03:30	-58.1
2017-08-01 22:04:03	-57.5
2017-08-01 22:06:10	-57.4
2017-08-01 22:06:40	-57.2
2017-08-01 22:07:13	-57.0
2017-08-01 22:07:43	-56.8
2017-08-01 22:08:15	-56.6
2017-08-01 22:08:50	-56.8
2017-08-01 22:09:20	-56.7
2017-08-01 22:09:53	-56.0
2017-08-01 22:10:25	-56.4
2017-08-01 22:10:55	-56.0
2017-08-01 22:11:28	-55.8
2017-08-01 22:12:00	-56.5
2017-08-01 22:12:30	-56.8
2017-08-01 22:13:00	-57.9
2017-08-01 22:13:33	-58.4
2017-08-01 22:14:05	-59.0
2017-08-01 22:14:35	-59.8
2017-08-01 22:15:10	-59.9
2017-08-01 22:15:40	-60.0
2017-08-02 11:21:05	-59.9
2017-08-02 11:22:33	-59.8
2017-08-02 11:23:05	-60.0
2017-08-02 11:23:38	-59.8
2017-08-02 11:24:08	-59.3
2017-08-02 11:24:38	-59.4
2017-08-02 11:25:10	-59.3
2017-08-02 11:25:43	-58.8
2017-08-02 11:26:15	-59.2
2017-08-02 11:26:50	-58.9
2017-08-02 11:27:23	-58.6
2017-08-02 11:27:55	-58.5
2017-08-02 11:28:25	-58.3
2017-08-02 11:28:58	-58.4
2017-08-02 11:29:30	-58.6
2017-08-02 11:30:03	-57.8
2017-08-02 11:31:08	-58.2
2017-08-02 11:31:40	-57.6
2017-08-02 11:32:13	-57.7
2017-08-02 11:32:45	-57.4
2017-08-02 11:33:18	-57.2
2017-08-02 11:34:20	-57.0
2017-08-02 11:34:50	-56.6
2017-08-02 11:35:23	-57.0
2017-08-02 11:35:53	-56.6
2017-08-02 11:36:25	-56.2
2017-08-02 11:36:58	-56.6
2017-08-02 11:37:30	-56.3
2017-08-02 11:38:00	-55.8
2017-08-02 11:38:33	-56.3
2017-08-02 11:39:03	-55.7
2017-08-02 11:39:38	-55.5
2017-08-02 11:40:40	-56.0
2017-08-02 11:41:13	-56.7
2017-08-02 11:41:45	-57.2
2017-08-02 11:42:18	-58.1
2017-08-02 11:42:48	-58.4
2017-08-02 11:43:18	-59.0
2017-08-02 11:43:50	-59.6
2017-08-02 11:44:20	-60.0
2017-08-02 22:14:25	-59.9
2017-08-02 22:17:08	-59.4
2017-08-02 22:17:38	-59.3
2017-08-02 22:18:40	-59.0
2017-08-02 22:20:15	-59.1
2017-08-02 22:20:48	-58.4
2017-08-02 22:21:50	-58.3
2017-08-02 22:22:23	-57.9
2017-08-02 22:22:53	-57.6
2017-08-02 22:23:25	-58.2
2017-08-02 22:23:58	-57.5
2017-08-02 22:24:58	-57.2
2017-08-02 22:25:33	-56.9
2017-08-02 22:26:03	-57.0
2017-08-02 22:26:33	-56.8
2017-08-02 22:27:08	-56.7
2017-08-02 22:27:40	-56.5
2017-08-02 22:28:13	-57.5
2017-08-02 22:28:45	-57.9
2017-08-02 22:29:15	-58.2
2017-08-02 22:29:45	-59.4
2017-08-02 22:30:18	-60.0
2017-08-03 09:57:05	-59.7
2017-08-03 09:58:13	-59.8
2017-08-03 09:58:45	-59.9
2017-08-03 09:59:48	-59.3
2017-08-03 10:00:20	-59.4
2017-08-03 10:00:55	-59.6
2017-08-03 10:01:25	-59.1
2017-08-03 10:01:58	-58.8
2017-08-03 10:02:30	-58.5
2017-08-03 10:03:00	-58.6
2017-08-03 10:04:30	-58.4
2017-08-03 10:05:03	-58.5
2017-08-03 10:05:35	-58.3
2017-08-03 10:06:05	-58.1
2017-08-03 10:06:38	-57.4
2017-08-03 10:07:08	-57.8
2017-08-03 10:07:40	-57.6
2017-08-03 10:08:10	-57.4
2017-08-03 10:08:43	-57.2
2017-08-03 10:09:48	-57.1
2017-08-03 10:10:18	-56.6
2017-08-03 10:11:53	-56.2
2017-08-03 10:12:25	-56.0
2017-08-03 10:12:58	-56.3
2017-08-03 10:13:33	-56.1
2017-08-03 10:14:03	-55.4
2017-08-03 10:14:35	-55.8
2017-08-03 10:15:08	-55.5
2017-08-03 10:16:08	-55.6
2017-08-03 10:16:40	-55.3
2017-08-03 10:17:13	-55.2
2017-08-03 10:18:13	-54.8
2017-08-03 10:18:45	-54.5
2017-08-03 10:20:20	-55.3
2017-08-03 10:20:50	-56.1
2017-08-03 10:21:23	-56.9
2017-08-03 10:21:53	-57.2
2017-08-03 10:22:25	-57.7
2017-08-03 10:22:55	-58.6
2017-08-03 10:23:58	-58.4
2017-08-03 10:24:30	-59.7
2017-08-03 10:25:03	-59.9
2017-08-03 10:25:35	-59.8
2017-08-03 10:26:15	-60.0
2017-08-03 20:04:03	-59.9
2017-08-03 20:04:33	-59.7
2017-08-03 20:05:05	-59.5
2017-08-03 20:05:38	-59.3
2017-08-03 20:06:43	-59.1
2017-08-03 20:07:13	-59.4
2017-08-03 20:07:45	-58.8
2017-08-03 20:08:18	-58.3
2017-08-03 20:08:50	-58.7
2017-08-03 20:09:23	-58.9
2017-08-03 20:09:55	-58.4
2017-08-03 20:10:25	-58.1
2017-08-03 20:11:28	-58.2
2017-08-03 20:11:58	-57.7
2017-08-03 20:12:30	-57.3
2017-08-03 20:13:38	-57.1
2017-08-03 20:14:08	-56.9
2017-08-03 20:14:38	-56.8
2017-08-03 20:15:10	-56.6
2017-08-03 20:16:45	-56.5
2017-08-03 20:17:15	-56.0
2017-08-03 20:17:48	-56.5
2017-08-03 20:18:20	-56.8
2017-08-03 20:18:53	-57.7
2017-08-03 20:19:23	-58.6
2017-08-03 20:21:15	-58.9
2017-08-03 20:21:45	-59.2
2017-08-03 20:22:50	-59.7
2017-08-03 20:23:58	-59.8
2017-08-03 20:28:28	-60.0
2017-08-04 06:53:53	-59.9
2017-08-04 06:54:28	-59.8
2017-08-04 06:54:58	-59.7
2017-08-04 06:56:05	-60.0
2017-08-04 06:57:08	-59.5
2017-08-04 06:57:40	-59.8
2017-08-04 06:58:10	-59.7
2017-08-04 06:58:40	-59.5
2017-08-04 06:59:13	-58.6
2017-08-04 06:59:45	-59.5
2017-08-04 07:00:15	-59.6
2017-08-04 07:00:48	-58.9
2017-08-04 07:01:18	-58.6
2017-08-04 07:01:50	-59.0
2017-08-04 07:02:20	-58.7
2017-08-04 07:02:50	-58.6
2017-08-04 07:03:53	-58.5
2017-08-04 07:04:55	-58.1
2017-08-04 07:05:25	-57.8
2017-08-04 07:05:58	-58.4
2017-08-04 07:07:30	-57.7
2017-08-04 07:08:38	-57.4
2017-08-04 07:09:08	-57.8
2017-08-04 07:09:40	-57.5
2017-08-04 07:10:10	-57.2
2017-08-04 07:10:43	-57.0
2017-08-04 07:11:13	-57.2
2017-08-04 07:11:43	-56.9
2017-08-04 07:12:15	-57.4
2017-08-04 07:12:48	-57.0
2017-08-04 07:13:18	-56.7
2017-08-04 07:14:20	-56.9
2017-08-04 07:16:10	-56.4
2017-08-04 07:16:43	-56.9
2017-08-04 07:17:13	-56.7
2017-08-04 07:17:43	-56.5
2017-08-04 07:18:50	-56.7
2017-08-04 07:19:23	-56.5
2017-08-04 07:20:25	-56.3
2017-08-04 07:20:58	-56.0
2017-08-04 07:21:30	-55.7
2017-08-04 07:22:03	-55.8
2017-08-04 07:22:33	-55.2
2017-08-04 07:23:05	-56.1
2017-08-04 07:23:38	-55.8
2017-08-04 07:24:10	-56.1
2017-08-04 07:24:40	-56.9
2017-08-04 07:25:10	-57.6
2017-08-04 07:25:43	-58.4
2017-08-04 07:26:13	-59.2
2017-08-04 07:26:43	-59.1
2017-08-04 07:27:15	-59.8
2017-08-04 07:27:45	-60.0
2017-08-04 19:23:53	-59.7
2017-08-04 19:24:58	-59.4
2017-08-04 19:25:30	-60.0
2017-08-04 19:26:00	-59.8
2017-08-04 19:26:33	-59.3
2017-08-04 19:27:05	-59.1
2017-08-04 19:27:38	-59.4
2017-08-04 19:28:10	-59.3
2017-08-04 19:28:43	-58.6
2017-08-04 19:29:15	-58.3
2017-08-04 19:29:48	-58.5
2017-08-04 19:30:18	-57.9
2017-08-04 19:30:48	-57.5
2017-08-04 19:31:20	-58.0
2017-08-04 19:32:25	-57.4
2017-08-04 19:32:55	-57.5
2017-08-04 19:33:28	-57.2
2017-08-04 19:33:58	-57.0
2017-08-04 19:34:28	-56.7
2017-08-04 19:35:00	-56.3
2017-08-04 19:35:33	-56.5
2017-08-04 19:36:05	-56.4
2017-08-04 19:37:08	-56.0
2017-08-04 19:37:40	-57.0
2017-08-04 19:38:13	-57.6
2017-08-04 19:38:43	-58.2
2017-08-04 19:39:15	-59.3
2017-08-04 19:39:48	-59.7
2017-08-04 19:40:20	-59.9
2017-08-04 19:44:40	-60.0
2017-08-05 07:02:18	-59.8
2017-08-05 07:02:50	-60.0
2017-08-05 07:03:23	-59.6
2017-08-05 07:03:58	-59.9
2017-08-05 07:04:30	-59.7
2017-08-05 07:05:03	-59.5
2017-08-05 07:05:33	-59.3
2017-08-05 07:06:05	-59.0
2017-08-05 07:06:35	-59.7
2017-08-05 07:07:05	-59.1
2017-08-05 07:07:38	-59.0
2017-08-05 07:08:10	-58.7
2017-08-05 07:08:43	-59.1
2017-08-05 07:09:15	-58.4
2017-08-05 07:10:18	-58.8
2017-08-05 07:11:20	-58.6
2017-08-05 07:11:53	-58.3
2017-08-05 07:12:58	-57.8
2017-08-05 07:13:30	-58.0
2017-08-05 07:14:33	-57.8
2017-08-05 07:15:38	-57.0
2017-08-05 07:16:10	-57.2
2017-08-05 07:16:43	-57.5
2017-08-05 07:17:13	-57.1
2017-08-05 07:17:45	-57.3
2017-08-05 07:18:18	-57.0
2017-08-05 07:18:50	-56.8
2017-08-05 07:19:23	-57.0
2017-08-05 07:19:55	-56.5
2017-08-05 07:20:58	-56.4
2017-08-05 07:21:28	-56.5
2017-08-05 07:21:58	-56.1
2017-08-05 07:22:30	-55.9
2017-08-05 07:23:00	-56.0
2017-08-05 07:23:33	-55.7
2017-08-05 07:24:05	-56.0
2017-08-05 07:24:40	-56.2
2017-08-05 07:25:13	-56.6
2017-08-05 07:25:45	-57.2
2017-08-05 07:26:18	-57.5
2017-08-05 07:26:48	-58.3
2017-08-05 07:27:20	-59.0
2017-08-05 07:27:50	-59.1
2017-08-05 07:28:20	-60.0
2017-08-05 19:43:45	-59.9
2017-08-05 19:46:15	-59.4
2017-08-05 19:46:48	-58.0
2017-08-05 19:47:20	-56.9
2017-08-05 19:47:50	-57.4
2017-08-05 19:48:23	-57.1
2017-08-05 19:48:55	-57.4
2017-08-05 19:49:28	-56.9
2017-08-05 19:50:30	-57.0
2017-08-05 19:51:03	-56.8
2017-08-05 19:51:33	-56.5
2017-08-05 19:52:35	-56.3
2017-08-05 19:53:08	-56.1
2017-08-05 19:53:38	-55.9
2017-08-05 19:54:10	-55.8
2017-08-05 19:54:43	-55.7
2017-08-05 19:55:13	-55.5
2017-08-05 19:55:43	-55.6
2017-08-05 19:56:15	-56.0
2017-08-05 19:56:50	-56.5
2017-08-05 19:57:20	-57.1
2017-08-05 19:57:53	-57.6
2017-08-05 19:58:25	-58.1
2017-08-05 19:58:58	-59.3
2017-08-05 19:59:30	-59.5
2017-08-05 20:01:08	-59.9
2017-08-05 20:05:30	-60.0
2017-08-06 09:36:10	-59.8
2017-08-06 09:39:00	-59.4
2017-08-06 09:39:30	-60.0
2017-08-06 09:40:03	-59.6
2017-08-06 09:41:08	-59.8
2017-08-06 09:41:38	-59.4
2017-08-06 09:42:10	-58.8
2017-08-06 09:42:40	-59.0
2017-08-06 09:43:13	-58.4
2017-08-06 09:43:45	-59.0
2017-08-06 09:44:18	-58.8
2017-08-06 09:44:50	-58.5
2017-08-06 09:45:53	-58.7
2017-08-06 09:46:25	-58.4
2017-08-06 09:46:55	-58.0
2017-08-06 09:47:58	-57.8
2017-08-06 09:48:30	-58.1
2017-08-06 09:49:00	-57.8
2017-08-06 09:49:35	-57.6
2017-08-06 09:50:05	-57.4
2017-08-06 09:50:38	-57.2
2017-08-06 09:51:08	-57.4
2017-08-06 09:51:38	-57.2
2017-08-06 09:52:43	-56.8
2017-08-06 09:53:15	-56.5
2017-08-06 09:53:45	-56.6
2017-08-06 09:54:18	-56.5
2017-08-06 09:54:50	-56.6
2017-08-06 09:55:23	-56.5
2017-08-06 09:55:53	-56.7
2017-08-06 09:56:25	-57.6
2017-08-06 09:56:58	-57.9
2017-08-06 09:57:28	-58.4
2017-08-06 09:57:58	-58.5
2017-08-06 09:58:30	-60.0
2017-08-06 09:59:00	-59.9
2017-08-06 10:03:45	-60.0
2017-08-07 00:31:58	-59.8
2017-08-07 00:32:30	-60.0
2017-08-07 00:33:23	-59.8
2017-08-07 00:34:00	-59.9
2017-08-07 00:34:33	-60.0
2017-08-07 00:35:05	-59.9
2017-08-07 00:36:08	-59.8
2017-08-07 00:36:38	-59.6
2017-08-07 00:37:40	-59.2
2017-08-07 00:38:43	-58.7
2017-08-07 00:39:13	-59.5
2017-08-07 00:39:43	-59.3
2017-08-07 00:40:15	-58.8
2017-08-07 00:40:48	-59.1
2017-08-07 00:41:20	-58.6
2017-08-07 00:41:53	-58.5
2017-08-07 00:42:23	-58.3
2017-08-07 00:42:53	-58.0
2017-08-07 00:43:25	-58.2
2017-08-07 00:43:58	-58.1
2017-08-07 00:45:00	-57.7
2017-08-07 00:45:33	-58.0
2017-08-07 00:46:05	-58.1
2017-08-07 00:46:35	-57.8
2017-08-07 00:47:08	-57.7
2017-08-07 00:48:08	-57.2
2017-08-07 00:48:40	-57.4
2017-08-07 00:49:45	-57.2
2017-08-07 00:50:15	-57.3
2017-08-07 00:50:48	-57.0
2017-08-07 00:51:20	-57.1
2017-08-07 00:51:53	-56.9
2017-08-07 00:52:25	-57.4
2017-08-07 00:52:58	-57.9
2017-08-07 00:53:30	-58.1
2017-08-07 00:54:03	-59.0
2017-08-07 00:54:33	-59.4
2017-08-07 00:55:05	-59.9
2017-08-07 00:59:33	-60.0
2017-08-07 16:19:08	-59.8
2017-08-07 16:19:55	-60.0
2017-08-07 16:21:50	-59.3
2017-08-07 16:22:23	-59.7
2017-08-07 16:23:23	-59.4
2017-08-07 16:23:55	-59.0
2017-08-07 16:24:58	-58.8
2017-08-07 16:25:30	-58.5
2017-08-07 16:26:03	-58.4
2017-08-07 16:26:35	-58.1
2017-08-07 16:28:15	-56.8
2017-08-07 16:28:45	-56.2
2017-08-07 16:29:18	-56.0
2017-08-07 16:29:48	-55.7
2017-08-07 16:30:20	-55.9
2017-08-07 16:30:50	-55.5
2017-08-07 16:31:23	-55.6
2017-08-07 16:31:55	-55.5
2017-08-07 16:32:25	-55.2
2017-08-07 16:32:58	-55.3
2017-08-07 16:33:28	-55.1
2017-08-07 16:34:30	-54.9
2017-08-07 16:35:03	-54.6
2017-08-07 16:35:35	-54.8
2017-08-07 16:36:08	-55.2
2017-08-07 16:36:40	-55.7
2017-08-07 16:37:10	-56.4
2017-08-07 16:37:43	-57.1
2017-08-07 16:38:15	-57.7
2017-08-07 16:38:45	-58.6
2017-08-07 16:39:18	-59.1
2017-08-07 16:39:50	-59.4
2017-08-07 16:40:53	-60.0
2017-08-07 16:41:25	-59.9
2017-08-07 16:42:00	-60.0
2017-08-08 05:58:25	-59.8
2017-08-08 05:59:23	-60.0
2017-08-08 06:01:48	-59.8
2017-08-08 06:02:18	-60.0
2017-08-08 06:02:48	-59.6
2017-08-08 06:03:23	-59.7
2017-08-08 06:03:53	-59.2
2017-08-08 06:05:00	-59.0
2017-08-08 06:05:35	-59.3
2017-08-08 06:06:08	-59.0
2017-08-08 06:06:38	-58.6
2017-08-08 06:07:10	-58.5
2017-08-08 06:07:40	-58.8
2017-08-08 06:08:15	-58.7
2017-08-08 06:08:48	-58.4
2017-08-08 06:09:18	-58.7
2017-08-08 06:09:48	-58.4
2017-08-08 06:10:20	-57.8
2017-08-08 06:10:53	-58.0
2017-08-08 06:11:25	-58.1
2017-08-08 06:11:58	-58.0
2017-08-08 06:12:30	-57.8
2017-08-08 06:13:00	-58.2
2017-08-08 06:13:33	-58.1
2017-08-08 06:14:03	-59.2
2017-08-08 06:14:33	-59.4
2017-08-08 06:15:05	-60.0
2017-08-08 22:57:35	-59.7
2017-08-08 22:58:05	-59.8
2017-08-08 22:58:38	-59.4
2017-08-08 23:00:13	-59.3
2017-08-08 23:00:43	-59.0
2017-08-08 23:01:15	-58.9
2017-08-08 23:02:18	-58.5
2017-08-08 23:02:48	-58.6
2017-08-08 23:03:50	-59.1
2017-08-08 23:04:23	-58.8
2017-08-08 23:04:55	-58.2
2017-08-08 23:05:28	-58.6
2017-08-08 23:05:58	-58.2
2017-08-08 23:06:33	-58.0
2017-08-08 23:07:05	-57.7
2017-08-08 23:08:35	-58.0
2017-08-08 23:09:08	-55.8
2017-08-08 23:09:40	-56.0
2017-08-08 23:10:13	-55.8
2017-08-08 23:10:43	-55.6
2017-08-08 23:11:15	-55.5
2017-08-08 23:11:48	-55.8
2017-08-08 23:12:20	-55.3
2017-08-08 23:12:53	-56.0
2017-08-08 23:13:25	-56.5
2017-08-08 23:13:58	-56.7
2017-08-08 23:14:30	-57.4
2017-08-08 23:15:00	-57.8
2017-08-08 23:15:30	-58.4
2017-08-08 23:16:00	-58.7
2017-08-08 23:16:33	-59.3
2017-08-08 23:17:03	-59.2
2017-08-08 23:17:38	-59.9
2017-08-08 23:18:08	-59.8
2017-08-08 23:22:25	-60.0
2017-08-09 15:51:33	-59.9
2017-08-09 15:53:15	-59.8
2017-08-09 15:53:48	-60.0
2017-08-09 15:54:20	-59.5
2017-08-09 15:54:50	-59.7
2017-08-09 15:55:53	-59.6
2017-08-09 15:56:25	-59.1
2017-08-09 15:56:58	-59.8
2017-08-09 15:57:28	-59.7
2017-08-09 15:58:00	-59.0
2017-08-09 15:58:33	-58.7
2017-08-09 15:59:05	-58.4
2017-08-09 15:59:38	-58.6
2017-08-09 16:00:08	-58.4
2017-08-09 16:00:40	-58.6
2017-08-09 16:01:10	-58.1
2017-08-09 16:01:43	-58.4
2017-08-09 16:02:13	-58.0
2017-08-09 16:02:45	-57.9
2017-08-09 16:03:20	-57.6
2017-08-09 16:03:53	-57.7
2017-08-09 16:04:25	-57.3
2017-08-09 16:06:03	-57.4
2017-08-09 16:06:35	-58.4
2017-08-09 16:08:03	-58.1
2017-08-09 16:09:05	-58.6
2017-08-09 16:09:48	-58.9
2017-08-09 16:10:18	-59.0
2017-08-09 16:10:48	-59.7
2017-08-09 16:11:20	-60.0
2017-08-09 16:11:53	-59.8
2017-08-09 16:12:30	-59.4
2017-08-09 16:13:13	-60.0
2017-08-09 16:31:53	-59.5
2017-08-09 16:32:25	-59.6
2017-08-09 16:32:55	-60.0
2017-08-10 07:54:13	-59.9
2017-08-10 07:54:53	-59.7
2017-08-10 07:55:25	-60.0
2017-08-10 07:56:18	-59.9
2017-08-10 07:57:23	-60.0
2017-08-10 07:58:25	-59.8
2017-08-10 07:58:55	-59.2
2017-08-10 07:59:28	-59.7
2017-08-10 08:00:33	-59.3
2017-08-10 08:01:05	-59.5
2017-08-10 08:01:38	-58.7
2017-08-10 08:02:40	-59.1
2017-08-10 08:03:13	-58.6
2017-08-10 08:03:43	-58.2
2017-08-10 08:04:48	-58.4
2017-08-10 08:05:20	-58.0
2017-08-10 08:05:50	-58.2
2017-08-10 08:06:23	-58.1
2017-08-10 08:06:53	-57.9
2017-08-10 08:07:55	-57.7
2017-08-10 08:08:28	-57.4
2017-08-10 08:09:00	-57.5
2017-08-10 08:09:33	-57.7
2017-08-10 08:10:05	-57.4
2017-08-10 08:10:35	-57.6
2017-08-10 08:11:08	-58.7
2017-08-10 08:11:40	-59.1
2017-08-10 08:12:13	-59.8
2017-08-10 08:12:48	-60.0
2017-08-10 19:11:53	-60.0
