2017-07-27 23:38:23	-59.4
2017-07-27 23:38:35	-59.9
2017-07-28 23:23:25	-59.6
2017-07-28 23:24:05	-59.8
2017-07-29 08:36:40	-59.9
2017-07-30 22:55:38	-59.7
2017-07-30 22:59:53	-59.9
2017-07-31 22:42:00	-59.6
2017-07-31 22:42:33	-59.8
2017-08-01 22:29:08	-59.6
2017-08-01 22:33:20	-59.9
2017-08-02 22:14:13	-59.8
2017-08-02 22:14:45	-59.9
2017-08-05 21:32:15	-59.8
2017-08-05 21:36:28	-59.9
2017-08-06 21:18:23	-59.4
2017-08-06 21:19:03	-59.6
2017-08-06 21:19:45	-59.8
2017-08-06 21:24:03	-59.9
2017-08-08 20:50:35	-59.6
2017-08-08 20:57:40	-59.9
2017-08-10 19:12:00	-59.9
