2017-07-27 18:10	-71.7
2017-07-27 18:20	-71.1
2017-07-27 18:30	-70.6
2017-07-27 18:40	-71.6
2017-07-27 18:50	-71.6
2017-07-27 19:00	-70.6
2017-07-27 19:10	-71.6
2017-07-27 19:20	-71.1
2017-07-27 19:30	-70.6
2017-07-27 19:40	-70.6
2017-07-27 19:50	-71.6
2017-07-27 20:00	-70.6
2017-07-27 20:10	-71.1
2017-07-27 20:20	-70.6
2017-07-27 20:30	-70.6
2017-07-27 20:40	-71.1
2017-07-27 20:50	-71.1
2017-07-27 21:00	-71.1
2017-07-27 21:10	-71.6
2017-07-27 21:20	-70.6
2017-07-27 21:30	-71.1
2017-07-27 21:40	-71.6
2017-07-27 21:50	-71.1
2017-07-27 22:00	-70.6
2017-07-27 22:10	-71.6
2017-07-27 22:20	-71.1
2017-07-27 22:30	-71.6
2017-07-27 22:40	-71.7
2017-07-27 22:50	-71.1
2017-07-27 23:00	-71.1
2017-07-27 23:10	-71.6
2017-07-27 23:20	-70.7
2017-07-27 23:30	-71.6
2017-07-27 23:40	-71.1
2017-07-27 23:50	-71.1
2017-07-28 00:00	-70.7
2017-07-28 00:10	-69.6
2017-07-28 00:20	-70.7
2017-07-28 00:30	-71.1
2017-07-28 00:40	-71.6
2017-07-28 00:50	-71.1
2017-07-28 01:00	-71.6
2017-07-28 01:10	-71.0
2017-07-28 01:20	-70.2
2017-07-28 01:30	-70.6
2017-07-28 01:40	-71.1
2017-07-28 01:50	-71.1
2017-07-28 02:00	-70.6
2017-07-28 02:10	-70.6
2017-07-28 02:20	-70.6
2017-07-28 02:30	-71.1
2017-07-28 02:40	-71.6
2017-07-28 02:50	-70.6
2017-07-28 03:00	-70.7
2017-07-28 03:10	-70.6
2017-07-28 03:20	-71.6
2017-07-28 03:30	-70.1
2017-07-28 03:40	-69.9
2017-07-28 03:50	-70.1
2017-07-28 04:00	-69.4
2017-07-28 04:10	-69.6
2017-07-28 04:20	-70.6
2017-07-28 04:30	-70.4
2017-07-28 04:40	-70.6
2017-07-28 04:50	-71.2
2017-07-28 05:00	-71.1
2017-07-28 05:10	-70.6
2017-07-28 05:20	-71.6
2017-07-28 05:30	-71.7
2017-07-28 05:40	-71.1
2017-07-28 05:50	-69.6
2017-07-28 06:00	-71.6
2017-07-28 06:10	-71.6
2017-07-28 06:20	-70.1
2017-07-28 06:30	-71.1
2017-07-28 06:40	-71.1
2017-07-28 06:50	-70.6
2017-07-28 07:00	-71.1
2017-07-28 07:10	-70.6
2017-07-28 07:20	-70.6
2017-07-28 07:30	-71.1
2017-07-28 07:40	-70.6
2017-07-28 07:50	-71.1
2017-07-28 08:00	-71.6
2017-07-28 08:10	-71.6
2017-07-28 08:20	-70.1
2017-07-28 08:30	-71.1
2017-07-28 08:40	-71.1
2017-07-28 08:50	-71.6
2017-07-28 09:00	-71.6
2017-07-28 09:10	-70.6
2017-07-28 09:20	-71.1
2017-07-28 09:30	-71.0
2017-07-28 09:40	-70.2
2017-07-28 09:50	-71.6
2017-07-28 10:00	-70.6
2017-07-28 10:10	-71.6
2017-07-28 10:20	-71.6
2017-07-28 10:30	-71.6
2017-07-28 10:40	-70.1
2017-07-28 10:50	-71.6
2017-07-28 11:00	-71.1
2017-07-28 11:10	-70.6
2017-07-28 11:20	-71.6
2017-07-28 11:30	-71.1
2017-07-28 11:40	-70.6
2017-07-28 11:50	-70.6
2017-07-28 12:00	-71.1
2017-07-28 12:10	-71.1
2017-07-28 12:20	-71.1
2017-07-28 12:30	-71.6
2017-07-28 12:40	-70.6
2017-07-28 12:50	-71.6
2017-07-28 13:00	-71.6
2017-07-28 13:10	-71.1
2017-07-28 13:20	-71.1
2017-07-28 13:30	-71.6
2017-07-28 13:40	-69.7
2017-07-28 13:50	-71.6
2017-07-28 14:00	-70.6
2017-07-28 14:10	-70.1
2017-07-28 14:20	-71.1
2017-07-28 14:30	-71.6
2017-07-28 14:40	-71.1
2017-07-28 14:50	-70.7
2017-07-28 15:00	-71.6
2017-07-28 15:10	-71.1
2017-07-28 15:20	-71.1
2017-07-28 15:30	-70.6
2017-07-28 15:40	-71.6
2017-07-28 15:50	-70.6
2017-07-28 16:00	-71.1
2017-07-28 16:10	-71.6
2017-07-28 16:20	-70.1
2017-07-28 16:30	-71.1
2017-07-28 16:40	-71.2
2017-07-28 16:50	-71.7
2017-07-28 17:00	-70.1
2017-07-28 17:10	-71.6
2017-07-28 17:20	-71.2
2017-07-28 17:30	-70.4
2017-07-28 17:40	-70.1
2017-07-28 17:50	-70.6
2017-07-28 18:00	-71.6
2017-07-28 18:10	-71.6
2017-07-28 18:20	-71.1
2017-07-28 18:30	-70.3
2017-07-28 18:40	-68.1
2017-07-28 18:50	-68.8
2017-07-28 19:00	-69.2
2017-07-28 19:10	-70.3
2017-07-28 19:20	-70.4
2017-07-28 19:30	-69.8
2017-07-28 19:40	-70.6
2017-07-28 19:50	-70.6
2017-07-28 20:00	-71.6
2017-07-28 20:10	-70.1
2017-07-28 20:20	-70.1
2017-07-28 20:30	-71.1
2017-07-28 20:40	-71.1
2017-07-28 20:50	-71.1
2017-07-28 21:00	-71.1
2017-07-28 21:10	-71.6
2017-07-28 21:20	-71.6
2017-07-28 21:30	-70.6
2017-07-28 21:40	-70.9
2017-07-28 21:50	-71.6
2017-07-28 22:00	-71.1
2017-07-28 22:10	-71.1
2017-07-28 22:20	-71.1
2017-07-28 22:30	-71.1
2017-07-28 22:40	-71.1
2017-07-28 22:50	-71.6
2017-07-28 23:00	-71.1
2017-07-28 23:10	-71.6
2017-07-28 23:20	-70.6
2017-07-28 23:30	-71.6
2017-07-28 23:40	-70.7
2017-07-28 23:50	-71.1
2017-07-29 00:00	-71.6
2017-07-29 00:10	-70.7
2017-07-29 00:20	-70.6
2017-07-29 00:30	-71.1
2017-07-29 00:40	-71.1
2017-07-29 00:50	-71.6
2017-07-29 01:00	-71.7
2017-07-29 01:10	-71.2
2017-07-29 01:20	-70.6
2017-07-29 01:30	-71.0
2017-07-29 01:40	-71.2
2017-07-29 01:50	-71.6
2017-07-29 02:00	-71.1
2017-07-29 02:10	-71.1
2017-07-29 02:20	-70.1
2017-07-29 02:30	-71.6
2017-07-29 02:40	-71.1
2017-07-29 02:50	-71.1
2017-07-29 03:00	-71.1
2017-07-29 03:10	-71.1
2017-07-29 03:20	-70.6
2017-07-29 03:30	-70.1
2017-07-29 03:40	-70.6
2017-07-29 03:50	-71.6
2017-07-29 04:00	-71.1
2017-07-29 04:10	-71.1
2017-07-29 04:20	-71.6
2017-07-29 04:30	-71.1
2017-07-29 04:40	-71.6
2017-07-29 04:50	-70.6
2017-07-29 05:00	-71.6
2017-07-29 05:10	-70.6
2017-07-29 05:20	-71.1
2017-07-29 05:30	-71.0
2017-07-29 05:40	-71.6
2017-07-29 05:50	-70.6
2017-07-29 06:00	-71.6
2017-07-29 06:10	-71.1
2017-07-29 06:20	-71.6
2017-07-29 06:30	-71.1
2017-07-29 06:40	-71.1
2017-07-29 06:50	-71.6
2017-07-29 07:00	-71.1
2017-07-29 07:10	-71.1
2017-07-29 07:20	-70.1
2017-07-29 07:30	-70.6
2017-07-29 07:40	-71.1
2017-07-29 07:50	-71.1
2017-07-29 08:00	-71.1
2017-07-29 08:10	-70.6
2017-07-29 08:20	-70.6
2017-07-29 08:30	-70.1
2017-07-29 08:40	-71.6
2017-07-29 08:50	-71.1
2017-07-29 09:00	-71.1
2017-07-29 09:10	-70.6
2017-07-29 09:20	-71.1
2017-07-29 09:30	-71.1
2017-07-29 09:40	-71.6
2017-07-29 09:50	-71.6
2017-07-29 10:00	-71.6
2017-07-29 10:10	-71.1
2017-07-29 10:20	-71.1
2017-07-29 10:30	-71.1
2017-07-29 10:40	-69.7
2017-07-29 10:50	-69.0
2017-07-29 11:00	-70.1
2017-07-29 11:10	-70.4
2017-07-29 11:20	-70.6
2017-07-29 11:30	-71.6
2017-07-29 11:40	-70.6
2017-07-29 11:50	-71.6
2017-07-29 12:00	-71.1
2017-07-29 12:10	-70.6
2017-07-29 12:20	-70.6
2017-07-29 12:30	-70.6
2017-07-29 12:40	-71.6
2017-07-29 12:50	-70.7
2017-07-29 13:00	-71.1
2017-07-29 13:10	-70.6
2017-07-29 13:20	-71.6
2017-07-29 13:30	-71.0
2017-07-29 13:40	-71.6
2017-07-29 13:50	-71.6
2017-07-29 14:00	-71.1
2017-07-29 14:10	-71.6
2017-07-29 14:20	-71.1
2017-07-29 14:30	-71.6
2017-07-29 14:40	-70.6
2017-07-29 14:50	-71.6
2017-07-29 15:00	-71.6
2017-07-29 15:10	-71.6
2017-07-29 15:20	-71.6
2017-07-29 15:30	-71.6
2017-07-29 15:40	-71.1
2017-07-29 15:50	-71.1
2017-07-29 16:00	-71.1
2017-07-29 16:10	-71.1
2017-07-29 16:20	-71.1
2017-07-29 16:30	-71.6
2017-07-29 16:40	-71.6
2017-07-29 16:50	-70.6
2017-07-29 17:00	-71.6
2017-07-29 17:10	-71.6
2017-07-29 17:20	-71.1
2017-07-29 17:30	-70.6
2017-07-29 17:40	-71.0
2017-07-29 17:50	-71.1
2017-07-29 18:00	-71.2
2017-07-29 18:10	-70.6
2017-07-29 18:20	-71.1
2017-07-29 18:30	-71.1
2017-07-29 18:40	-70.6
2017-07-29 18:50	-70.6
2017-07-29 19:00	-71.6
2017-07-29 19:10	-70.6
2017-07-29 19:20	-71.6
2017-07-29 19:30	-71.1
2017-07-29 19:40	-71.6
2017-07-29 19:50	-71.6
2017-07-29 20:00	-70.7
2017-07-29 20:10	-70.6
2017-07-29 20:20	-71.1
2017-07-29 20:30	-71.6
2017-07-29 20:40	-71.1
2017-07-29 20:50	-70.6
2017-07-29 21:00	-70.1
2017-07-29 21:10	-71.1
2017-07-29 21:20	-70.6
2017-07-29 21:30	-71.2
2017-07-29 21:40	-71.0
2017-07-29 21:50	-70.6
2017-07-29 22:00	-71.6
2017-07-29 22:10	-71.1
2017-07-29 22:20	-70.6
2017-07-29 22:30	-70.6
2017-07-29 22:40	-71.6
2017-07-29 22:50	-70.6
2017-07-29 23:00	-71.1
2017-07-29 23:10	-70.6
2017-07-29 23:20	-71.6
2017-07-29 23:30	-71.6
2017-07-29 23:40	-71.1
2017-07-29 23:50	-71.6
2017-07-30 00:00	-69.0
2017-07-30 00:10	-69.4
2017-07-30 00:20	-68.1
2017-07-30 00:30	-69.4
2017-07-30 00:40	-70.2
2017-07-30 00:50	-70.4
2017-07-30 01:00	-71.1
2017-07-30 01:10	-70.6
2017-07-30 01:20	-70.1
2017-07-30 01:30	-71.6
2017-07-30 01:40	-71.0
2017-07-30 01:50	-71.6
2017-07-30 02:00	-71.6
2017-07-30 02:10	-71.1
2017-07-30 02:20	-71.1
2017-07-30 02:30	-71.6
2017-07-30 02:40	-70.6
2017-07-30 02:50	-71.6
2017-07-30 03:00	-71.1
2017-07-30 03:10	-71.1
2017-07-30 03:20	-70.1
2017-07-30 03:30	-71.6
2017-07-30 03:40	-71.1
2017-07-30 03:50	-71.6
2017-07-30 04:00	-71.1
2017-07-30 04:10	-70.6
2017-07-30 04:20	-71.1
2017-07-30 04:30	-71.1
2017-07-30 04:40	-71.1
2017-07-30 04:50	-71.1
2017-07-30 05:00	-71.1
2017-07-30 05:10	-71.1
2017-07-30 05:20	-71.1
2017-07-30 05:30	-71.6
2017-07-30 05:40	-71.0
2017-07-30 05:50	-70.6
2017-07-30 06:00	-71.1
2017-07-30 06:10	-70.6
2017-07-30 06:20	-70.7
2017-07-30 06:30	-70.6
2017-07-30 06:40	-70.6
2017-07-30 06:50	-71.6
2017-07-30 07:00	-71.6
2017-07-30 07:10	-71.6
2017-07-30 07:20	-71.6
2017-07-30 07:30	-71.1
2017-07-30 07:40	-71.1
2017-07-30 07:50	-71.6
2017-07-30 08:00	-70.6
2017-07-30 08:10	-71.1
2017-07-30 08:20	-71.6
2017-07-30 08:30	-71.6
2017-07-30 08:40	-71.1
2017-07-30 08:50	-71.1
2017-07-30 09:00	-71.1
2017-07-30 09:10	-70.6
2017-07-30 09:20	-71.6
2017-07-30 09:30	-71.1
2017-07-30 09:40	-71.0
2017-07-30 09:50	-71.6
2017-07-30 10:00	-71.1
2017-07-30 10:10	-70.6
2017-07-30 10:20	-71.6
2017-07-30 10:30	-71.6
2017-07-30 10:40	-71.6
2017-07-30 10:50	-70.6
2017-07-30 11:00	-71.6
2017-07-30 11:10	-71.6
2017-07-30 11:20	-70.6
2017-07-30 11:30	-70.6
2017-07-30 11:40	-71.6
2017-07-30 11:50	-71.1
2017-07-30 12:00	-71.1
2017-07-30 12:10	-70.6
2017-07-30 12:20	-71.1
2017-07-30 12:30	-71.1
2017-07-30 12:40	-71.6
2017-07-30 12:50	-70.6
2017-07-30 13:00	-70.6
2017-07-30 13:10	-70.6
2017-07-30 13:20	-71.6
2017-07-30 13:30	-70.6
2017-07-30 13:40	-71.0
2017-07-30 13:50	-71.1
2017-07-30 14:00	-71.1
2017-07-30 14:10	-70.6
2017-07-30 14:20	-71.6
2017-07-30 14:30	-68.1
2017-07-30 14:40	-69.2
2017-07-30 14:50	-69.7
2017-07-30 15:00	-70.4
2017-07-30 15:10	-71.6
2017-07-30 15:20	-71.1
2017-07-30 15:30	-71.6
2017-07-30 15:40	-70.6
2017-07-30 15:50	-71.6
2017-07-30 16:00	-71.6
2017-07-30 16:10	-71.6
2017-07-30 16:20	-71.1
2017-07-30 16:30	-71.6
2017-07-30 16:40	-71.1
2017-07-30 16:50	-70.6
2017-07-30 17:00	-71.6
2017-07-30 17:10	-71.6
2017-07-30 17:20	-71.1
2017-07-30 17:30	-71.1
2017-07-30 17:40	-71.6
2017-07-30 17:50	-71.0
2017-07-30 18:00	-71.6
2017-07-30 18:10	-70.6
2017-07-30 18:20	-71.1
2017-07-30 18:30	-71.1
2017-07-30 18:40	-71.1
2017-07-30 18:50	-71.6
2017-07-30 19:00	-70.6
2017-07-30 19:10	-70.6
2017-07-30 19:20	-71.6
2017-07-30 19:30	-71.2
2017-07-30 19:40	-71.2
2017-07-30 19:50	-71.1
2017-07-30 20:00	-71.7
2017-07-30 20:10	-71.1
2017-07-30 20:20	-71.1
2017-07-30 20:30	-71.1
2017-07-30 20:40	-70.7
2017-07-30 20:50	-70.6
2017-07-30 21:00	-71.6
2017-07-30 21:10	-71.6
2017-07-30 21:20	-71.1
2017-07-30 21:30	-71.1
2017-07-30 21:40	-69.6
2017-07-30 21:50	-71.0
2017-07-30 22:00	-70.6
2017-07-30 22:10	-70.6
2017-07-30 22:20	-71.6
2017-07-30 22:30	-71.1
2017-07-30 22:40	-70.6
2017-07-30 22:50	-70.6
2017-07-30 23:00	-71.1
2017-07-30 23:10	-71.1
2017-07-30 23:20	-71.1
2017-07-30 23:30	-71.6
2017-07-30 23:40	-70.6
2017-07-30 23:50	-70.1
2017-07-31 00:00	-71.6
2017-07-31 00:10	-70.6
2017-07-31 00:20	-71.6
2017-07-31 00:30	-71.6
2017-07-31 00:40	-70.6
2017-07-31 00:50	-71.1
2017-07-31 01:00	-71.1
2017-07-31 01:10	-71.6
2017-07-31 01:20	-71.6
2017-07-31 01:30	-70.6
2017-07-31 01:40	-70.6
2017-07-31 01:50	-71.1
2017-07-31 02:00	-71.0
2017-07-31 02:10	-71.6
2017-07-31 02:20	-71.1
2017-07-31 02:30	-70.6
2017-07-31 02:40	-71.6
2017-07-31 02:50	-71.1
2017-07-31 03:00	-71.6
2017-07-31 03:10	-70.6
2017-07-31 03:20	-71.1
2017-07-31 03:30	-71.1
2017-07-31 03:40	-70.6
2017-07-31 03:50	-70.6
2017-07-31 04:00	-70.6
2017-07-31 04:10	-69.4
2017-07-31 04:20	-68.9
2017-07-31 04:30	-68.5
2017-07-31 04:40	-70.6
2017-07-31 04:50	-70.4
2017-07-31 05:00	-71.6
2017-07-31 05:10	-70.6
2017-07-31 05:20	-70.1
2017-07-31 05:30	-71.1
2017-07-31 05:40	-71.6
2017-07-31 05:50	-71.6
2017-07-31 06:00	-71.6
2017-07-31 06:10	-71.6
2017-07-31 06:20	-70.6
2017-07-31 06:30	-71.6
2017-07-31 06:40	-71.6
2017-07-31 06:50	-70.6
2017-07-31 07:00	-71.6
2017-07-31 07:10	-70.6
2017-07-31 07:20	-70.6
2017-07-31 07:30	-70.6
2017-07-31 07:40	-71.1
2017-07-31 07:50	-71.6
2017-07-31 08:00	-70.6
2017-07-31 08:10	-71.1
2017-07-31 08:20	-71.6
2017-07-31 08:30	-71.1
2017-07-31 08:40	-71.6
2017-07-31 08:50	-70.6
2017-07-31 09:00	-71.1
2017-07-31 09:10	-70.6
2017-07-31 09:20	-71.6
2017-07-31 09:30	-71.6
2017-07-31 09:40	-71.1
2017-07-31 09:50	-71.1
2017-07-31 10:00	-71.6
2017-07-31 10:10	-71.1
2017-07-31 10:20	-71.1
2017-07-31 10:30	-70.6
2017-07-31 10:40	-71.6
2017-07-31 10:50	-70.6
2017-07-31 11:00	-71.1
2017-07-31 11:10	-70.6
2017-07-31 11:20	-71.1
2017-07-31 11:30	-70.6
2017-07-31 11:40	-71.1
2017-07-31 11:50	-71.1
2017-07-31 12:00	-71.1
2017-07-31 12:10	-71.1
2017-07-31 12:20	-70.6
2017-07-31 12:30	-70.7
2017-07-31 12:40	-71.7
2017-07-31 12:50	-71.7
2017-07-31 13:00	-71.7
2017-07-31 13:10	-71.7
2017-07-31 13:20	-70.7
2017-07-31 13:30	-71.2
2017-07-31 13:40	-71.1
2017-07-31 13:50	-71.2
2017-07-31 14:00	-71.6
2017-07-31 14:10	-70.4
2017-07-31 14:20	-71.7
2017-07-31 14:30	-71.7
2017-07-31 14:40	-70.7
2017-07-31 14:50	-70.2
2017-07-31 15:00	-70.7
2017-07-31 15:10	-71.2
2017-07-31 15:20	-71.2
2017-07-31 15:30	-71.6
2017-07-31 15:40	-71.2
2017-07-31 15:50	-71.2
2017-07-31 16:00	-71.7
2017-07-31 16:10	-70.6
2017-07-31 16:20	-71.6
2017-07-31 16:30	-70.6
2017-07-31 16:40	-71.6
2017-07-31 16:50	-70.1
2017-07-31 17:00	-71.2
2017-07-31 17:10	-71.1
2017-07-31 17:20	-70.1
2017-07-31 17:30	-71.1
2017-07-31 17:40	-70.6
2017-07-31 17:50	-70.7
2017-07-31 18:00	-71.2
2017-07-31 18:10	-71.0
2017-07-31 18:20	-71.7
2017-07-31 18:30	-71.2
2017-07-31 18:40	-71.6
2017-07-31 18:50	-70.7
2017-07-31 19:00	-70.2
2017-07-31 19:10	-71.7
2017-07-31 19:20	-70.2
2017-07-31 19:30	-70.7
2017-07-31 19:40	-71.6
2017-07-31 19:50	-68.1
2017-07-31 20:00	-69.9
2017-07-31 20:10	-69.2
2017-07-31 20:20	-70.0
2017-07-31 20:30	-71.2
2017-07-31 20:40	-70.7
2017-07-31 20:50	-71.1
2017-07-31 21:00	-71.6
2017-07-31 21:10	-70.7
2017-07-31 21:20	-70.6
2017-07-31 21:30	-71.1
2017-07-31 21:40	-70.6
2017-07-31 21:50	-70.2
2017-07-31 22:00	-71.6
2017-07-31 22:10	-71.0
2017-07-31 22:20	-71.1
2017-07-31 22:30	-70.1
2017-07-31 22:40	-71.1
2017-07-31 22:50	-71.7
2017-07-31 23:00	-70.1
2017-07-31 23:10	-71.6
2017-07-31 23:20	-69.7
2017-07-31 23:30	-71.2
2017-07-31 23:40	-71.6
2017-07-31 23:50	-71.1
2017-08-01 00:00	-71.1
2017-08-01 00:10	-71.6
2017-08-01 00:20	-71.6
2017-08-01 00:30	-70.6
2017-08-01 00:40	-71.6
2017-08-01 00:50	-71.1
2017-08-01 01:00	-71.6
2017-08-01 01:10	-70.7
2017-08-01 01:20	-71.1
2017-08-01 01:30	-71.1
2017-08-01 01:40	-71.6
2017-08-01 01:50	-70.1
2017-08-01 02:00	-71.6
2017-08-01 02:10	-71.1
2017-08-01 02:20	-71.6
2017-08-01 02:30	-70.6
2017-08-01 02:40	-70.6
2017-08-01 02:50	-71.2
2017-08-01 03:00	-71.1
2017-08-01 03:10	-71.1
2017-08-01 03:20	-70.6
2017-08-01 03:30	-71.1
2017-08-01 03:40	-71.1
2017-08-01 03:50	-71.1
2017-08-01 04:00	-70.6
2017-08-01 04:10	-71.1
2017-08-01 04:20	-71.1
2017-08-01 04:30	-70.7
2017-08-01 04:40	-71.1
2017-08-01 04:50	-71.7
2017-08-01 05:00	-71.6
2017-08-01 05:10	-70.6
2017-08-01 05:20	-71.2
2017-08-01 05:30	-70.7
2017-08-01 05:40	-71.2
2017-08-01 05:50	-71.1
2017-08-01 06:00	-71.6
2017-08-01 06:10	-71.7
2017-08-01 06:20	-71.0
2017-08-01 06:30	-71.1
2017-08-01 06:40	-70.7
2017-08-01 06:50	-71.6
2017-08-01 07:00	-71.1
2017-08-01 07:10	-70.6
2017-08-01 07:20	-71.6
2017-08-01 07:30	-71.6
2017-08-01 07:40	-70.6
2017-08-01 07:50	-71.1
2017-08-01 08:00	-71.7
2017-08-01 08:10	-71.1
2017-08-01 08:20	-70.1
2017-08-01 08:30	-71.6
2017-08-01 08:40	-70.7
2017-08-01 08:50	-71.1
2017-08-01 09:00	-71.6
2017-08-01 09:10	-70.6
2017-08-01 09:20	-70.7
2017-08-01 09:30	-71.1
2017-08-01 09:40	-71.1
2017-08-01 09:50	-69.7
2017-08-01 10:00	-69.8
2017-08-01 10:10	-68.1
2017-08-01 10:20	-69.2
2017-08-01 10:30	-69.9
2017-08-01 10:40	-70.0
2017-08-01 10:50	-70.2
2017-08-01 11:00	-71.6
2017-08-01 11:10	-70.6
2017-08-01 11:20	-71.1
2017-08-01 11:30	-71.1
2017-08-01 11:40	-71.1
2017-08-01 11:50	-70.1
2017-08-01 12:00	-70.7
2017-08-01 12:10	-71.6
2017-08-01 12:20	-71.6
2017-08-01 12:30	-71.1
2017-08-01 12:40	-70.1
2017-08-01 12:50	-71.2
2017-08-01 13:00	-70.6
2017-08-01 13:10	-71.6
2017-08-01 13:20	-71.1
2017-08-01 13:30	-70.1
2017-08-01 13:40	-71.1
2017-08-01 13:50	-71.6
2017-08-01 14:00	-71.1
2017-08-01 14:10	-71.1
2017-08-01 14:20	-70.6
2017-08-01 14:30	-70.2
2017-08-01 14:40	-71.7
2017-08-01 14:50	-71.6
2017-08-01 15:00	-71.6
2017-08-01 15:10	-71.1
2017-08-01 15:20	-70.6
2017-08-01 15:30	-70.6
2017-08-01 15:40	-71.1
2017-08-01 15:50	-70.6
2017-08-01 16:00	-71.6
2017-08-01 16:10	-71.1
2017-08-01 16:20	-71.7
2017-08-01 16:30	-70.6
2017-08-01 16:40	-70.7
2017-08-01 16:50	-71.6
2017-08-01 17:00	-70.7
2017-08-01 17:10	-71.2
2017-08-01 17:20	-71.7
2017-08-01 17:30	-71.2
2017-08-01 17:40	-71.7
2017-08-01 17:50	-71.1
2017-08-01 18:00	-71.1
2017-08-01 18:10	-71.1
2017-08-01 18:20	-71.1
2017-08-01 18:30	-71.2
2017-08-01 18:40	-69.7
2017-08-01 18:50	-71.7
2017-08-01 19:00	-70.6
2017-08-01 19:10	-71.1
2017-08-01 19:20	-71.6
2017-08-01 19:30	-71.1
2017-08-01 19:40	-71.6
2017-08-01 19:50	-70.1
2017-08-01 20:00	-71.2
2017-08-01 20:10	-71.6
2017-08-01 20:20	-71.1
2017-08-01 20:30	-70.7
2017-08-01 20:40	-71.7
2017-08-01 20:50	-71.6
2017-08-01 21:00	-70.1
2017-08-01 21:10	-71.2
2017-08-01 21:20	-70.1
2017-08-01 21:30	-70.2
2017-08-01 21:40	-70.6
2017-08-01 21:50	-70.1
2017-08-01 22:00	-69.5
2017-08-01 22:10	-68.1
2017-08-01 22:20	-68.6
2017-08-01 22:30	-69.1
2017-08-01 22:40	-71.1
2017-08-01 22:50	-71.6
2017-08-01 23:00	-71.1
2017-08-01 23:10	-69.6
2017-08-01 23:20	-70.2
2017-08-01 23:30	-71.2
2017-08-01 23:40	-70.6
2017-08-01 23:50	-71.1
2017-08-02 00:00	-70.6
2017-08-02 00:10	-70.7
2017-08-02 00:20	-70.7
2017-08-02 00:30	-71.1
2017-08-02 00:40	-71.6
2017-08-02 00:50	-71.6
2017-08-02 01:00	-71.1
2017-08-02 01:10	-70.2
2017-08-02 01:20	-71.1
2017-08-02 01:30	-70.6
2017-08-02 01:40	-71.1
2017-08-02 01:50	-71.1
2017-08-02 02:00	-71.6
2017-08-02 02:10	-71.1
2017-08-02 02:20	-70.1
2017-08-02 02:30	-71.1
2017-08-02 02:40	-71.1
2017-08-02 02:50	-71.6
2017-08-02 03:00	-71.7
2017-08-02 03:10	-71.1
2017-08-02 03:20	-71.1
2017-08-02 03:30	-71.6
2017-08-02 03:40	-71.1
2017-08-02 03:50	-71.6
2017-08-02 04:00	-70.6
2017-08-02 04:10	-70.1
2017-08-02 04:20	-71.1
2017-08-02 04:30	-71.6
2017-08-02 04:40	-71.2
2017-08-02 04:50	-71.1
2017-08-02 05:00	-70.1
2017-08-02 05:10	-71.2
2017-08-02 05:20	-71.1
2017-08-02 05:30	-71.6
2017-08-02 05:40	-71.1
2017-08-02 05:50	-71.6
2017-08-02 06:00	-71.6
2017-08-02 06:10	-71.1
2017-08-02 06:20	-71.1
2017-08-02 06:30	-70.7
2017-08-02 06:40	-70.7
2017-08-02 06:50	-70.7
2017-08-02 07:00	-70.6
2017-08-02 07:10	-70.4
2017-08-02 07:20	-71.6
2017-08-02 07:30	-71.1
2017-08-02 07:40	-70.7
2017-08-02 07:50	-70.6
2017-08-02 08:00	-70.1
2017-08-02 08:10	-71.1
2017-08-02 08:20	-70.7
2017-08-02 08:30	-71.6
2017-08-02 08:40	-70.7
2017-08-02 08:50	-70.2
2017-08-02 09:00	-70.2
2017-08-02 09:10	-70.1
2017-08-02 09:20	-71.1
2017-08-02 09:30	-71.6
2017-08-02 09:40	-71.1
2017-08-02 09:50	-71.1
2017-08-02 10:00	-70.1
2017-08-02 10:10	-71.1
2017-08-02 10:20	-71.2
2017-08-02 10:30	-71.6
2017-08-02 10:40	-70.7
2017-08-02 10:50	-70.6
2017-08-02 11:00	-71.1
2017-08-02 11:10	-71.6
2017-08-02 11:20	-70.7
2017-08-02 11:30	-67.2
2017-08-02 11:40	-68.5
2017-08-02 11:50	-68.1
2017-08-02 12:00	-69.0
2017-08-02 12:10	-70.9
2017-08-02 12:20	-70.2
2017-08-02 12:30	-71.7
2017-08-02 12:40	-71.1
2017-08-02 12:50	-70.6
2017-08-02 13:00	-71.6
2017-08-02 13:10	-70.6
2017-08-02 13:20	-71.6
2017-08-02 13:30	-71.1
2017-08-02 13:40	-71.6
2017-08-02 13:50	-71.2
2017-08-02 14:00	-71.1
2017-08-02 14:10	-71.6
2017-08-02 14:20	-71.6
2017-08-02 14:30	-71.1
2017-08-02 14:40	-71.1
2017-08-02 14:50	-71.1
2017-08-02 15:00	-71.1
2017-08-02 15:10	-71.0
2017-08-02 15:20	-71.6
2017-08-02 15:30	-71.1
2017-08-02 15:40	-70.6
2017-08-02 15:50	-71.6
2017-08-02 16:00	-70.6
2017-08-02 16:10	-71.6
2017-08-02 16:20	-71.6
2017-08-02 16:30	-71.7
2017-08-02 16:40	-71.1
2017-08-02 16:50	-71.6
2017-08-02 17:00	-71.7
2017-08-02 17:10	-71.6
2017-08-02 17:20	-71.1
2017-08-02 17:30	-71.2
2017-08-02 17:40	-70.7
2017-08-02 17:50	-71.2
2017-08-02 18:00	-71.2
2017-08-02 18:10	-71.2
2017-08-02 18:20	-71.7
2017-08-02 18:30	-70.2
2017-08-02 18:40	-71.7
2017-08-02 18:50	-71.7
2017-08-02 19:00	-71.2
2017-08-02 19:10	-70.4
2017-08-02 19:20	-71.2
2017-08-02 19:30	-71.7
2017-08-02 19:40	-71.2
2017-08-02 19:50	-71.2
2017-08-02 20:00	-71.2
2017-08-02 20:10	-70.7
2017-08-02 20:20	-71.7
2017-08-02 20:30	-71.2
2017-08-02 20:40	-70.7
2017-08-02 20:50	-71.2
2017-08-02 21:00	-70.7
2017-08-02 21:10	-71.2
2017-08-02 21:20	-71.2
2017-08-02 21:30	-70.7
2017-08-02 21:40	-71.7
2017-08-02 21:50	-70.7
2017-08-02 22:00	-71.2
2017-08-02 22:10	-70.7
2017-08-02 22:20	-68.6
2017-08-02 22:30	-69.0
2017-08-02 22:40	-68.0
2017-08-02 22:50	-69.8
2017-08-02 23:00	-70.9
2017-08-02 23:10	-70.5
2017-08-02 23:20	-71.7
2017-08-02 23:30	-71.2
2017-08-02 23:40	-70.7
2017-08-02 23:50	-70.2
2017-08-03 00:00	-71.6
2017-08-03 00:10	-70.0
2017-08-03 00:20	-71.7
2017-08-03 00:30	-70.6
2017-08-03 00:40	-71.2
2017-08-03 00:50	-71.2
2017-08-03 01:00	-70.7
2017-08-03 01:10	-71.2
2017-08-03 01:20	-71.1
2017-08-03 01:30	-71.6
2017-08-03 01:40	-71.1
2017-08-03 01:50	-70.1
2017-08-03 02:00	-70.1
2017-08-03 02:10	-71.1
2017-08-03 02:20	-71.1
2017-08-03 02:30	-70.6
2017-08-03 02:40	-71.1
2017-08-03 02:50	-71.1
2017-08-03 03:00	-70.1
2017-08-03 03:10	-70.7
2017-08-03 03:20	-71.1
2017-08-03 03:30	-71.6
2017-08-03 03:40	-70.7
2017-08-03 03:50	-71.1
2017-08-03 04:00	-71.1
2017-08-03 04:10	-70.6
2017-08-03 04:20	-70.7
2017-08-03 04:30	-71.1
2017-08-03 04:40	-71.2
2017-08-03 04:50	-71.7
2017-08-03 05:00	-71.2
2017-08-03 05:10	-70.6
2017-08-03 05:20	-71.2
2017-08-03 05:30	-71.6
2017-08-03 05:40	-71.2
2017-08-03 05:50	-71.7
2017-08-03 06:00	-71.2
2017-08-03 06:10	-70.6
2017-08-03 06:20	-71.2
2017-08-03 06:30	-71.2
2017-08-03 06:40	-71.7
2017-08-03 06:50	-71.1
2017-08-03 07:00	-71.7
2017-08-03 07:10	-70.6
2017-08-03 07:20	-70.1
2017-08-03 07:30	-71.0
2017-08-03 07:40	-71.1
2017-08-03 07:50	-71.1
2017-08-03 08:00	-71.1
2017-08-03 08:10	-71.1
2017-08-03 08:20	-70.7
2017-08-03 08:30	-71.7
2017-08-03 08:40	-71.1
2017-08-03 08:50	-71.2
2017-08-03 09:00	-71.6
2017-08-03 09:10	-71.2
2017-08-03 09:20	-71.6
2017-08-03 09:30	-71.6
2017-08-03 09:40	-71.2
2017-08-03 09:50	-71.1
2017-08-03 10:00	-71.6
2017-08-03 10:10	-66.9
2017-08-03 10:20	-68.5
2017-08-03 10:30	-68.6
2017-08-03 10:40	-70.4
2017-08-03 10:50	-71.2
2017-08-03 11:00	-70.2
2017-08-03 11:10	-71.0
2017-08-03 11:20	-71.1
2017-08-03 11:30	-70.6
2017-08-03 11:40	-71.0
2017-08-03 11:50	-71.6
2017-08-03 12:00	-70.1
2017-08-03 12:10	-70.1
2017-08-03 12:20	-71.2
2017-08-03 12:30	-70.6
2017-08-03 12:40	-71.7
2017-08-03 12:50	-71.7
2017-08-03 13:00	-71.6
2017-08-03 13:10	-70.7
2017-08-03 13:20	-70.1
2017-08-03 13:30	-70.6
2017-08-03 13:40	-71.6
2017-08-03 13:50	-71.1
2017-08-03 14:00	-70.2
2017-08-03 14:10	-71.6
2017-08-03 14:20	-71.6
2017-08-03 14:30	-71.6
2017-08-03 14:40	-70.6
2017-08-03 14:50	-71.1
2017-08-03 15:00	-70.2
2017-08-03 15:10	-71.1
2017-08-03 15:20	-70.7
2017-08-03 15:30	-71.2
2017-08-03 15:40	-71.2
2017-08-03 15:50	-71.6
2017-08-03 16:00	-71.1
2017-08-03 16:10	-71.6
2017-08-03 16:20	-71.2
2017-08-03 16:30	-71.2
2017-08-03 16:40	-70.1
2017-08-03 16:50	-71.2
2017-08-03 17:00	-70.6
2017-08-03 17:10	-71.1
2017-08-03 17:20	-71.2
2017-08-03 17:30	-71.1
2017-08-03 17:40	-70.6
2017-08-03 17:50	-70.6
2017-08-03 18:00	-70.7
2017-08-03 18:10	-71.7
2017-08-03 18:20	-70.7
2017-08-03 18:30	-71.7
2017-08-03 18:40	-70.7
2017-08-03 18:50	-70.1
2017-08-03 19:00	-71.1
2017-08-03 19:10	-71.2
2017-08-03 19:20	-70.6
2017-08-03 19:30	-71.6
2017-08-03 19:40	-71.7
2017-08-03 19:50	-71.7
2017-08-03 20:00	-71.6
2017-08-03 20:10	-68.8
2017-08-03 20:20	-68.8
2017-08-03 20:30	-68.8
2017-08-03 20:40	-70.9
2017-08-03 20:50	-69.8
2017-08-03 21:00	-70.9
2017-08-03 21:10	-70.9
2017-08-03 21:20	-71.6
2017-08-03 21:30	-71.1
2017-08-03 21:40	-71.1
2017-08-03 21:50	-70.6
2017-08-03 22:00	-71.2
2017-08-03 22:10	-71.2
2017-08-03 22:20	-71.2
2017-08-03 22:30	-70.6
2017-08-03 22:40	-71.1
2017-08-03 22:50	-70.6
2017-08-03 23:00	-71.6
2017-08-03 23:10	-71.2
2017-08-03 23:20	-71.6
2017-08-03 23:30	-70.6
2017-08-03 23:40	-70.6
2017-08-03 23:50	-71.0
2017-08-04 00:00	-71.1
2017-08-04 00:10	-70.6
2017-08-04 00:20	-70.6
2017-08-04 00:30	-71.1
2017-08-04 00:40	-71.1
2017-08-04 00:50	-70.6
2017-08-04 01:00	-71.1
2017-08-04 01:10	-70.6
2017-08-04 01:20	-70.6
2017-08-04 01:30	-71.2
2017-08-04 01:40	-70.1
2017-08-04 01:50	-71.7
2017-08-04 02:00	-71.1
2017-08-04 02:10	-70.6
2017-08-04 02:20	-71.6
2017-08-04 02:30	-71.1
2017-08-04 02:40	-71.1
2017-08-04 02:50	-71.1
2017-08-04 03:00	-70.6
2017-08-04 03:10	-71.1
2017-08-04 03:20	-70.6
2017-08-04 03:30	-71.1
2017-08-04 03:40	-70.7
2017-08-04 03:50	-71.6
2017-08-04 04:00	-71.7
2017-08-04 04:10	-71.6
2017-08-04 04:20	-71.1
2017-08-04 04:30	-70.6
2017-08-04 04:40	-71.1
2017-08-04 04:50	-70.7
2017-08-04 05:00	-71.7
2017-08-04 05:10	-70.7
2017-08-04 05:20	-70.6
2017-08-04 05:30	-71.1
2017-08-04 05:40	-71.2
2017-08-04 05:50	-71.6
2017-08-04 06:00	-71.1
2017-08-04 06:10	-70.7
2017-08-04 06:20	-71.6
2017-08-04 06:30	-71.6
2017-08-04 06:40	-71.1
2017-08-04 06:50	-70.7
2017-08-04 07:00	-71.1
2017-08-04 07:10	-69.0
2017-08-04 07:20	-68.4
2017-08-04 07:30	-69.0
2017-08-04 07:40	-69.5
2017-08-04 07:50	-70.8
2017-08-04 08:00	-70.1
2017-08-04 08:10	-69.9
2017-08-04 08:20	-71.1
2017-08-04 08:30	-71.1
2017-08-04 08:40	-71.2
2017-08-04 08:50	-70.6
2017-08-04 09:00	-71.1
2017-08-04 09:10	-70.6
2017-08-04 09:20	-71.2
2017-08-04 09:30	-71.1
2017-08-04 09:40	-71.1
2017-08-04 09:50	-71.6
2017-08-04 10:00	-69.6
2017-08-04 10:10	-70.6
2017-08-04 10:20	-71.6
2017-08-04 10:30	-71.6
2017-08-04 10:40	-71.6
2017-08-04 10:50	-71.1
2017-08-04 11:00	-71.6
2017-08-04 11:10	-71.1
2017-08-04 11:20	-71.1
2017-08-04 11:30	-71.1
2017-08-04 11:40	-70.6
2017-08-04 11:50	-71.1
2017-08-04 12:00	-70.4
2017-08-04 12:10	-70.2
2017-08-04 12:20	-71.2
2017-08-04 12:30	-71.7
2017-08-04 12:40	-71.1
2017-08-04 12:50	-71.1
2017-08-04 13:00	-70.7
2017-08-04 13:10	-71.2
2017-08-04 13:20	-71.1
2017-08-04 13:30	-71.1
2017-08-04 13:40	-71.2
2017-08-04 13:50	-71.7
2017-08-04 14:00	-71.7
2017-08-04 14:10	-70.2
2017-08-04 14:20	-70.7
2017-08-04 14:30	-70.6
2017-08-04 14:40	-71.1
2017-08-04 14:50	-71.6
2017-08-04 15:00	-70.6
2017-08-04 15:10	-71.1
2017-08-04 15:20	-70.6
2017-08-04 15:30	-70.6
2017-08-04 15:40	-71.1
2017-08-04 15:50	-71.6
2017-08-04 16:00	-71.7
2017-08-04 16:10	-70.4
2017-08-04 16:20	-70.6
2017-08-04 16:30	-70.2
2017-08-04 16:40	-71.6
2017-08-04 16:50	-70.6
2017-08-04 17:00	-70.1
2017-08-04 17:10	-70.2
2017-08-04 17:20	-71.1
2017-08-04 17:30	-71.6
2017-08-04 17:40	-70.6
2017-08-04 17:50	-71.1
2017-08-04 18:00	-71.6
2017-08-04 18:10	-71.6
2017-08-04 18:20	-71.2
2017-08-04 18:30	-71.1
2017-08-04 18:40	-71.2
2017-08-04 18:50	-71.1
2017-08-04 19:00	-70.7
2017-08-04 19:10	-71.2
2017-08-04 19:20	-69.9
2017-08-04 19:30	-69.2
2017-08-04 19:40	-70.0
2017-08-04 19:50	-70.7
2017-08-04 20:00	-71.1
2017-08-04 20:10	-69.5
2017-08-04 20:20	-71.1
2017-08-04 20:30	-71.1
2017-08-04 20:40	-71.6
2017-08-04 20:50	-69.7
2017-08-04 21:00	-71.6
2017-08-04 21:10	-70.6
2017-08-04 21:20	-71.1
2017-08-04 21:30	-71.1
2017-08-04 21:40	-71.6
2017-08-04 21:50	-69.6
2017-08-04 22:00	-71.1
2017-08-04 22:10	-71.1
2017-08-04 22:20	-71.7
2017-08-04 22:30	-71.6
2017-08-04 22:40	-71.1
2017-08-04 22:50	-70.6
2017-08-04 23:00	-71.1
2017-08-04 23:10	-70.6
2017-08-04 23:20	-71.6
2017-08-04 23:30	-70.1
2017-08-04 23:40	-70.6
2017-08-04 23:50	-71.1
2017-08-05 00:00	-70.6
2017-08-05 00:10	-70.1
2017-08-05 00:20	-71.6
2017-08-05 00:30	-71.2
2017-08-05 00:40	-71.1
2017-08-05 00:50	-70.1
2017-08-05 01:00	-70.6
2017-08-05 01:10	-70.7
2017-08-05 01:20	-70.1
2017-08-05 01:30	-71.7
2017-08-05 01:40	-71.2
2017-08-05 01:50	-70.6
2017-08-05 02:00	-71.2
2017-08-05 02:10	-71.1
2017-08-05 02:20	-71.2
2017-08-05 02:30	-70.2
2017-08-05 02:40	-71.7
2017-08-05 02:50	-70.2
2017-08-05 03:00	-71.7
2017-08-05 03:10	-71.6
2017-08-05 03:20	-71.1
2017-08-05 03:30	-71.1
2017-08-05 03:40	-71.1
2017-08-05 03:50	-71.2
2017-08-05 04:00	-71.6
2017-08-05 04:10	-71.1
2017-08-05 04:20	-71.0
2017-08-05 04:30	-70.7
2017-08-05 04:40	-71.1
2017-08-05 04:50	-71.7
2017-08-05 05:00	-70.7
2017-08-05 05:10	-71.2
2017-08-05 05:20	-71.7
2017-08-05 05:30	-70.7
2017-08-05 05:40	-70.7
2017-08-05 05:50	-71.2
2017-08-05 06:00	-70.7
2017-08-05 06:10	-70.2
2017-08-05 06:20	-71.2
2017-08-05 06:30	-70.7
2017-08-05 06:40	-71.2
2017-08-05 06:50	-71.2
2017-08-05 07:00	-70.7
2017-08-05 07:10	-70.2
2017-08-05 07:20	-68.6
2017-08-05 07:30	-67.5
2017-08-05 07:40	-69.3
2017-08-05 07:50	-68.9
2017-08-05 08:00	-69.8
2017-08-05 08:10	-70.9
2017-08-05 08:20	-71.2
2017-08-05 08:30	-70.4
2017-08-05 08:40	-71.7
2017-08-05 08:50	-71.2
2017-08-05 09:00	-71.6
2017-08-05 09:10	-70.7
2017-08-05 09:20	-70.7
2017-08-05 09:30	-70.7
2017-08-05 09:40	-70.7
2017-08-05 09:50	-71.1
2017-08-05 10:00	-71.7
2017-08-05 10:10	-70.7
2017-08-05 10:20	-71.6
2017-08-05 10:30	-71.2
2017-08-05 10:40	-71.1
2017-08-05 10:50	-70.6
2017-08-05 11:00	-70.6
2017-08-05 11:10	-70.6
2017-08-05 11:20	-71.1
2017-08-05 11:30	-71.6
2017-08-05 11:40	-71.1
2017-08-05 11:50	-71.1
2017-08-05 12:00	-71.1
2017-08-05 12:10	-71.6
2017-08-05 12:20	-71.2
2017-08-05 12:30	-70.7
2017-08-05 12:40	-70.4
2017-08-05 12:50	-71.2
2017-08-05 13:00	-71.7
2017-08-05 13:10	-70.6
2017-08-05 13:20	-70.7
2017-08-05 13:30	-71.1
2017-08-05 13:40	-70.7
2017-08-05 13:50	-71.2
2017-08-05 14:00	-71.2
2017-08-05 14:10	-71.1
2017-08-05 14:20	-71.1
2017-08-05 14:30	-70.7
2017-08-05 14:40	-71.2
2017-08-05 14:50	-71.1
2017-08-05 15:00	-71.1
2017-08-05 15:10	-71.1
2017-08-05 15:20	-71.1
2017-08-05 15:30	-70.6
2017-08-05 15:40	-70.6
2017-08-05 15:50	-70.7
2017-08-05 16:00	-71.7
2017-08-05 16:10	-71.2
2017-08-05 16:20	-71.1
2017-08-05 16:30	-71.2
2017-08-05 16:40	-71.0
2017-08-05 16:50	-70.6
2017-08-05 17:00	-71.1
2017-08-05 17:10	-71.6
2017-08-05 17:20	-71.6
2017-08-05 17:30	-71.6
2017-08-05 17:40	-71.1
2017-08-05 17:50	-70.7
2017-08-05 18:00	-70.6
2017-08-05 18:10	-71.2
2017-08-05 18:20	-70.7
2017-08-05 18:30	-71.7
2017-08-05 18:40	-70.6
2017-08-05 18:50	-70.7
2017-08-05 19:00	-71.7
2017-08-05 19:10	-71.1
2017-08-05 19:20	-70.6
2017-08-05 19:30	-70.6
2017-08-05 19:40	-70.4
2017-08-05 19:50	-68.3
2017-08-05 20:00	-68.5
2017-08-05 20:10	-70.0
2017-08-05 20:20	-69.5
2017-08-05 20:30	-70.6
2017-08-05 20:40	-70.9
2017-08-05 20:50	-71.0
2017-08-05 21:00	-71.1
2017-08-05 21:10	-71.6
2017-08-05 21:20	-70.1
2017-08-05 21:30	-71.7
2017-08-05 21:40	-70.6
2017-08-05 21:50	-70.7
2017-08-05 22:00	-71.2
2017-08-05 22:10	-71.6
2017-08-05 22:20	-71.1
2017-08-05 22:30	-71.2
2017-08-05 22:40	-71.2
2017-08-05 22:50	-71.1
2017-08-05 23:00	-70.6
2017-08-05 23:10	-71.1
2017-08-05 23:20	-71.6
2017-08-05 23:30	-71.1
2017-08-05 23:40	-71.6
2017-08-05 23:50	-70.6
2017-08-06 00:00	-71.1
2017-08-06 00:10	-70.1
2017-08-06 00:20	-70.6
2017-08-06 00:30	-71.1
2017-08-06 00:40	-71.7
2017-08-06 00:50	-71.0
2017-08-06 01:00	-71.6
2017-08-06 01:10	-70.6
2017-08-06 01:20	-71.1
2017-08-06 01:30	-70.2
2017-08-06 01:40	-71.2
2017-08-06 01:50	-71.2
2017-08-06 02:00	-71.6
2017-08-06 02:10	-71.1
2017-08-06 02:20	-71.7
2017-08-06 02:30	-71.6
2017-08-06 02:40	-71.1
2017-08-06 02:50	-71.2
2017-08-06 03:00	-71.6
2017-08-06 03:10	-70.6
2017-08-06 03:20	-71.6
2017-08-06 03:30	-71.6
2017-08-06 03:40	-71.6
2017-08-06 03:50	-71.6
2017-08-06 04:00	-71.2
2017-08-06 04:10	-71.1
2017-08-06 04:20	-70.6
2017-08-06 04:30	-70.2
2017-08-06 04:40	-71.2
2017-08-06 04:50	-71.1
2017-08-06 05:00	-71.7
2017-08-06 05:10	-71.7
2017-08-06 05:20	-71.7
2017-08-06 05:30	-70.7
2017-08-06 05:40	-71.1
2017-08-06 05:50	-70.7
2017-08-06 06:00	-71.2
2017-08-06 06:10	-71.2
2017-08-06 06:20	-71.2
2017-08-06 06:30	-71.1
2017-08-06 06:40	-71.6
2017-08-06 06:50	-71.7
2017-08-06 07:00	-70.6
2017-08-06 07:10	-71.6
2017-08-06 07:20	-70.2
2017-08-06 07:30	-70.7
2017-08-06 07:40	-71.6
2017-08-06 07:50	-71.2
2017-08-06 08:00	-71.2
2017-08-06 08:10	-71.7
2017-08-06 08:20	-71.6
2017-08-06 08:30	-71.2
2017-08-06 08:40	-71.2
2017-08-06 08:50	-70.7
2017-08-06 09:00	-71.0
2017-08-06 09:10	-71.2
2017-08-06 09:20	-71.2
2017-08-06 09:30	-71.6
2017-08-06 09:40	-70.0
2017-08-06 09:50	-68.5
2017-08-06 10:00	-67.5
2017-08-06 10:10	-68.1
2017-08-06 10:20	-69.5
2017-08-06 10:30	-71.1
2017-08-06 10:40	-70.4
2017-08-06 10:50	-70.0
2017-08-06 11:00	-70.7
2017-08-06 11:10	-70.2
2017-08-06 11:20	-71.2
2017-08-06 11:30	-71.6
2017-08-06 11:40	-71.1
2017-08-06 11:50	-70.7
2017-08-06 12:00	-71.1
2017-08-06 12:10	-70.2
2017-08-06 12:20	-69.2
2017-08-06 12:30	-71.6
2017-08-06 12:40	-70.7
2017-08-06 12:50	-70.2
2017-08-06 13:00	-70.4
2017-08-06 13:10	-70.6
2017-08-06 13:20	-70.6
2017-08-06 13:30	-71.6
2017-08-06 13:40	-71.1
2017-08-06 13:50	-71.6
2017-08-06 14:00	-70.6
2017-08-06 14:10	-70.6
2017-08-06 14:20	-70.6
2017-08-06 14:30	-70.6
2017-08-06 14:40	-71.1
2017-08-06 14:50	-71.1
2017-08-06 15:00	-70.7
2017-08-06 15:10	-70.7
2017-08-06 15:20	-71.1
2017-08-06 15:30	-71.6
2017-08-06 15:40	-70.1
2017-08-06 15:50	-70.2
2017-08-06 16:00	-70.6
2017-08-06 16:10	-70.7
2017-08-06 16:20	-71.6
2017-08-06 16:30	-71.2
2017-08-06 16:40	-71.7
2017-08-06 16:50	-71.7
2017-08-06 17:00	-71.0
2017-08-06 17:10	-71.1
2017-08-06 17:20	-71.1
2017-08-06 17:30	-71.2
2017-08-06 17:40	-71.6
2017-08-06 17:50	-71.6
2017-08-06 18:00	-70.2
2017-08-06 18:10	-71.1
2017-08-06 18:20	-70.7
2017-08-06 18:30	-70.7
2017-08-06 18:40	-71.2
2017-08-06 18:50	-71.1
2017-08-06 19:00	-71.6
2017-08-06 19:10	-71.7
2017-08-06 19:20	-71.1
2017-08-06 19:30	-70.6
2017-08-06 19:40	-71.1
2017-08-06 19:50	-70.7
2017-08-06 20:00	-71.7
2017-08-06 20:10	-71.2
2017-08-06 20:20	-71.7
2017-08-06 20:30	-71.1
2017-08-06 20:40	-70.7
2017-08-06 20:50	-71.7
2017-08-06 21:00	-71.6
2017-08-06 21:10	-71.6
2017-08-06 21:20	-71.6
2017-08-06 21:30	-71.2
2017-08-06 21:40	-70.2
2017-08-06 21:50	-71.2
2017-08-06 22:00	-70.2
2017-08-06 22:10	-71.2
2017-08-06 22:20	-71.1
2017-08-06 22:30	-70.6
2017-08-06 22:40	-71.1
2017-08-06 22:50	-71.1
2017-08-06 23:00	-70.1
2017-08-06 23:10	-71.2
2017-08-06 23:20	-71.6
2017-08-06 23:30	-70.6
2017-08-06 23:40	-71.7
2017-08-06 23:50	-71.7
2017-08-07 00:00	-71.1
2017-08-07 00:10	-70.7
2017-08-07 00:20	-71.1
2017-08-07 00:30	-70.6
2017-08-07 00:40	-68.8
2017-08-07 00:50	-68.6
2017-08-07 01:00	-68.4
2017-08-07 01:10	-69.6
2017-08-07 01:20	-70.9
2017-08-07 01:30	-70.7
2017-08-07 01:40	-70.7
2017-08-07 01:50	-70.7
2017-08-07 02:00	-71.6
2017-08-07 02:10	-70.7
2017-08-07 02:20	-71.7
2017-08-07 02:30	-71.2
2017-08-07 02:40	-71.7
2017-08-07 02:50	-70.6
2017-08-07 03:00	-71.1
2017-08-07 03:10	-71.6
2017-08-07 03:20	-71.7
2017-08-07 03:30	-71.2
2017-08-07 03:40	-71.6
2017-08-07 03:50	-71.7
2017-08-07 04:00	-70.1
2017-08-07 04:10	-71.6
2017-08-07 04:20	-69.7
2017-08-07 04:30	-71.1
2017-08-07 04:40	-70.6
2017-08-07 04:50	-70.7
2017-08-07 05:00	-70.1
2017-08-07 05:10	-71.6
2017-08-07 05:20	-71.2
2017-08-07 05:30	-71.7
2017-08-07 05:40	-70.2
2017-08-07 05:50	-70.7
2017-08-07 06:00	-71.1
2017-08-07 06:10	-70.6
2017-08-07 06:20	-70.6
2017-08-07 06:30	-70.7
2017-08-07 06:40	-70.7
2017-08-07 06:50	-70.6
2017-08-07 07:00	-71.6
2017-08-07 07:10	-71.6
2017-08-07 07:20	-70.7
2017-08-07 07:30	-70.6
2017-08-07 07:40	-71.2
2017-08-07 07:50	-71.2
2017-08-07 08:00	-71.2
2017-08-07 08:10	-71.2
2017-08-07 08:20	-71.1
2017-08-07 08:30	-70.2
2017-08-07 08:40	-70.7
2017-08-07 08:50	-71.2
2017-08-07 09:00	-71.7
2017-08-07 09:10	-71.6
2017-08-07 09:20	-70.6
2017-08-07 09:30	-70.6
2017-08-07 09:40	-71.6
2017-08-07 09:50	-71.7
2017-08-07 10:00	-71.6
2017-08-07 10:10	-70.1
2017-08-07 10:20	-70.6
2017-08-07 10:30	-71.6
2017-08-07 10:40	-71.6
2017-08-07 10:50	-71.6
2017-08-07 11:00	-70.6
2017-08-07 11:10	-71.1
2017-08-07 11:20	-71.6
2017-08-07 11:30	-70.1
2017-08-07 11:40	-71.1
2017-08-07 11:50	-70.6
2017-08-07 12:00	-70.6
2017-08-07 12:10	-71.6
2017-08-07 12:20	-71.1
2017-08-07 12:30	-70.1
2017-08-07 12:40	-70.6
2017-08-07 12:50	-71.1
2017-08-07 13:00	-71.6
2017-08-07 13:10	-71.6
2017-08-07 13:20	-71.1
2017-08-07 13:30	-71.1
2017-08-07 13:40	-71.6
2017-08-07 13:50	-70.6
2017-08-07 14:00	-70.1
2017-08-07 14:10	-71.6
2017-08-07 14:20	-71.2
2017-08-07 14:30	-71.7
2017-08-07 14:40	-71.6
2017-08-07 14:50	-70.7
2017-08-07 15:00	-71.1
2017-08-07 15:10	-70.7
2017-08-07 15:20	-71.7
2017-08-07 15:30	-70.6
2017-08-07 15:40	-71.6
2017-08-07 15:50	-71.1
2017-08-07 16:00	-71.1
2017-08-07 16:10	-71.6
2017-08-07 16:20	-70.4
2017-08-07 16:30	-69.0
2017-08-07 16:40	-68.8
2017-08-07 16:50	-70.9
2017-08-07 17:00	-69.7
2017-08-07 17:10	-71.6
2017-08-07 17:20	-71.6
2017-08-07 17:30	-71.7
2017-08-07 17:40	-71.1
2017-08-07 17:50	-71.1
2017-08-07 18:00	-71.6
2017-08-07 18:10	-70.1
2017-08-07 18:20	-70.1
2017-08-07 18:30	-71.6
2017-08-07 18:40	-71.1
2017-08-07 18:50	-71.6
2017-08-07 19:00	-71.2
2017-08-07 19:10	-71.1
2017-08-07 19:20	-70.6
2017-08-07 19:30	-71.1
2017-08-07 19:40	-71.6
2017-08-07 19:50	-71.1
2017-08-07 20:00	-70.1
2017-08-07 20:10	-71.1
2017-08-07 20:20	-70.6
2017-08-07 20:30	-71.1
2017-08-07 20:40	-71.1
2017-08-07 20:50	-70.1
2017-08-07 21:00	-71.1
2017-08-07 21:10	-71.1
2017-08-07 21:20	-71.6
2017-08-07 21:30	-71.1
2017-08-07 21:40	-70.6
2017-08-07 21:50	-71.6
2017-08-07 22:00	-71.6
2017-08-07 22:10	-71.6
2017-08-07 22:20	-71.1
2017-08-07 22:30	-71.6
2017-08-07 22:40	-71.1
2017-08-07 22:50	-70.2
2017-08-07 23:00	-71.1
2017-08-07 23:10	-70.1
2017-08-07 23:20	-71.7
2017-08-07 23:30	-70.6
2017-08-07 23:40	-71.6
2017-08-07 23:50	-70.1
2017-08-08 00:00	-71.6
2017-08-08 00:10	-71.6
2017-08-08 00:20	-71.1
2017-08-08 00:30	-70.6
2017-08-08 00:40	-70.7
2017-08-08 00:50	-71.1
2017-08-08 01:00	-71.6
2017-08-08 01:10	-70.6
2017-08-08 01:20	-71.6
2017-08-08 01:30	-70.6
2017-08-08 01:40	-71.6
2017-08-08 01:50	-71.1
2017-08-08 02:00	-71.1
2017-08-08 02:10	-71.1
2017-08-08 02:20	-70.1
2017-08-08 02:30	-71.1
2017-08-08 02:40	-71.6
2017-08-08 02:50	-71.6
2017-08-08 03:00	-71.6
2017-08-08 03:10	-70.6
2017-08-08 03:20	-70.6
2017-08-08 03:30	-70.6
2017-08-08 03:40	-71.6
2017-08-08 03:50	-71.1
2017-08-08 04:00	-71.1
2017-08-08 04:10	-71.1
2017-08-08 04:20	-71.6
2017-08-08 04:30	-71.1
2017-08-08 04:40	-71.1
2017-08-08 04:50	-70.6
2017-08-08 05:00	-71.1
2017-08-08 05:10	-71.0
2017-08-08 05:20	-70.6
2017-08-08 05:30	-70.1
2017-08-08 05:40	-71.2
2017-08-08 05:50	-71.6
2017-08-08 06:00	-70.4
2017-08-08 06:10	-69.0
2017-08-08 06:20	-69.2
2017-08-08 06:30	-68.5
2017-08-08 06:40	-70.4
2017-08-08 06:50	-70.9
2017-08-08 07:00	-71.6
2017-08-08 07:10	-70.6
2017-08-08 07:20	-71.1
2017-08-08 07:30	-71.1
2017-08-08 07:40	-71.1
2017-08-08 07:50	-70.6
2017-08-08 08:00	-70.6
2017-08-08 08:10	-71.6
2017-08-08 08:20	-70.6
2017-08-08 08:30	-71.6
2017-08-08 08:40	-70.1
2017-08-08 08:50	-71.7
2017-08-08 09:00	-70.1
2017-08-08 09:10	-71.1
2017-08-08 09:20	-71.6
2017-08-08 09:30	-71.6
2017-08-08 09:40	-71.6
2017-08-08 09:50	-71.6
2017-08-08 10:00	-70.6
2017-08-08 10:10	-70.6
2017-08-08 10:20	-71.6
2017-08-08 10:30	-71.1
2017-08-08 10:40	-70.6
2017-08-08 10:50	-71.1
2017-08-08 11:00	-70.6
2017-08-08 11:10	-71.1
2017-08-08 11:20	-70.6
2017-08-08 11:30	-70.6
2017-08-08 11:40	-71.1
2017-08-08 11:50	-71.1
2017-08-08 12:00	-71.6
2017-08-08 12:10	-70.6
2017-08-08 12:20	-71.1
2017-08-08 12:30	-70.6
2017-08-08 12:40	-71.6
2017-08-08 12:50	-70.6
2017-08-08 13:00	-71.1
2017-08-08 13:10	-70.7
2017-08-08 13:20	-71.0
2017-08-08 13:30	-70.6
2017-08-08 13:40	-69.6
2017-08-08 13:50	-70.2
2017-08-08 14:00	-70.1
2017-08-08 14:10	-71.1
2017-08-08 14:20	-71.6
2017-08-08 14:30	-71.6
2017-08-08 14:40	-70.6
2017-08-08 14:50	-71.1
2017-08-08 15:00	-70.6
2017-08-08 15:10	-71.1
2017-08-08 15:20	-71.1
2017-08-08 15:30	-71.6
2017-08-08 15:40	-70.1
2017-08-08 15:50	-71.1
2017-08-08 16:00	-70.6
2017-08-08 16:10	-70.6
2017-08-08 16:20	-71.1
2017-08-08 16:30	-71.6
2017-08-08 16:40	-71.2
2017-08-08 16:50	-70.6
2017-08-08 17:00	-70.6
2017-08-08 17:10	-70.6
2017-08-08 17:20	-69.7
2017-08-08 17:30	-71.7
2017-08-08 17:40	-71.6
2017-08-08 17:50	-70.6
2017-08-08 18:00	-71.1
2017-08-08 18:10	-71.6
2017-08-08 18:20	-70.6
2017-08-08 18:30	-71.1
2017-08-08 18:40	-70.6
2017-08-08 18:50	-70.1
2017-08-08 19:00	-70.6
2017-08-08 19:10	-71.1
2017-08-08 19:20	-71.1
2017-08-08 19:30	-71.1
2017-08-08 19:40	-71.6
2017-08-08 19:50	-71.1
2017-08-08 20:00	-70.6
2017-08-08 20:10	-71.6
2017-08-08 20:20	-71.6
2017-08-08 20:30	-70.6
2017-08-08 20:40	-71.1
2017-08-08 20:50	-71.6
2017-08-08 21:00	-71.1
2017-08-08 21:10	-71.7
2017-08-08 21:20	-70.4
2017-08-08 21:30	-70.6
2017-08-08 21:40	-70.6
2017-08-08 21:50	-71.6
2017-08-08 22:00	-70.1
2017-08-08 22:10	-70.6
2017-08-08 22:20	-71.6
2017-08-08 22:30	-71.6
2017-08-08 22:40	-71.2
2017-08-08 22:50	-70.6
2017-08-08 23:00	-69.2
2017-08-08 23:10	-69.0
2017-08-08 23:20	-68.8
2017-08-08 23:30	-69.3
2017-08-08 23:40	-70.6
2017-08-08 23:50	-71.1
2017-08-09 00:00	-71.6
2017-08-09 00:10	-71.6
2017-08-09 00:20	-70.1
2017-08-09 00:30	-70.1
2017-08-09 00:40	-71.1
2017-08-09 00:50	-71.1
2017-08-09 01:00	-70.6
2017-08-09 01:10	-71.1
2017-08-09 01:20	-71.6
2017-08-09 01:30	-70.6
2017-08-09 01:40	-70.2
2017-08-09 01:50	-71.6
2017-08-09 02:00	-70.6
2017-08-09 02:10	-71.6
2017-08-09 02:20	-71.1
2017-08-09 02:30	-71.6
2017-08-09 02:40	-71.6
2017-08-09 02:50	-70.6
2017-08-09 03:00	-71.6
2017-08-09 03:10	-70.1
2017-08-09 03:20	-71.1
2017-08-09 03:30	-71.1
2017-08-09 03:40	-70.1
2017-08-09 03:50	-71.6
2017-08-09 04:00	-70.6
2017-08-09 04:10	-71.6
2017-08-09 04:20	-70.1
2017-08-09 04:30	-70.1
2017-08-09 04:40	-71.6
2017-08-09 04:50	-70.6
2017-08-09 05:00	-70.6
2017-08-09 05:10	-71.6
2017-08-09 05:20	-71.0
2017-08-09 05:30	-71.2
2017-08-09 05:40	-71.1
2017-08-09 05:50	-70.6
2017-08-09 06:00	-71.7
2017-08-09 06:10	-71.6
2017-08-09 06:20	-71.6
2017-08-09 06:30	-71.1
2017-08-09 06:40	-71.1
2017-08-09 06:50	-71.6
2017-08-09 07:00	-71.1
2017-08-09 07:10	-70.6
2017-08-09 07:20	-71.1
2017-08-09 07:30	-71.6
2017-08-09 07:40	-71.1
2017-08-09 07:50	-71.1
2017-08-09 08:00	-71.6
2017-08-09 08:10	-71.6
2017-08-09 08:20	-71.1
2017-08-09 08:30	-70.6
2017-08-09 08:40	-70.7
2017-08-09 08:50	-71.6
2017-08-09 09:00	-71.6
2017-08-09 09:10	-71.6
2017-08-09 09:20	-71.0
2017-08-09 09:30	-71.6
2017-08-09 09:40	-71.1
2017-08-09 09:50	-71.1
2017-08-09 10:00	-71.6
2017-08-09 10:10	-71.6
2017-08-09 10:20	-71.6
2017-08-09 10:30	-70.7
2017-08-09 10:40	-71.7
2017-08-09 10:50	-71.6
2017-08-09 11:00	-71.1
2017-08-09 11:10	-71.1
2017-08-09 11:20	-71.6
2017-08-09 11:30	-69.6
2017-08-09 11:40	-71.1
2017-08-09 11:50	-70.6
2017-08-09 12:00	-71.6
2017-08-09 12:10	-71.6
2017-08-09 12:20	-71.2
2017-08-09 12:30	-71.2
2017-08-09 12:40	-70.1
2017-08-09 12:50	-71.1
2017-08-09 13:00	-71.2
2017-08-09 13:10	-71.6
2017-08-09 13:20	-71.1
2017-08-09 13:30	-71.0
2017-08-09 13:40	-70.2
2017-08-09 13:50	-71.1
2017-08-09 14:00	-71.1
2017-08-09 14:10	-70.6
2017-08-09 14:20	-71.1
2017-08-09 14:30	-71.1
2017-08-09 14:40	-71.6
2017-08-09 14:50	-71.1
2017-08-09 15:00	-71.6
2017-08-09 15:10	-71.6
2017-08-09 15:20	-71.6
2017-08-09 15:30	-70.1
2017-08-09 15:40	-71.1
2017-08-09 15:50	-70.4
2017-08-09 16:00	-68.5
2017-08-09 16:10	-69.0
2017-08-09 16:20	-70.9
2017-08-09 16:30	-70.6
2017-08-09 16:40	-71.1
2017-08-09 16:50	-70.9
2017-08-09 17:00	-70.6
2017-08-09 17:10	-70.1
2017-08-09 17:20	-71.6
2017-08-09 17:30	-71.6
2017-08-09 17:40	-71.1
2017-08-09 17:50	-70.6
2017-08-09 18:00	-71.1
2017-08-09 18:10	-70.1
2017-08-09 18:20	-70.1
2017-08-09 18:30	-70.6
2017-08-09 18:40	-71.1
2017-08-09 18:50	-71.6
2017-08-09 19:00	-70.6
2017-08-09 19:10	-70.6
2017-08-09 19:20	-71.1
2017-08-09 19:30	-70.6
2017-08-09 19:40	-71.1
2017-08-09 19:50	-70.6
2017-08-09 20:00	-70.6
2017-08-09 20:10	-70.6
2017-08-09 20:20	-71.1
2017-08-09 20:30	-70.6
2017-08-09 20:40	-71.6
2017-08-09 20:50	-71.6
2017-08-09 21:00	-70.6
2017-08-09 21:10	-71.1
2017-08-09 21:20	-70.6
2017-08-09 21:30	-71.0
2017-08-09 21:40	-70.6
2017-08-09 21:50	-71.1
2017-08-09 22:00	-71.1
2017-08-09 22:10	-70.6
2017-08-09 22:20	-70.6
2017-08-09 22:30	-70.2
2017-08-09 22:40	-70.1
2017-08-09 22:50	-71.1
2017-08-09 23:00	-70.7
2017-08-09 23:10	-71.6
2017-08-09 23:20	-71.1
2017-08-09 23:30	-70.6
2017-08-09 23:40	-71.1
2017-08-09 23:50	-69.6
2017-08-10 00:00	-71.7
2017-08-10 00:10	-71.6
2017-08-10 00:20	-70.2
2017-08-10 00:30	-71.1
2017-08-10 00:40	-70.7
2017-08-10 00:50	-70.6
2017-08-10 01:00	-70.6
2017-08-10 01:10	-71.6
2017-08-10 01:20	-71.1
2017-08-10 01:30	-71.6
2017-08-10 01:40	-71.0
2017-08-10 01:50	-70.6
2017-08-10 02:00	-70.6
2017-08-10 02:10	-70.6
2017-08-10 02:20	-71.6
2017-08-10 02:30	-71.1
2017-08-10 02:40	-71.1
2017-08-10 02:50	-71.1
2017-08-10 03:00	-71.6
2017-08-10 03:10	-70.6
2017-08-10 03:20	-71.6
2017-08-10 03:30	-71.6
2017-08-10 03:40	-71.6
2017-08-10 03:50	-70.7
2017-08-10 04:00	-71.6
2017-08-10 04:10	-70.6
2017-08-10 04:20	-71.6
2017-08-10 04:30	-71.1
2017-08-10 04:40	-71.1
2017-08-10 04:50	-70.6
2017-08-10 05:00	-71.2
2017-08-10 05:10	-71.6
2017-08-10 05:20	-71.6
2017-08-10 05:30	-70.1
2017-08-10 05:40	-71.0
2017-08-10 05:50	-71.6
2017-08-10 06:00	-71.6
2017-08-10 06:10	-71.6
2017-08-10 06:20	-71.6
2017-08-10 06:30	-71.1
2017-08-10 06:40	-71.1
2017-08-10 06:50	-70.6
2017-08-10 07:00	-70.6
2017-08-10 07:10	-71.6
2017-08-10 07:20	-71.6
2017-08-10 07:30	-71.1
2017-08-10 07:40	-71.1
2017-08-10 07:50	-69.8
2017-08-10 08:00	-68.8
2017-08-10 08:10	-68.5
2017-08-10 08:20	-68.6
2017-08-10 08:30	-69.2
2017-08-10 08:40	-70.9
2017-08-10 08:50	-70.2
2017-08-10 09:00	-70.6
2017-08-10 09:10	-70.1
2017-08-10 09:20	-71.6
2017-08-10 09:30	-71.2
2017-08-10 09:40	-71.7
2017-08-10 09:50	-71.8
2017-08-10 10:00	-70.7
2017-08-10 10:10	-71.8
2017-08-10 10:20	-71.8
2017-08-10 10:30	-71.8
2017-08-10 10:40	-71.8
2017-08-10 10:50	-70.8
2017-08-10 11:00	-71.3
2017-08-10 11:10	-71.8
2017-08-10 11:20	-71.3
2017-08-10 11:30	-70.3
2017-08-10 11:40	-70.8
2017-08-10 11:50	-71.3
2017-08-10 12:00	-70.8
2017-08-10 12:10	-71.7
2017-08-10 12:20	-71.2
2017-08-10 12:30	-71.2
2017-08-10 12:40	-71.7
2017-08-10 12:50	-70.7
2017-08-10 13:00	-70.7
2017-08-10 13:10	-71.2
2017-08-10 13:20	-71.7
2017-08-10 13:30	-71.2
2017-08-10 13:40	-71.7
2017-08-10 13:50	-71.0
2017-08-10 14:00	-71.2
2017-08-10 14:10	-71.2
2017-08-10 14:20	-70.1
2017-08-10 14:30	-70.6
2017-08-10 14:40	-70.6
2017-08-10 14:50	-71.7
2017-08-10 15:00	-71.1
2017-08-10 15:10	-70.6
2017-08-10 15:20	-71.1
2017-08-10 15:30	-71.6
2017-08-10 15:40	-71.2
2017-08-10 15:50	-70.7
2017-08-10 16:00	-70.7
2017-08-10 16:10	-71.7
2017-08-10 16:20	-71.2
2017-08-10 16:30	-71.2
2017-08-10 16:40	-71.1
2017-08-10 16:50	-71.2
2017-08-10 17:00	-70.7
2017-08-10 17:10	-70.6
2017-08-10 17:20	-71.2
2017-08-10 17:30	-71.2
2017-08-10 17:40	-70.2
2017-08-10 17:50	-71.7
2017-08-10 18:00	-71.2
2017-08-10 18:10	-71.6
