2017-08-09 20:16:13	317.8
2017-08-09 20:16:43	317.7
2017-08-09 20:17:13	317.6
2017-08-09 20:17:53	317.5
2017-08-09 20:18:23	317.3
2017-08-09 20:18:53	317.6
2017-08-09 20:19:13	317.3
2017-08-09 20:19:43	317.5
2017-08-09 20:20:13	317.8
2017-08-09 20:21:03	317.8
2017-08-09 20:21:13	318.0
2017-08-09 20:21:23	318.2
2017-08-09 20:21:53	318.0
2017-08-09 20:22:33	318.1
2017-08-09 20:23:03	318.0
2017-08-09 20:23:23	317.7
2017-08-09 20:23:33	317.4
2017-08-09 20:24:03	317.3
2017-08-09 20:24:43	317.3
2017-08-09 20:25:13	317.3
2017-08-09 20:25:53	317.3
2017-08-09 20:26:13	317.6
2017-08-09 20:26:53	317.6
2017-08-09 20:27:23	317.9
2017-08-09 20:27:43	318.2
2017-08-09 20:28:23	318.3
2017-08-09 20:29:13	318.3
2017-08-09 20:29:53	318.3
2017-08-09 20:30:33	318.6
2017-08-09 20:31:03	318.6
2017-08-09 20:31:33	318.4
2017-08-09 20:32:13	318.7
2017-08-09 20:32:23	318.5
2017-08-09 20:33:03	318.2
2017-08-09 20:33:23	318.0
2017-08-09 20:33:53	317.7
2017-08-09 20:34:23	317.7
2017-08-09 20:35:03	318.0
2017-08-09 20:35:33	318.0
2017-08-09 20:36:03	318.2
2017-08-09 20:36:33	318.2
2017-08-09 20:37:23	318.5
2017-08-09 20:37:53	318.6
2017-08-09 20:38:23	318.7
2017-08-09 20:38:53	318.4
2017-08-09 20:39:13	318.2
2017-08-09 20:40:03	318.3
2017-08-09 20:40:53	318.5
2017-08-09 20:41:33	318.4
2017-08-09 20:41:53	318.2
2017-08-09 20:42:33	317.8
2017-08-09 20:42:53	317.5
2017-08-09 20:43:33	317.5
2017-08-09 20:44:13	317.6
2017-08-09 20:44:53	317.7
2017-08-09 20:45:33	317.7
2017-08-09 20:46:03	317.8
2017-08-09 20:46:53	318.0
2017-08-09 20:47:13	318.3
2017-08-09 20:47:53	318.2
2017-08-09 20:48:23	318.3
2017-08-09 20:49:03	318.5
2017-08-09 20:49:23	318.8
2017-08-09 20:49:53	318.6
2017-08-09 20:50:33	318.6
2017-08-09 20:51:03	318.7
2017-08-09 20:51:23	318.4
2017-08-09 20:51:43	318.2
2017-08-09 20:52:13	317.9
2017-08-09 20:52:43	317.9
2017-08-09 20:53:03	317.7
2017-08-09 20:53:33	317.6
2017-08-09 20:54:23	317.7
2017-08-09 20:54:43	318.0
2017-08-09 20:55:03	317.6
2017-08-09 20:55:43	317.6
2017-08-09 20:56:13	317.8
2017-08-09 20:56:53	317.7
2017-08-09 20:57:33	317.7
2017-08-09 20:58:03	318.0
2017-08-09 20:58:43	317.9
2017-08-09 20:59:13	318.1
2017-08-09 21:00:03	318.1
2017-08-09 21:00:43	318.1
2017-08-09 21:01:23	318.0
2017-08-09 21:01:53	317.7
2017-08-09 21:02:23	318.0
2017-08-09 21:02:53	318.2
2017-08-09 21:03:33	318.2
2017-08-09 21:03:53	317.9
2017-08-09 21:04:33	317.9
2017-08-09 21:05:03	318.0
2017-08-09 21:05:43	318.1
2017-08-09 21:06:03	317.8
2017-08-09 21:06:43	317.7
2017-08-09 21:07:03	317.9
2017-08-09 21:07:33	318.2
2017-08-09 21:07:53	317.9
2017-08-09 21:08:23	318.0
2017-08-09 21:09:03	317.9
2017-08-09 21:09:23	317.7
2017-08-09 21:09:53	317.6
2017-08-09 21:10:33	317.6
2017-08-09 21:10:53	317.8
2017-08-09 21:11:43	317.9
2017-08-09 21:12:23	317.8
2017-08-09 21:13:03	318.0
2017-08-09 21:13:43	317.9
2017-08-09 21:14:23	317.8
2017-08-09 21:14:43	317.6
2017-08-09 21:15:13	317.6
2017-08-09 21:15:33	317.9
2017-08-09 21:16:13	318.0
2017-08-09 21:16:43	317.9
2017-08-09 21:17:23	317.7
2017-08-09 21:17:43	317.4
2017-08-09 21:18:23	317.2
2017-08-09 21:19:03	317.3
2017-08-09 21:19:23	317.6
2017-08-09 21:19:53	317.3
2017-08-09 21:20:33	317.3
2017-08-09 21:21:03	317.5
2017-08-09 21:21:33	317.6
2017-08-09 21:22:03	317.7
2017-08-09 21:22:33	317.9
2017-08-09 21:23:13	317.7
2017-08-09 21:23:43	317.5
2017-08-09 21:24:23	317.8
2017-08-09 21:25:03	317.6
2017-08-09 21:25:33	317.4
2017-08-09 21:26:13	317.4
2017-08-09 21:26:43	317.2
2017-08-09 21:27:13	317.0
2017-08-09 21:27:43	316.8
2017-08-09 21:28:13	316.9
2017-08-09 21:28:43	317.1
2017-08-09 21:29:23	317.3
2017-08-09 21:29:53	317.3
2017-08-09 21:30:23	317.4
2017-08-09 21:30:53	317.5
2017-08-09 21:31:23	317.7
2017-08-09 21:32:03	317.6
2017-08-09 21:32:53	317.3
2017-08-09 21:33:23	317.5
2017-08-09 21:34:03	317.4
2017-08-09 21:34:33	317.4
2017-08-09 21:35:13	317.5
2017-08-09 21:35:33	317.3
2017-08-09 21:36:03	317.4
2017-08-09 21:36:33	317.1
2017-08-09 21:37:13	317.2
2017-08-09 21:37:33	317.0
2017-08-09 21:38:03	316.8
2017-08-09 21:38:43	316.9
2017-08-09 21:39:23	316.8
2017-08-09 21:39:53	317.0
2017-08-09 21:40:33	316.8
2017-08-09 21:41:13	317.1
2017-08-09 21:41:33	317.3
2017-08-09 21:42:13	317.3
2017-08-09 21:42:43	317.2
2017-08-09 21:43:23	317.2
2017-08-09 21:44:03	317.3
2017-08-09 21:44:43	317.3
2017-08-09 21:45:13	317.3
2017-08-09 21:45:43	317.3
2017-08-09 21:46:23	317.4
2017-08-09 21:47:03	317.4
2017-08-09 21:47:23	317.7
2017-08-09 21:48:03	317.8
2017-08-09 21:48:33	318.0
2017-08-09 21:49:13	318.0
2017-08-09 21:49:43	318.1
2017-08-09 21:50:13	317.9
2017-08-09 21:50:43	317.8
2017-08-09 21:51:23	317.8
2017-08-09 21:51:53	317.6
2017-08-09 21:52:23	317.6
2017-08-09 21:53:03	317.6
2017-08-09 21:53:43	317.6
2017-08-09 21:54:23	317.3
2017-08-09 21:54:53	317.5
2017-08-09 21:55:23	317.6
2017-08-09 21:55:53	317.9
2017-08-09 21:56:33	317.5
2017-08-09 21:57:13	317.4
2017-08-09 21:57:23	317.6
2017-08-09 21:57:43	318.0
2017-08-09 21:58:13	318.1
2017-08-09 21:58:53	318.2
2017-08-09 21:59:13	318.0
2017-08-09 21:59:53	317.9
2017-08-09 22:00:23	318.0
2017-08-09 22:01:13	318.0
2017-08-09 22:01:33	317.6
2017-08-09 22:01:43	317.4
2017-08-09 22:02:23	317.4
2017-08-09 22:02:53	317.6
2017-08-09 22:03:23	317.6
2017-08-09 22:04:03	317.4
2017-08-09 22:04:43	317.2
2017-08-09 22:05:23	317.3
2017-08-09 22:05:53	317.5
2017-08-09 22:06:23	317.4
2017-08-09 22:07:03	317.2
2017-08-09 22:07:43	317.2
2017-08-09 22:08:23	317.1
2017-08-09 22:09:03	317.2
2017-08-09 22:09:43	317.3
2017-08-09 22:10:23	317.3
2017-08-09 22:10:53	317.3
2017-08-09 22:11:03	317.6
2017-08-09 22:11:33	317.6
2017-08-09 22:12:03	317.7
2017-08-09 22:12:33	317.9
2017-08-09 22:12:53	318.1
2017-08-09 22:13:23	318.1
2017-08-09 22:14:03	318.1
2017-08-09 22:14:23	318.4
2017-08-09 22:14:53	318.4
2017-08-09 22:15:33	318.6
2017-08-09 22:15:43	318.3
2017-08-09 22:16:13	318.2
2017-08-09 22:16:53	318.1
2017-08-09 22:17:13	317.8
2017-08-09 22:17:43	317.7
2017-08-09 22:18:13	317.7
2017-08-09 22:18:53	317.8
2017-08-09 22:19:23	317.8
2017-08-09 22:20:03	317.8
2017-08-09 22:20:43	317.8
2017-08-09 22:21:13	317.7
2017-08-09 22:21:33	318.0
2017-08-09 22:22:03	317.8
2017-08-09 22:22:43	317.6
2017-08-09 22:23:23	317.7
2017-08-09 22:23:53	317.7
2017-08-09 22:24:33	317.8
2017-08-09 22:25:03	317.7
2017-08-09 22:25:43	317.8
2017-08-09 22:26:13	317.9
2017-08-09 22:26:53	317.7
2017-08-09 22:27:23	317.6
2017-08-09 22:27:53	317.8
2017-08-09 22:28:33	317.9
2017-08-09 22:28:43	318.1
2017-08-09 22:29:13	317.9
2017-08-09 22:29:33	317.7
2017-08-09 22:30:03	317.4
2017-08-09 22:30:43	317.4
2017-08-09 22:31:13	317.5
2017-08-09 22:31:33	317.2
2017-08-09 22:32:03	317.4
2017-08-09 22:32:33	317.5
2017-08-09 22:33:13	317.6
2017-08-09 22:33:53	317.6
2017-08-09 22:34:13	317.8
2017-08-09 22:34:53	317.9
2017-08-09 22:35:23	317.6
2017-08-09 22:36:03	317.5
2017-08-09 22:36:43	317.6
2017-08-09 22:37:23	317.7
2017-08-09 22:37:53	317.7
2017-08-09 22:38:13	317.9
2017-08-09 22:38:53	318.0
2017-08-09 22:39:33	318.0
2017-08-09 22:40:13	317.9
2017-08-09 22:40:43	317.7
2017-08-09 22:41:23	317.6
2017-08-09 22:42:13	317.6
2017-08-09 22:42:53	317.8
2017-08-09 22:43:33	317.9
2017-08-09 22:44:03	317.8
2017-08-09 22:44:43	318.0
2017-08-09 22:45:23	317.9
2017-08-09 22:45:53	317.8
2017-08-09 22:46:23	317.8
2017-08-09 22:46:53	318.0
2017-08-09 22:47:23	318.2
2017-08-09 22:48:03	318.1
2017-08-09 22:48:33	317.8
2017-08-09 22:49:13	317.9
2017-08-09 22:49:53	317.9
2017-08-09 22:50:33	317.8
2017-08-09 22:51:03	318.0
2017-08-09 22:51:23	318.2
2017-08-09 22:52:03	318.2
2017-08-09 22:52:43	318.2
2017-08-09 22:53:03	317.9
2017-08-09 22:53:33	317.9
2017-08-09 22:54:13	318.0
2017-08-09 22:54:33	317.8
2017-08-09 22:55:03	317.8
2017-08-09 22:55:43	317.8
2017-08-09 22:56:03	318.0
2017-08-09 22:56:13	318.2
2017-08-09 22:56:53	318.2
2017-08-09 22:57:33	318.2
2017-08-09 22:58:03	318.1
2017-08-09 22:58:33	318.0
2017-08-09 22:59:03	317.9
2017-08-09 22:59:43	317.6
2017-08-09 23:00:13	317.6
2017-08-09 23:00:43	317.3
2017-08-09 23:01:03	317.1
2017-08-09 23:01:33	317.2
2017-08-09 23:02:13	317.1
2017-08-09 23:02:43	317.4
2017-08-09 23:03:23	317.5
2017-08-09 23:03:53	317.2
2017-08-09 23:04:23	317.2
2017-08-09 23:05:03	317.0
2017-08-09 23:05:33	316.8
2017-08-09 23:06:13	316.8
2017-08-09 23:06:33	317.1
2017-08-09 23:07:13	317.1
2017-08-09 23:07:53	317.0
2017-08-09 23:08:33	316.8
2017-08-09 23:09:03	317.0
2017-08-09 23:09:53	316.8
2017-08-09 23:10:23	316.6
2017-08-09 23:11:03	316.8
2017-08-09 23:11:33	317.0
2017-08-09 23:12:13	317.1
2017-08-09 23:12:53	317.0
2017-08-09 23:13:23	317.0
2017-08-09 23:13:53	317.2
2017-08-09 23:14:23	317.3
2017-08-09 23:14:53	317.3
2017-08-09 23:15:33	317.2
2017-08-09 23:15:53	317.0
2017-08-09 23:16:33	317.0
2017-08-09 23:16:43	317.2
2017-08-09 23:17:23	317.5
2017-08-09 23:17:53	317.3
2017-08-09 23:18:53	317.1
2017-08-09 23:19:23	317.0
2017-08-09 23:20:03	317.0
2017-08-09 23:20:43	317.2
2017-08-09 23:21:03	317.4
2017-08-09 23:21:43	317.7
2017-08-09 23:22:13	317.8
2017-08-09 23:22:53	317.9
2017-08-09 23:23:23	318.0
2017-08-09 23:24:03	317.8
2017-08-09 23:24:33	317.7
2017-08-09 23:24:53	317.3
2017-08-09 23:25:33	317.2
2017-08-09 23:26:13	317.1
2017-08-09 23:26:43	317.2
2017-08-09 23:27:23	317.2
2017-08-09 23:27:43	317.5
2017-08-09 23:28:13	317.6
2017-08-09 23:28:43	317.4
2017-08-09 23:29:23	317.5
2017-08-09 23:30:03	317.4
2017-08-09 23:30:23	317.2
2017-08-09 23:30:53	317.5
2017-08-09 23:31:33	317.5
2017-08-09 23:31:43	317.7
2017-08-09 23:32:03	318.0
2017-08-09 23:32:43	318.1
2017-08-09 23:33:33	318.0
2017-08-09 23:34:13	318.1
2017-08-09 23:34:53	318.0
2017-08-09 23:35:33	317.9
2017-08-09 23:36:13	317.7
2017-08-09 23:36:53	317.8
2017-08-09 23:37:33	317.9
2017-08-09 23:38:03	317.6
2017-08-09 23:38:23	317.4
2017-08-09 23:39:03	317.3
2017-08-09 23:39:43	317.5
2017-08-09 23:40:13	317.6
2017-08-09 23:40:43	317.9
2017-08-09 23:41:13	317.8
2017-08-09 23:41:53	317.8
2017-08-09 23:42:33	317.7
2017-08-09 23:43:13	317.6
2017-08-09 23:43:53	317.4
2017-08-09 23:44:33	317.6
2017-08-09 23:44:53	317.9
2017-08-09 23:45:33	317.9
2017-08-09 23:46:23	317.7
2017-08-09 23:47:03	317.6
2017-08-09 23:47:33	317.8
2017-08-09 23:47:53	318.1
2017-08-09 23:48:23	318.2
2017-08-09 23:49:03	318.1
2017-08-09 23:49:43	318.1
2017-08-09 23:50:13	318.3
2017-08-09 23:51:03	318.5
2017-08-09 23:51:33	318.4
2017-08-09 23:51:53	318.1
2017-08-09 23:52:23	318.0
2017-08-09 23:52:53	318.1
2017-08-09 23:53:33	318.1
2017-08-09 23:54:03	318.2
2017-08-09 23:54:43	318.3
2017-08-09 23:55:23	318.1
2017-08-09 23:55:43	317.8
2017-08-09 23:56:13	317.7
2017-08-09 23:56:43	317.7
2017-08-09 23:57:13	317.7
2017-08-09 23:57:53	317.7
2017-08-09 23:58:33	317.7
2017-08-09 23:58:43	317.5
2017-08-09 23:59:33	317.5
2017-08-10 00:00:03	317.4
2017-08-10 00:00:53	317.4
2017-08-10 00:01:23	317.4
2017-08-10 00:01:43	317.6
2017-08-10 00:02:23	317.7
2017-08-10 00:03:03	317.8
2017-08-10 00:03:33	317.6
2017-08-10 00:04:13	317.6
2017-08-10 00:04:53	317.3
2017-08-10 00:05:23	317.2
2017-08-10 00:06:03	317.3
2017-08-10 00:06:23	317.1
2017-08-10 00:06:53	317.1
2017-08-10 00:07:33	317.0
2017-08-10 00:08:03	316.8
2017-08-10 00:08:33	317.2
2017-08-10 00:09:03	317.5
2017-08-10 00:09:23	317.2
2017-08-10 00:09:53	317.2
2017-08-10 00:10:23	317.3
2017-08-10 00:10:53	317.3
2017-08-10 00:11:03	317.6
2017-08-10 00:11:43	317.8
2017-08-10 00:12:23	317.9
2017-08-10 00:13:03	317.7
2017-08-10 00:13:53	317.8
2017-08-10 00:14:13	318.0
2017-08-10 00:14:53	317.8
2017-08-10 00:15:23	317.8
2017-08-10 00:16:03	317.6
2017-08-10 00:16:33	317.5
2017-08-10 00:17:13	317.4
2017-08-10 00:17:43	317.6
2017-08-10 00:18:23	317.5
2017-08-10 00:19:03	317.5
2017-08-10 00:19:33	317.5
2017-08-10 00:20:13	317.7
2017-08-10 00:20:43	317.8
2017-08-10 00:21:13	317.6
2017-08-10 00:21:53	317.5
2017-08-10 00:22:33	317.7
2017-08-10 00:23:13	317.8
2017-08-10 00:23:53	317.9
2017-08-10 00:24:13	318.2
2017-08-10 00:24:43	318.3
2017-08-10 00:25:23	318.6
2017-08-10 00:26:03	318.3
2017-08-10 00:26:43	318.1
2017-08-10 00:27:23	318.3
2017-08-10 00:28:03	318.1
2017-08-10 00:28:33	317.8
2017-08-10 00:29:03	317.6
2017-08-10 00:29:43	317.6
2017-08-10 00:30:13	317.4
2017-08-10 00:30:43	317.6
2017-08-10 00:31:23	317.4
2017-08-10 00:32:03	317.3
2017-08-10 00:32:33	317.4
2017-08-10 00:33:13	317.2
2017-08-10 00:33:53	317.3
2017-08-10 00:34:33	317.3
2017-08-10 00:34:53	317.1
2017-08-10 00:35:33	317.4
2017-08-10 00:36:03	317.6
2017-08-10 00:36:43	317.6
2017-08-10 00:37:13	317.5
2017-08-10 00:37:43	317.6
2017-08-10 00:38:13	317.6
2017-08-10 00:38:23	317.9
2017-08-10 00:38:43	318.1
2017-08-10 00:39:13	318.3
2017-08-10 00:39:53	318.4
2017-08-10 00:40:23	318.1
2017-08-10 00:40:53	317.8
2017-08-10 00:41:03	317.5
2017-08-10 00:41:23	317.3
2017-08-10 00:41:53	317.6
2017-08-10 00:42:43	317.7
2017-08-10 00:43:03	317.9
2017-08-10 00:43:43	318.0
2017-08-10 00:44:13	317.8
2017-08-10 00:44:53	317.9
2017-08-10 00:45:33	318.0
2017-08-10 00:46:13	318.2
2017-08-10 00:46:53	318.5
2017-08-10 00:47:33	318.5
2017-08-10 00:48:13	318.2
2017-08-10 00:48:53	318.2
2017-08-10 00:49:13	318.4
2017-08-10 00:49:53	318.4
2017-08-10 00:50:23	318.3
2017-08-10 00:50:53	317.9
2017-08-10 00:51:03	317.7
2017-08-10 00:51:23	317.5
2017-08-10 00:52:03	317.3
2017-08-10 00:52:53	317.4
2017-08-10 00:53:03	317.6
2017-08-10 00:53:43	317.5
2017-08-10 00:54:13	317.6
2017-08-10 00:55:03	317.8
2017-08-10 00:55:33	317.6
2017-08-10 00:56:13	317.6
2017-08-10 00:56:53	317.7
2017-08-10 00:57:23	317.5
2017-08-10 00:58:13	317.7
2017-08-10 00:59:03	317.5
2017-08-10 00:59:43	317.5
2017-08-10 01:00:03	317.7
2017-08-10 01:00:23	318.0
2017-08-10 01:00:33	318.2
2017-08-10 01:01:13	318.1
2017-08-10 01:01:43	318.1
2017-08-10 01:02:13	317.9
2017-08-10 01:02:43	318.2
2017-08-10 01:03:13	318.0
2017-08-10 01:03:53	317.7
2017-08-10 01:04:33	317.5
2017-08-10 01:04:53	317.3
2017-08-10 01:05:23	317.2
2017-08-10 01:05:53	317.2
2017-08-10 01:06:43	317.1
2017-08-10 01:07:13	317.3
2017-08-10 01:07:53	317.4
2017-08-10 01:08:23	317.2
2017-08-10 01:09:13	317.2
2017-08-10 01:09:53	317.2
2017-08-10 01:10:13	317.4
2017-08-10 01:10:53	317.4
2017-08-10 01:11:23	317.3
2017-08-10 01:11:53	317.3
2017-08-10 01:12:33	317.3
2017-08-10 01:13:03	317.3
2017-08-10 01:13:23	317.6
2017-08-10 01:14:13	317.7
2017-08-10 01:14:43	317.7
2017-08-10 01:15:23	317.6
2017-08-10 01:16:03	317.6
2017-08-10 01:16:33	317.7
2017-08-10 01:17:03	317.9
2017-08-10 01:17:33	317.9
2017-08-10 01:18:03	318.0
2017-08-10 01:18:33	318.0
2017-08-10 01:19:13	318.3
2017-08-10 01:19:43	318.2
2017-08-10 01:20:23	318.3
2017-08-10 01:21:03	318.3
2017-08-10 01:21:43	318.3
2017-08-10 01:22:23	318.3
2017-08-10 01:22:53	318.0
2017-08-10 01:23:03	317.8
2017-08-10 01:23:43	317.7
2017-08-10 01:24:23	317.6
2017-08-10 01:25:03	317.5
2017-08-10 01:25:43	317.7
2017-08-10 01:26:13	317.9
2017-08-10 01:26:43	318.1
2017-08-10 01:27:13	317.9
2017-08-10 01:27:53	317.8
2017-08-10 01:28:33	317.6
2017-08-10 01:28:43	317.4
2017-08-10 01:29:03	317.6
2017-08-10 01:29:43	317.5
2017-08-10 01:30:23	317.4
2017-08-10 01:31:03	317.5
2017-08-10 01:31:43	317.3
2017-08-10 01:32:13	317.2
2017-08-10 01:32:43	317.3
2017-08-10 01:33:23	317.4
2017-08-10 01:34:03	317.5
2017-08-10 01:34:33	317.2
2017-08-10 01:35:03	317.1
2017-08-10 01:35:23	316.8
2017-08-10 01:35:53	317.2
2017-08-10 01:36:23	317.4
2017-08-10 01:37:13	317.4
2017-08-10 01:37:53	317.5
2017-08-10 01:38:13	317.7
2017-08-10 01:39:03	317.9
2017-08-10 01:39:43	318.0
2017-08-10 01:40:13	317.8
2017-08-10 01:41:03	317.9
2017-08-10 01:41:43	317.9
2017-08-10 01:42:13	317.9
2017-08-10 01:42:43	318.0
2017-08-10 01:43:23	317.7
2017-08-10 01:44:13	317.9
2017-08-10 01:44:53	318.0
2017-08-10 01:45:33	317.9
2017-08-10 01:46:03	317.7
2017-08-10 01:46:23	317.5
2017-08-10 01:46:53	317.3
2017-08-10 01:47:33	317.5
2017-08-10 01:48:03	317.4
2017-08-10 01:48:33	317.4
2017-08-10 01:49:03	317.3
2017-08-10 01:49:53	317.6
2017-08-10 01:50:33	317.6
2017-08-10 01:51:13	317.9
2017-08-10 01:51:53	318.0
2017-08-10 01:52:33	317.8
2017-08-10 01:53:03	317.8
2017-08-10 01:53:33	318.1
2017-08-10 01:54:13	318.1
2017-08-10 01:55:03	318.2
2017-08-10 01:55:33	318.4
2017-08-10 01:55:53	318.2
2017-08-10 01:56:03	318.0
2017-08-10 01:56:33	317.9
2017-08-10 01:57:13	317.8
2017-08-10 01:57:53	317.7
2017-08-10 01:58:33	317.6
2017-08-10 01:59:03	317.8
2017-08-10 01:59:23	318.0
2017-08-10 02:00:03	317.9
2017-08-10 02:00:43	317.9
2017-08-10 02:01:13	317.8
2017-08-10 02:01:43	317.5
2017-08-10 02:02:03	317.3
2017-08-10 02:02:33	316.9
2017-08-10 02:03:13	316.9
2017-08-10 02:03:53	316.9
2017-08-10 02:04:33	317.2
2017-08-10 02:04:43	317.4
2017-08-10 02:05:03	317.7
2017-08-10 02:05:43	317.8
2017-08-10 02:06:23	317.6
2017-08-10 02:07:03	317.5
2017-08-10 02:07:13	317.7
2017-08-10 02:07:23	317.9
2017-08-10 02:08:03	317.7
2017-08-10 02:08:33	317.5
2017-08-10 02:08:53	317.7
2017-08-10 02:09:23	317.7
2017-08-10 02:10:03	317.7
2017-08-10 02:10:33	317.8
2017-08-10 02:10:53	317.6
2017-08-10 02:11:33	317.4
2017-08-10 02:12:03	317.4
2017-08-10 02:12:43	317.6
2017-08-10 02:13:13	317.8
2017-08-10 02:13:43	318.0
2017-08-10 02:14:23	318.0
2017-08-10 02:14:53	317.9
2017-08-10 02:15:23	317.7
2017-08-10 02:15:53	317.8
2017-08-10 02:16:33	317.9
2017-08-10 02:17:03	317.7
2017-08-10 02:17:43	317.9
2017-08-10 02:18:33	318.1
2017-08-10 02:19:03	318.3
2017-08-10 02:19:23	317.9
2017-08-10 02:20:03	318.0
2017-08-10 02:20:43	318.0
2017-08-10 02:21:23	318.0
2017-08-10 02:21:33	317.8
2017-08-10 02:22:13	317.8
2017-08-10 02:22:43	317.7
2017-08-10 02:23:23	317.4
2017-08-10 02:23:43	317.6
2017-08-10 02:24:23	317.5
2017-08-10 02:25:03	317.6
2017-08-10 02:25:53	317.8
2017-08-10 02:26:43	317.8
2017-08-10 02:27:13	317.8
2017-08-10 02:27:43	317.8
2017-08-10 02:28:23	318.0
2017-08-10 02:29:03	317.9
2017-08-10 02:29:43	317.7
2017-08-10 02:30:13	317.4
2017-08-10 02:30:43	317.4
2017-08-10 02:31:03	317.6
2017-08-10 02:31:33	317.5
2017-08-10 02:32:03	317.6
2017-08-10 02:32:43	317.5
2017-08-10 02:33:13	317.6
2017-08-10 02:33:33	317.9
2017-08-10 02:34:03	317.9
2017-08-10 02:34:43	318.0
2017-08-10 02:35:13	317.8
2017-08-10 02:36:03	317.9
2017-08-10 02:36:33	317.8
2017-08-10 02:37:23	317.8
2017-08-10 02:37:53	317.7
2017-08-10 02:38:13	317.9
2017-08-10 02:39:03	317.9
2017-08-10 02:39:33	318.0
2017-08-10 02:40:03	318.0
2017-08-10 02:40:33	318.1
2017-08-10 02:41:13	318.5
2017-08-10 02:41:43	318.5
2017-08-10 02:42:13	318.3
2017-08-10 02:42:33	318.0
2017-08-10 02:43:13	317.9
2017-08-10 02:43:53	318.1
2017-08-10 02:44:23	318.1
2017-08-10 02:44:53	318.1
2017-08-10 02:45:23	318.3
2017-08-10 02:46:03	318.3
2017-08-10 02:46:33	318.5
2017-08-10 02:47:03	318.3
2017-08-10 02:47:43	318.3
2017-08-10 02:48:23	318.1
2017-08-10 02:49:03	318.0
2017-08-10 02:49:43	317.9
2017-08-10 02:50:13	317.8
2017-08-10 02:50:53	317.7
2017-08-10 02:51:33	317.8
2017-08-10 02:52:13	317.7
2017-08-10 02:52:33	317.9
2017-08-10 02:53:03	317.9
2017-08-10 02:53:43	317.8
2017-08-10 02:54:13	317.7
2017-08-10 02:54:43	317.8
2017-08-10 02:55:23	317.9
2017-08-10 02:56:03	318.1
2017-08-10 02:56:33	318.1
2017-08-10 02:57:13	318.1
2017-08-10 02:57:53	318.1
2017-08-10 02:58:23	317.8
2017-08-10 02:58:53	317.9
2017-08-10 02:59:23	318.0
2017-08-10 02:59:53	317.8
2017-08-10 03:00:23	317.5
2017-08-10 03:00:53	317.4
2017-08-10 03:01:33	317.7
2017-08-10 03:01:53	317.9
2017-08-10 03:02:13	318.2
2017-08-10 03:03:03	318.3
2017-08-10 03:03:43	318.2
2017-08-10 03:04:23	318.4
2017-08-10 03:04:53	318.3
2017-08-10 03:05:13	318.1
2017-08-10 03:05:43	318.0
2017-08-10 03:06:23	317.9
2017-08-10 03:06:53	317.6
2017-08-10 03:07:13	317.4
2017-08-10 03:07:43	317.6
2017-08-10 03:08:13	317.8
2017-08-10 03:08:43	317.6
2017-08-10 03:09:03	317.3
2017-08-10 03:09:43	317.3
2017-08-10 03:10:23	317.5
2017-08-10 03:11:13	317.7
2017-08-10 03:11:53	317.7
2017-08-10 03:12:23	317.8
2017-08-10 03:12:53	317.9
2017-08-10 03:13:33	318.1
2017-08-10 03:14:13	318.1
2017-08-10 03:14:33	318.3
2017-08-10 03:15:13	318.1
2017-08-10 03:15:53	318.3
2017-08-10 03:16:43	318.1
2017-08-10 03:17:23	317.7
2017-08-10 03:17:53	317.9
2017-08-10 03:18:33	317.8
2017-08-10 03:19:03	317.6
2017-08-10 03:19:43	317.6
2017-08-10 03:20:13	317.8
2017-08-10 03:20:43	317.5
2017-08-10 03:21:23	317.4
2017-08-10 03:21:53	317.3
2017-08-10 03:22:33	317.2
2017-08-10 03:23:03	317.5
2017-08-10 03:23:43	317.2
2017-08-10 03:24:13	317.4
2017-08-10 03:24:43	317.4
2017-08-10 03:25:13	317.2
2017-08-10 03:25:53	317.2
2017-08-10 03:26:23	317.0
2017-08-10 03:26:53	317.2
2017-08-10 03:27:23	317.5
2017-08-10 03:27:53	317.5
2017-08-10 03:28:13	317.2
2017-08-10 03:28:43	317.2
2017-08-10 03:29:23	317.1
2017-08-10 03:30:03	317.1
2017-08-10 03:30:43	317.3
2017-08-10 03:31:23	317.0
2017-08-10 03:32:03	317.1
2017-08-10 03:32:43	317.1
2017-08-10 03:33:23	317.1
2017-08-10 03:33:53	317.4
2017-08-10 03:34:13	317.1
2017-08-10 03:34:43	317.2
2017-08-10 03:35:13	317.5
2017-08-10 03:36:03	317.3
2017-08-10 03:36:33	317.4
2017-08-10 03:37:03	317.6
2017-08-10 03:37:33	317.6
2017-08-10 03:37:53	317.4
2017-08-10 03:38:33	317.8
2017-08-10 03:39:13	317.9
2017-08-10 03:39:53	317.8
2017-08-10 03:40:23	318.0
2017-08-10 03:40:53	317.9
2017-08-10 03:41:23	318.1
2017-08-10 03:42:03	318.2
2017-08-10 03:42:43	318.0
2017-08-10 03:43:03	317.7
2017-08-10 03:43:23	317.5
2017-08-10 03:44:03	317.4
2017-08-10 03:44:53	317.3
2017-08-10 03:45:33	317.3
2017-08-10 03:46:03	317.3
2017-08-10 03:46:43	317.2
2017-08-10 03:47:23	317.3
2017-08-10 03:48:03	317.4
2017-08-10 03:48:33	317.3
2017-08-10 03:49:13	317.5
2017-08-10 03:49:53	317.7
2017-08-10 03:50:33	317.8
2017-08-10 03:51:03	318.0
2017-08-10 03:51:33	318.1
2017-08-10 03:52:13	318.0
2017-08-10 03:52:53	318.2
2017-08-10 03:53:23	318.1
2017-08-10 03:54:03	318.0
2017-08-10 03:54:43	317.9
2017-08-10 03:55:23	317.8
2017-08-10 03:55:53	318.1
2017-08-10 03:56:33	318.0
2017-08-10 03:57:03	317.8
2017-08-10 03:57:33	317.9
2017-08-10 03:58:13	317.8
2017-08-10 03:58:53	317.7
2017-08-10 03:59:23	318.0
2017-08-10 04:00:03	317.9
2017-08-10 04:00:33	317.8
2017-08-10 04:01:13	317.6
2017-08-10 04:01:43	317.4
2017-08-10 04:02:03	317.2
2017-08-10 04:02:43	317.2
2017-08-10 04:03:13	317.1
2017-08-10 04:03:53	317.3
2017-08-10 04:04:23	317.2
2017-08-10 04:04:33	317.5
2017-08-10 04:05:03	317.8
2017-08-10 04:05:13	318.0
2017-08-10 04:05:53	318.2
2017-08-10 04:06:23	318.0
2017-08-10 04:06:53	318.0
2017-08-10 04:07:13	317.7
2017-08-10 04:07:33	317.5
2017-08-10 04:08:03	317.4
2017-08-10 04:08:43	317.3
2017-08-10 04:09:13	317.5
2017-08-10 04:09:33	317.7
2017-08-10 04:10:13	317.7
2017-08-10 04:10:53	317.9
2017-08-10 04:11:13	317.5
2017-08-10 04:11:53	317.5
2017-08-10 04:12:33	317.3
2017-08-10 04:13:23	317.4
2017-08-10 04:14:03	317.5
2017-08-10 04:14:43	317.6
2017-08-10 04:15:03	317.9
2017-08-10 04:15:33	317.7
2017-08-10 04:16:03	317.5
2017-08-10 04:16:43	317.7
2017-08-10 04:17:03	317.4
2017-08-10 04:17:43	317.6
2017-08-10 04:18:03	317.4
2017-08-10 04:18:33	317.4
2017-08-10 04:19:13	317.4
2017-08-10 04:19:43	317.5
2017-08-10 04:20:33	317.4
2017-08-10 04:21:03	317.5
2017-08-10 04:21:33	317.3
2017-08-10 04:21:53	317.1
2017-08-10 04:22:23	317.1
2017-08-10 04:22:53	317.2
2017-08-10 04:23:13	317.4
2017-08-10 04:23:33	317.2
2017-08-10 04:24:13	317.4
2017-08-10 04:24:43	317.2
2017-08-10 04:25:23	317.1
2017-08-10 04:26:03	316.9
2017-08-10 04:26:43	316.9
2017-08-10 04:27:13	317.0
2017-08-10 04:27:53	317.1
2017-08-10 04:28:13	317.4
2017-08-10 04:28:53	317.3
2017-08-10 04:29:33	317.2
2017-08-10 04:30:03	317.4
2017-08-10 04:30:43	317.7
2017-08-10 04:30:53	317.9
2017-08-10 04:31:33	317.9
2017-08-10 04:32:03	318.0
2017-08-10 04:32:33	318.3
2017-08-10 04:33:13	318.0
2017-08-10 04:33:43	318.2
2017-08-10 04:34:03	318.0
2017-08-10 04:34:33	317.8
2017-08-10 04:34:53	317.6
2017-08-10 04:35:23	317.5
2017-08-10 04:35:53	317.5
2017-08-10 04:36:23	317.5
2017-08-10 04:36:53	317.5
2017-08-10 04:37:23	317.6
2017-08-10 04:38:03	317.5
2017-08-10 04:38:43	317.5
2017-08-10 04:39:13	317.6
2017-08-10 04:39:53	317.6
2017-08-10 04:40:03	317.8
2017-08-10 04:40:43	317.9
2017-08-10 04:41:23	317.9
2017-08-10 04:42:03	317.9
2017-08-10 04:42:43	317.6
2017-08-10 04:43:23	317.2
2017-08-10 04:43:43	317.0
2017-08-10 04:44:13	317.0
2017-08-10 04:44:53	317.0
2017-08-10 04:45:33	317.1
2017-08-10 04:46:13	317.0
2017-08-10 04:46:43	317.0
2017-08-10 04:47:23	317.2
2017-08-10 04:47:43	317.4
2017-08-10 04:48:13	317.4
2017-08-10 04:48:53	317.8
2017-08-10 04:49:23	317.4
2017-08-10 04:49:43	317.0
2017-08-10 04:49:53	316.8
2017-08-10 04:50:23	316.9
2017-08-10 04:50:53	316.7
2017-08-10 04:51:33	316.9
2017-08-10 04:52:13	316.8
2017-08-10 04:52:53	316.9
2017-08-10 04:53:03	317.1
2017-08-10 04:53:43	317.1
2017-08-10 04:54:23	317.3
2017-08-10 04:55:03	317.3
2017-08-10 04:55:33	317.5
2017-08-10 04:56:13	317.7
2017-08-10 04:56:33	317.9
2017-08-10 04:57:03	317.9
2017-08-10 04:57:53	317.7
2017-08-10 04:58:33	317.6
2017-08-10 04:58:53	317.8
2017-08-10 04:59:23	317.8
2017-08-10 05:00:03	317.8
2017-08-10 05:00:13	317.6
2017-08-10 05:00:43	317.4
2017-08-10 05:01:13	317.4
2017-08-10 05:01:43	317.2
2017-08-10 05:01:53	317.0
2017-08-10 05:02:23	317.1
2017-08-10 05:02:43	317.5
2017-08-10 05:02:53	317.7
2017-08-10 05:03:23	318.0
2017-08-10 05:04:03	317.9
2017-08-10 05:04:33	317.7
2017-08-10 05:05:03	317.8
2017-08-10 05:05:33	317.9
2017-08-10 05:06:03	317.7
2017-08-10 05:06:43	317.9
2017-08-10 05:07:13	317.9
2017-08-10 05:07:53	317.9
2017-08-10 05:08:23	317.5
2017-08-10 05:08:43	317.3
2017-08-10 05:09:13	317.0
2017-08-10 05:10:13	317.0
2017-08-10 05:10:53	317.2
2017-08-10 05:11:23	317.3
2017-08-10 05:12:03	317.2
2017-08-10 05:12:33	317.3
2017-08-10 05:13:03	317.2
2017-08-10 05:13:43	317.4
2017-08-10 05:14:13	317.2
2017-08-10 05:14:43	317.0
2017-08-10 05:15:23	317.2
2017-08-10 05:16:03	317.4
2017-08-10 05:16:23	317.6
2017-08-10 05:16:43	317.3
2017-08-10 05:17:13	317.5
2017-08-10 05:17:33	317.2
2017-08-10 05:17:53	317.5
2017-08-10 05:18:43	317.5
2017-08-10 05:19:13	317.5
2017-08-10 05:19:43	317.4
2017-08-10 05:20:03	317.7
2017-08-10 05:20:23	317.9
2017-08-10 05:20:53	317.9
2017-08-10 05:21:13	317.6
2017-08-10 05:22:03	317.6
2017-08-10 05:22:43	317.5
2017-08-10 05:23:13	317.6
2017-08-10 05:23:53	317.5
2017-08-10 05:24:13	317.2
2017-08-10 05:25:03	317.3
2017-08-10 05:25:33	317.5
2017-08-10 05:26:03	317.2
2017-08-10 05:26:43	317.2
2017-08-10 05:27:23	317.2
2017-08-10 05:28:03	317.1
2017-08-10 05:28:33	317.0
2017-08-10 05:29:13	317.0
2017-08-10 05:29:43	317.0
2017-08-10 05:30:13	316.6
2017-08-10 05:30:43	316.5
2017-08-10 05:31:13	316.8
2017-08-10 05:31:23	317.0
2017-08-10 05:31:53	317.1
2017-08-10 05:32:33	317.1
2017-08-10 05:33:03	317.2
2017-08-10 05:33:33	317.1
2017-08-10 05:34:03	317.1
2017-08-10 05:34:23	316.8
2017-08-10 05:34:53	316.9
2017-08-10 05:35:13	317.2
2017-08-10 05:35:23	317.5
2017-08-10 05:36:13	317.4
2017-08-10 05:36:53	317.3
2017-08-10 05:37:43	317.3
2017-08-10 05:38:23	317.4
2017-08-10 05:39:03	317.5
2017-08-10 05:39:33	317.5
2017-08-10 05:40:13	317.7
2017-08-10 05:40:53	317.8
2017-08-10 05:41:33	318.0
2017-08-10 05:42:03	318.1
2017-08-10 05:42:33	317.9
2017-08-10 05:43:23	318.0
2017-08-10 05:43:43	317.8
2017-08-10 05:44:03	317.6
2017-08-10 05:44:33	317.7
2017-08-10 05:45:13	317.7
2017-08-10 05:45:33	317.4
2017-08-10 05:46:13	317.5
2017-08-10 05:46:33	317.8
2017-08-10 05:47:03	317.8
2017-08-10 05:47:33	318.0
2017-08-10 05:48:03	317.9
2017-08-10 05:48:43	317.8
2017-08-10 05:49:23	317.6
2017-08-10 05:50:03	317.5
2017-08-10 05:50:43	317.3
2017-08-10 05:51:23	317.5
2017-08-10 05:52:13	317.3
2017-08-10 05:52:53	317.5
2017-08-10 05:53:33	317.6
2017-08-10 05:54:23	317.7
2017-08-10 05:55:03	317.7
2017-08-10 05:55:23	317.4
2017-08-10 05:55:43	317.1
2017-08-10 05:56:23	317.2
2017-08-10 05:57:03	317.1
2017-08-10 05:57:33	317.0
2017-08-10 05:58:03	316.8
2017-08-10 05:58:53	317.0
2017-08-10 05:59:23	317.1
2017-08-10 05:59:43	316.9
2017-08-10 06:00:13	317.1
2017-08-10 06:00:43	317.2
2017-08-10 06:01:33	317.3
2017-08-10 06:02:03	317.2
2017-08-10 06:02:33	317.0
2017-08-10 06:03:13	317.0
2017-08-10 06:03:53	317.1
2017-08-10 06:04:13	317.3
2017-08-10 06:04:33	317.1
2017-08-10 06:05:13	317.0
2017-08-10 06:05:53	317.2
2017-08-10 06:06:23	317.4
2017-08-10 06:07:03	317.5
2017-08-10 06:07:33	317.5
2017-08-10 06:08:03	317.2
2017-08-10 06:08:33	317.2
2017-08-10 06:09:13	317.2
2017-08-10 06:09:43	317.2
2017-08-10 06:10:13	317.2
2017-08-10 06:10:53	317.1
2017-08-10 06:11:53	317.1
2017-08-10 06:12:33	317.1
2017-08-10 06:12:43	317.3
2017-08-10 06:13:23	317.5
2017-08-10 06:13:33	317.7
2017-08-10 06:14:03	317.7
2017-08-10 06:14:43	317.7
2017-08-10 06:15:13	317.8
2017-08-10 06:15:43	317.7
2017-08-10 06:16:03	317.4
2017-08-10 06:16:33	317.4
2017-08-10 06:16:53	317.2
2017-08-10 06:17:33	317.3
2017-08-10 06:18:03	317.3
2017-08-10 06:18:43	317.1
2017-08-10 06:19:23	317.3
2017-08-10 06:20:03	317.3
2017-08-10 06:20:43	317.2
2017-08-10 06:21:23	317.2
2017-08-10 06:22:03	316.9
2017-08-10 06:22:33	316.9
2017-08-10 06:23:03	316.7
2017-08-10 06:23:33	317.0
2017-08-10 06:24:13	317.2
2017-08-10 06:24:33	317.5
2017-08-10 06:25:13	317.4
2017-08-10 06:25:53	317.6
2017-08-10 06:26:33	317.8
2017-08-10 06:27:03	318.0
2017-08-10 06:27:33	318.2
2017-08-10 06:28:13	318.1
2017-08-10 06:28:53	317.9
2017-08-10 06:29:23	318.0
2017-08-10 06:29:53	317.9
2017-08-10 06:30:23	317.9
2017-08-10 06:31:03	317.6
2017-08-10 06:31:23	317.4
2017-08-10 06:31:53	317.6
2017-08-10 06:32:33	317.7
2017-08-10 06:33:13	317.6
2017-08-10 06:33:43	317.4
2017-08-10 06:34:13	317.4
2017-08-10 06:34:53	317.5
2017-08-10 06:35:23	317.4
2017-08-10 06:36:03	317.4
2017-08-10 06:36:43	317.3
2017-08-10 06:37:13	317.5
2017-08-10 06:37:43	317.3
2017-08-10 06:38:03	317.6
2017-08-10 06:38:43	317.6
2017-08-10 06:39:13	317.4
2017-08-10 06:39:43	317.2
2017-08-10 06:40:03	317.0
2017-08-10 06:40:33	316.8
2017-08-10 06:41:03	317.0
2017-08-10 06:41:33	317.2
2017-08-10 06:42:13	317.2
2017-08-10 06:42:43	317.1
2017-08-10 06:43:03	317.3
2017-08-10 06:43:33	317.4
2017-08-10 06:44:03	317.3
2017-08-10 06:44:23	317.6
2017-08-10 06:45:03	317.7
2017-08-10 06:45:43	317.5
2017-08-10 06:46:03	317.2
2017-08-10 06:46:43	317.2
2017-08-10 06:47:23	317.0
2017-08-10 06:48:03	316.9
2017-08-10 06:48:43	316.9
2017-08-10 06:49:13	317.2
2017-08-10 06:49:43	317.3
2017-08-10 06:50:23	317.3
2017-08-10 06:50:43	317.5
2017-08-10 06:51:23	317.5
2017-08-10 06:52:03	317.5
2017-08-10 06:52:43	317.7
2017-08-10 06:53:13	317.5
2017-08-10 06:53:53	317.4
2017-08-10 06:54:23	317.4
2017-08-10 06:54:53	317.2
2017-08-10 06:55:33	317.6
2017-08-10 06:56:03	317.6
2017-08-10 06:56:43	317.4
2017-08-10 06:57:23	317.5
2017-08-10 06:57:53	317.5
2017-08-10 06:58:23	317.6
2017-08-10 06:59:03	317.6
2017-08-10 06:59:23	317.3
2017-08-10 07:00:03	317.4
2017-08-10 07:00:23	317.2
2017-08-10 07:01:03	317.3
2017-08-10 07:01:33	317.4
2017-08-10 07:02:13	317.3
2017-08-10 07:02:33	317.5
2017-08-10 07:02:53	317.3
2017-08-10 07:03:23	317.5
2017-08-10 07:04:03	317.6
2017-08-10 07:04:33	317.8
2017-08-10 07:05:03	317.7
2017-08-10 07:05:43	317.7
2017-08-10 07:06:23	317.5
2017-08-10 07:07:03	317.4
2017-08-10 07:07:23	317.1
2017-08-10 07:08:03	317.1
2017-08-10 07:08:23	317.4
2017-08-10 07:09:03	317.4
2017-08-10 07:09:33	317.2
2017-08-10 07:10:03	317.2
2017-08-10 07:10:33	317.0
2017-08-10 07:11:03	317.0
2017-08-10 07:11:33	316.9
2017-08-10 07:11:53	317.2
2017-08-10 07:12:33	317.0
2017-08-10 07:12:53	317.4
2017-08-10 07:13:33	317.6
2017-08-10 07:14:13	317.5
2017-08-10 07:14:33	317.3
2017-08-10 07:15:13	317.2
2017-08-10 07:15:53	317.3
2017-08-10 07:16:33	317.1
2017-08-10 07:17:03	317.1
2017-08-10 07:17:43	317.2
2017-08-10 07:18:13	317.4
2017-08-10 07:18:53	317.4
2017-08-10 07:19:23	317.6
2017-08-10 07:20:03	317.5
2017-08-10 07:20:33	317.3
2017-08-10 07:21:13	317.3
2017-08-10 07:21:43	317.3
2017-08-10 07:22:13	317.3
2017-08-10 07:23:03	317.4
2017-08-10 07:23:23	317.8
2017-08-10 07:24:03	317.9
2017-08-10 07:24:33	318.0
2017-08-10 07:25:03	318.0
2017-08-10 07:25:33	317.7
2017-08-10 07:25:53	317.4
2017-08-10 07:26:33	317.5
2017-08-10 07:27:23	317.6
2017-08-10 07:27:43	317.4
2017-08-10 07:28:23	317.5
2017-08-10 07:29:03	317.7
2017-08-10 07:29:23	317.4
2017-08-10 07:29:53	317.4
2017-08-10 07:30:33	317.4
2017-08-10 07:31:23	317.3
2017-08-10 07:31:53	317.1
2017-08-10 07:32:23	317.1
2017-08-10 07:33:23	317.2
2017-08-10 07:33:53	317.2
2017-08-10 07:34:33	317.4
2017-08-10 07:35:03	317.4
2017-08-10 07:35:33	317.3
2017-08-10 07:36:23	317.1
2017-08-10 07:37:03	317.1
2017-08-10 07:37:33	317.3
2017-08-10 07:38:13	317.4
2017-08-10 07:38:53	317.4
2017-08-10 07:39:33	317.4
2017-08-10 07:40:03	317.5
2017-08-10 07:40:23	317.7
2017-08-10 07:41:03	317.8
2017-08-10 07:41:43	318.1
2017-08-10 07:42:23	318.0
2017-08-10 07:43:03	318.0
2017-08-10 07:43:23	317.7
2017-08-10 07:43:53	317.7
2017-08-10 07:44:33	317.7
2017-08-10 07:45:03	317.6
2017-08-10 07:45:43	317.8
2017-08-10 07:46:23	317.7
2017-08-10 07:46:53	318.0
2017-08-10 07:47:43	317.9
2017-08-10 07:48:13	318.0
2017-08-10 07:48:43	317.8
2017-08-10 07:49:23	317.7
2017-08-10 07:49:43	317.5
2017-08-10 07:50:13	317.7
2017-08-10 07:50:53	317.7
2017-08-10 07:51:13	317.5
2017-08-10 07:51:43	317.4
2017-08-10 07:52:23	317.5
2017-08-10 07:52:43	317.2
2017-08-10 07:53:13	317.0
2017-08-10 07:53:43	316.9
2017-08-10 07:54:23	317.2
2017-08-10 07:55:03	317.1
2017-08-10 07:55:33	317.1
2017-08-10 07:56:03	316.9
2017-08-10 07:56:33	317.1
2017-08-10 07:56:53	316.8
2017-08-10 07:57:33	316.6
2017-08-10 07:58:03	316.8
2017-08-10 07:58:23	317.1
2017-08-10 07:58:53	317.3
2017-08-10 07:59:23	317.2
2017-08-10 07:59:53	317.4
2017-08-10 08:00:13	317.6
2017-08-10 08:00:43	317.9
2017-08-10 08:01:23	317.6
2017-08-10 08:02:03	317.5
2017-08-10 08:02:43	317.6
2017-08-10 08:03:23	317.7
2017-08-10 08:04:03	317.7
2017-08-10 08:04:33	317.6
2017-08-10 08:04:53	317.9
2017-08-10 08:05:13	317.7
2017-08-10 08:05:33	317.4
2017-08-10 08:06:13	317.3
2017-08-10 08:06:53	317.4
2017-08-10 08:07:23	317.7
2017-08-10 08:08:03	318.0
2017-08-10 08:08:43	318.0
2017-08-10 08:09:23	318.1
2017-08-10 08:10:03	318.0
2017-08-10 08:10:33	317.7
2017-08-10 08:11:13	317.7
2017-08-10 08:11:53	317.8
2017-08-10 08:12:33	317.8
2017-08-10 08:13:13	317.8
2017-08-10 08:13:53	317.7
2017-08-10 08:14:23	317.5
2017-08-10 08:14:53	317.3
2017-08-10 08:15:13	317.1
2017-08-10 08:15:53	317.2
2017-08-10 08:16:13	316.9
2017-08-10 08:16:43	316.8
2017-08-10 08:17:23	316.9
2017-08-10 08:17:53	316.7
2017-08-10 08:18:33	316.7
2017-08-10 08:19:03	316.7
2017-08-10 08:19:33	316.9
2017-08-10 08:19:53	317.2
2017-08-10 08:20:23	317.4
2017-08-10 08:20:53	317.4
2017-08-10 08:21:23	317.6
2017-08-10 08:21:53	317.4
2017-08-10 08:22:23	317.6
2017-08-10 08:23:03	317.4
2017-08-10 08:23:33	317.0
2017-08-10 08:23:53	316.8
2017-08-10 08:24:33	316.8
2017-08-10 08:25:13	317.1
2017-08-10 08:25:43	317.2
2017-08-10 08:26:13	317.5
2017-08-10 08:26:53	317.6
2017-08-10 08:27:43	317.4
2017-08-10 08:28:13	317.2
2017-08-10 08:28:33	316.9
2017-08-10 08:29:03	316.9
2017-08-10 08:29:33	316.8
2017-08-10 08:29:53	316.6
2017-08-10 08:30:23	316.6
2017-08-10 08:31:03	316.8
2017-08-10 08:31:43	316.9
2017-08-10 08:32:13	316.8
2017-08-10 08:32:53	317.0
2017-08-10 08:33:33	316.7
2017-08-10 08:34:03	316.6
2017-08-10 08:34:43	316.7
2017-08-10 08:35:03	317.0
2017-08-10 08:35:33	317.1
2017-08-10 08:36:03	317.2
2017-08-10 08:36:33	317.5
2017-08-10 08:36:53	317.7
2017-08-10 08:37:23	317.5
2017-08-10 08:38:03	317.4
2017-08-10 08:38:43	317.1
2017-08-10 08:39:23	316.9
2017-08-10 08:40:03	316.7
2017-08-10 08:40:33	316.8
2017-08-10 08:41:03	316.7
2017-08-10 08:41:43	316.8
2017-08-10 08:42:23	317.0
2017-08-10 08:42:33	317.2
2017-08-10 08:43:03	316.9
2017-08-10 08:43:43	316.8
2017-08-10 08:44:13	316.8
2017-08-10 08:44:43	316.6
2017-08-10 08:45:23	316.8
2017-08-10 08:45:53	317.1
2017-08-10 08:46:23	317.0
2017-08-10 08:47:23	317.1
2017-08-10 08:47:53	317.4
2017-08-10 08:48:33	317.6
2017-08-10 08:49:03	317.5
2017-08-10 08:49:33	317.4
2017-08-10 08:50:03	317.4
2017-08-10 08:50:53	317.3
2017-08-10 08:51:23	317.5
2017-08-10 08:52:03	317.5
2017-08-10 08:52:43	317.4
2017-08-10 08:53:13	317.6
2017-08-10 08:53:43	317.5
2017-08-10 08:54:03	317.2
2017-08-10 08:54:43	317.1
2017-08-10 08:55:13	317.2
2017-08-10 08:55:53	317.5
2017-08-10 08:56:23	317.3
2017-08-10 08:56:53	317.5
2017-08-10 08:57:33	317.7
2017-08-10 08:58:03	317.4
2017-08-10 08:58:23	317.1
2017-08-10 08:59:03	317.1
2017-08-10 08:59:23	316.8
2017-08-10 08:59:43	316.6
2017-08-10 09:00:23	316.7
2017-08-10 09:01:03	316.7
2017-08-10 09:01:23	316.9
2017-08-10 09:02:03	317.3
2017-08-10 09:02:43	317.2
2017-08-10 09:03:13	317.3
2017-08-10 09:03:33	317.0
2017-08-10 09:04:03	316.8
2017-08-10 09:04:43	316.8
2017-08-10 09:05:13	317.2
2017-08-10 09:05:43	317.3
2017-08-10 09:06:23	317.2
2017-08-10 09:07:03	317.1
2017-08-10 09:07:43	316.9
2017-08-10 09:08:23	317.0
2017-08-10 09:09:03	317.0
2017-08-10 09:09:43	316.8
2017-08-10 09:10:13	316.7
2017-08-10 09:10:53	316.8
2017-08-10 09:11:03	317.0
2017-08-10 09:11:53	316.9
2017-08-10 09:12:13	317.1
2017-08-10 09:12:53	316.9
2017-08-10 09:13:33	317.1
2017-08-10 09:14:13	317.1
2017-08-10 09:14:53	317.1
2017-08-10 09:15:23	317.4
2017-08-10 09:15:53	317.5
2017-08-10 09:16:23	317.4
2017-08-10 09:16:53	317.5
2017-08-10 09:17:23	317.1
2017-08-10 09:17:43	316.9
2017-08-10 09:18:13	317.2
2017-08-10 09:18:33	316.9
2017-08-10 09:19:03	316.9
2017-08-10 09:19:43	317.0
2017-08-10 09:20:13	316.9
2017-08-10 09:20:53	316.9
2017-08-10 09:21:33	317.0
2017-08-10 09:22:13	316.7
2017-08-10 09:22:43	316.4
2017-08-10 09:23:23	316.3
2017-08-10 09:23:53	316.4
2017-08-10 09:24:33	316.5
2017-08-10 09:25:13	316.7
2017-08-10 09:25:43	316.4
2017-08-10 09:26:13	316.1
2017-08-10 09:26:23	315.9
2017-08-10 09:27:03	316.0
2017-08-10 09:27:23	316.2
2017-08-10 09:27:53	316.3
2017-08-10 09:28:33	316.4
2017-08-10 09:28:53	316.1
2017-08-10 09:29:23	315.9
2017-08-10 09:30:03	315.7
2017-08-10 09:30:43	315.7
2017-08-10 09:31:13	315.7
2017-08-10 09:31:43	315.7
2017-08-10 09:32:23	315.6
2017-08-10 09:32:43	315.8
2017-08-10 09:33:23	315.9
2017-08-10 09:33:43	315.7
2017-08-10 09:34:23	315.6
2017-08-10 09:34:53	315.8
2017-08-10 09:35:33	315.7
2017-08-10 09:36:03	315.6
2017-08-10 09:36:33	315.4
2017-08-10 09:37:13	315.5
2017-08-10 09:37:43	315.6
2017-08-10 09:38:23	315.6
2017-08-10 09:38:53	315.4
2017-08-10 09:39:03	315.1
2017-08-10 09:39:33	315.2
2017-08-10 09:39:53	314.9
2017-08-10 09:40:33	315.0
2017-08-10 09:41:03	315.2
2017-08-10 09:41:23	315.4
2017-08-10 09:41:53	315.7
2017-08-10 09:42:53	315.7
2017-08-10 09:43:23	315.7
2017-08-10 09:43:53	315.6
2017-08-10 09:44:33	315.5
2017-08-10 09:45:03	315.7
2017-08-10 09:45:23	316.0
2017-08-10 09:45:33	316.2
2017-08-10 09:45:53	316.5
2017-08-10 09:46:33	316.6
2017-08-10 09:47:13	316.5
2017-08-10 09:47:53	316.7
2017-08-10 09:48:43	316.4
2017-08-10 09:49:23	316.5
2017-08-10 09:49:53	316.3
2017-08-10 09:50:33	316.2
2017-08-10 09:51:13	316.2
2017-08-10 09:51:53	315.9
2017-08-10 09:52:13	315.6
2017-08-10 09:52:53	315.5
2017-08-10 09:53:03	315.8
2017-08-10 09:53:23	316.0
2017-08-10 09:54:03	316.2
2017-08-10 09:54:43	316.3
2017-08-10 09:55:23	316.4
2017-08-10 09:55:53	316.5
2017-08-10 09:56:33	316.6
2017-08-10 09:57:13	316.8
2017-08-10 09:57:53	316.5
2017-08-10 09:58:03	316.3
2017-08-10 09:58:13	316.5
2017-08-10 09:58:43	316.3
2017-08-10 09:59:13	316.4
2017-08-10 09:59:43	316.1
2017-08-10 10:00:13	316.2
2017-08-10 10:00:53	316.3
2017-08-10 10:01:43	316.5
2017-08-10 10:02:13	316.4
2017-08-10 10:02:33	316.1
2017-08-10 10:03:13	316.1
2017-08-10 10:03:33	316.3
2017-08-10 10:03:53	316.5
2017-08-10 10:04:33	316.3
2017-08-10 10:04:53	316.1
2017-08-10 10:05:23	316.0
2017-08-10 10:06:03	316.0
2017-08-10 10:06:33	315.7
2017-08-10 10:07:03	315.9
2017-08-10 10:07:43	315.9
2017-08-10 10:08:13	316.0
2017-08-10 10:08:43	315.7
2017-08-10 10:09:03	315.9
2017-08-10 10:09:43	315.9
2017-08-10 10:10:13	316.2
2017-08-10 10:10:43	316.4
2017-08-10 10:11:03	316.6
2017-08-10 10:11:43	316.4
2017-08-10 10:12:23	316.6
2017-08-10 10:12:53	316.7
2017-08-10 10:13:23	316.7
2017-08-10 10:13:53	316.7
2017-08-10 10:14:33	316.7
2017-08-10 10:15:13	316.5
2017-08-10 10:15:53	316.6
2017-08-10 10:16:33	316.5
2017-08-10 10:17:33	316.6
2017-08-10 10:17:53	316.8
2017-08-10 10:18:33	316.5
2017-08-10 10:19:13	316.4
2017-08-10 10:19:53	316.3
2017-08-10 10:20:03	316.1
2017-08-10 10:20:13	315.9
2017-08-10 10:20:43	315.9
2017-08-10 10:21:23	315.7
2017-08-10 10:21:53	315.9
2017-08-10 10:22:33	316.0
2017-08-10 10:22:53	315.8
2017-08-10 10:23:33	315.9
2017-08-10 10:23:53	316.1
2017-08-10 10:24:23	316.2
2017-08-10 10:24:33	316.6
2017-08-10 10:25:13	316.4
2017-08-10 10:25:53	316.4
2017-08-10 10:26:43	316.3
2017-08-10 10:27:13	316.2
2017-08-10 10:27:43	316.2
2017-08-10 10:28:13	316.1
2017-08-10 10:28:43	315.9
2017-08-10 10:29:23	316.0
2017-08-10 10:29:53	316.2
2017-08-10 10:30:23	316.1
2017-08-10 10:30:53	315.9
2017-08-10 10:31:33	316.0
2017-08-10 10:31:53	315.6
2017-08-10 10:32:33	315.6
2017-08-10 10:32:53	315.8
2017-08-10 10:33:23	316.1
2017-08-10 10:34:03	315.9
2017-08-10 10:34:33	316.1
2017-08-10 10:35:13	316.0
2017-08-10 10:35:43	316.0
2017-08-10 10:36:23	316.1
2017-08-10 10:36:53	316.0
2017-08-10 10:37:23	316.0
2017-08-10 10:38:13	316.0
2017-08-10 10:38:43	315.9
2017-08-10 10:39:23	316.0
2017-08-10 10:39:53	316.1
2017-08-10 10:40:33	315.9
2017-08-10 10:41:03	315.9
2017-08-10 10:41:43	315.8
2017-08-10 10:42:13	315.8
2017-08-10 10:43:03	315.9
2017-08-10 10:43:23	315.6
2017-08-10 10:44:03	315.6
2017-08-10 10:44:33	315.4
2017-08-10 10:45:13	315.4
2017-08-10 10:45:43	315.7
2017-08-10 10:46:23	315.4
2017-08-10 10:47:03	315.3
2017-08-10 10:47:33	315.5
2017-08-10 10:48:13	315.5
2017-08-10 10:48:53	315.4
2017-08-10 10:49:33	315.5
2017-08-10 10:50:03	315.5
2017-08-10 10:50:43	315.6
2017-08-10 10:51:13	315.9
2017-08-10 10:51:53	315.7
2017-08-10 10:52:23	315.8
2017-08-10 10:53:03	316.0
2017-08-10 10:53:33	316.2
2017-08-10 10:54:03	316.2
2017-08-10 10:54:43	315.8
2017-08-10 10:55:13	315.8
2017-08-10 10:55:43	315.9
2017-08-10 10:56:13	316.0
2017-08-10 10:56:53	316.1
2017-08-10 10:57:23	316.2
2017-08-10 10:58:03	316.1
2017-08-10 10:58:33	316.0
2017-08-10 10:59:13	315.8
2017-08-10 10:59:23	315.5
2017-08-10 10:59:33	315.3
2017-08-10 11:00:13	315.5
2017-08-10 11:00:43	315.6
2017-08-10 11:01:23	315.6
2017-08-10 11:01:43	315.4
2017-08-10 11:02:03	315.1
2017-08-10 11:02:33	315.4
2017-08-10 11:03:13	315.6
2017-08-10 11:03:43	315.9
2017-08-10 11:04:23	316.0
2017-08-10 11:04:53	315.8
2017-08-10 11:05:23	315.8
2017-08-10 11:06:03	315.9
2017-08-10 11:06:33	316.1
2017-08-10 11:07:13	316.0
2017-08-10 11:07:43	316.1
2017-08-10 11:08:13	316.3
2017-08-10 11:08:53	316.2
2017-08-10 11:09:23	316.1
2017-08-10 11:09:53	316.1
2017-08-10 11:10:23	316.3
2017-08-10 11:10:53	316.5
2017-08-10 11:11:33	316.4
2017-08-10 11:11:53	316.1
2017-08-10 11:12:33	316.2
2017-08-10 11:13:13	316.1
2017-08-10 11:13:33	315.8
2017-08-10 11:14:13	315.9
2017-08-10 11:14:53	316.2
2017-08-10 11:15:33	316.1
2017-08-10 11:16:13	316.0
2017-08-10 11:16:43	316.1
2017-08-10 11:17:23	316.2
2017-08-10 11:17:53	316.3
2017-08-10 11:18:33	316.1
2017-08-10 11:19:13	316.2
2017-08-10 11:19:43	316.3
2017-08-10 11:20:03	316.1
2017-08-10 11:20:33	316.4
2017-08-10 11:21:13	316.4
2017-08-10 11:21:43	316.5
2017-08-10 11:22:03	316.2
2017-08-10 11:22:43	316.1
2017-08-10 11:23:23	316.3
2017-08-10 11:23:53	316.2
2017-08-10 11:24:13	316.5
2017-08-10 11:24:53	316.4
2017-08-10 11:25:33	316.5
2017-08-10 11:26:13	316.5
2017-08-10 11:26:53	316.4
2017-08-10 11:27:23	316.6
2017-08-10 11:28:03	316.8
2017-08-10 11:28:43	317.0
2017-08-10 11:29:13	316.7
2017-08-10 11:29:33	316.5
2017-08-10 11:30:13	316.6
2017-08-10 11:30:53	316.4
2017-08-10 11:31:33	316.5
2017-08-10 11:32:03	316.4
2017-08-10 11:32:33	316.6
2017-08-10 11:33:03	316.4
2017-08-10 11:33:23	316.1
2017-08-10 11:34:03	316.2
2017-08-10 11:34:33	316.1
2017-08-10 11:35:13	316.1
2017-08-10 11:35:43	315.9
2017-08-10 11:36:13	315.8
2017-08-10 11:36:53	315.7
2017-08-10 11:37:23	315.6
2017-08-10 11:38:03	315.6
2017-08-10 11:38:33	315.5
2017-08-10 11:38:53	315.7
2017-08-10 11:39:33	315.7
2017-08-10 11:40:03	315.7
2017-08-10 11:40:43	315.7
2017-08-10 11:41:23	316.0
2017-08-10 11:41:43	316.2
2017-08-10 11:42:33	316.3
2017-08-10 11:43:13	316.1
2017-08-10 11:43:43	316.3
2017-08-10 11:44:03	316.1
2017-08-10 11:44:33	316.3
2017-08-10 11:45:03	316.2
2017-08-10 11:45:33	316.2
2017-08-10 11:46:13	315.9
2017-08-10 11:46:43	316.0
2017-08-10 11:47:03	315.8
2017-08-10 11:47:33	315.9
2017-08-10 11:48:13	315.8
2017-08-10 11:48:43	315.7
2017-08-10 11:49:03	316.0
2017-08-10 11:49:23	316.2
2017-08-10 11:49:43	316.6
2017-08-10 11:50:03	316.9
2017-08-10 11:50:23	317.1
2017-08-10 11:50:53	317.1
2017-08-10 11:51:13	316.9
2017-08-10 11:51:33	316.6
2017-08-10 11:52:03	316.5
2017-08-10 11:52:33	316.4
2017-08-10 11:53:03	316.4
2017-08-10 11:53:33	316.6
2017-08-10 11:54:13	316.5
2017-08-10 11:54:53	316.6
2017-08-10 11:55:33	316.6
2017-08-10 11:56:13	316.4
2017-08-10 11:56:43	316.2
2017-08-10 11:57:23	316.3
2017-08-10 11:57:53	316.1
2017-08-10 11:58:13	316.4
2017-08-10 11:58:43	316.5
2017-08-10 11:59:23	316.4
2017-08-10 11:59:53	316.3
2017-08-10 12:00:13	316.1
2017-08-10 12:00:33	316.4
2017-08-10 12:01:03	316.4
2017-08-10 12:01:33	316.7
2017-08-10 12:02:13	316.7
2017-08-10 12:02:53	316.7
2017-08-10 12:03:23	316.4
2017-08-10 12:04:03	316.4
2017-08-10 12:04:23	316.0
2017-08-10 12:04:53	315.9
2017-08-10 12:05:23	316.0
2017-08-10 12:06:03	316.0
2017-08-10 12:06:33	315.9
2017-08-10 12:06:43	315.7
2017-08-10 12:07:23	315.7
2017-08-10 12:08:03	315.8
2017-08-10 12:08:33	315.9
2017-08-10 12:09:13	315.7
2017-08-10 12:09:33	315.5
2017-08-10 12:09:43	315.7
2017-08-10 12:10:33	315.6
2017-08-10 12:11:13	315.6
2017-08-10 12:11:43	315.6
2017-08-10 12:12:13	315.4
2017-08-10 12:12:43	315.6
2017-08-10 12:13:23	315.8
2017-08-10 12:14:03	315.9
2017-08-10 12:14:23	315.7
2017-08-10 12:14:43	315.9
2017-08-10 12:15:23	315.8
2017-08-10 12:16:03	315.8
2017-08-10 12:16:33	315.8
2017-08-10 12:17:13	315.6
2017-08-10 12:17:43	315.8
2017-08-10 12:18:13	315.8
2017-08-10 12:18:33	316.0
2017-08-10 12:19:03	316.2
2017-08-10 12:19:33	316.3
2017-08-10 12:20:03	316.1
2017-08-10 12:20:53	316.3
2017-08-10 12:21:43	316.3
2017-08-10 12:22:03	316.1
2017-08-10 12:22:43	316.0
2017-08-10 12:23:23	316.0
2017-08-10 12:23:43	316.3
2017-08-10 12:24:23	316.1
2017-08-10 12:24:53	316.3
2017-08-10 12:25:13	316.5
2017-08-10 12:25:53	316.4
2017-08-10 12:26:33	316.4
2017-08-10 12:27:03	316.5
2017-08-10 12:27:33	316.6
2017-08-10 12:28:13	316.8
2017-08-10 12:28:43	316.7
2017-08-10 12:29:13	316.4
2017-08-10 12:30:03	316.6
2017-08-10 12:30:23	316.9
2017-08-10 12:30:53	316.8
2017-08-10 12:31:33	316.6
2017-08-10 12:32:13	316.3
2017-08-10 12:32:33	316.1
2017-08-10 12:33:13	315.8
2017-08-10 12:33:43	315.8
2017-08-10 12:34:03	316.1
2017-08-10 12:34:33	316.0
2017-08-10 12:35:13	316.1
2017-08-10 12:35:33	316.4
2017-08-10 12:35:53	316.6
2017-08-10 12:36:13	316.8
2017-08-10 12:36:53	316.6
2017-08-10 12:37:03	316.4
2017-08-10 12:37:43	316.6
2017-08-10 12:38:03	316.3
2017-08-10 12:38:43	316.3
2017-08-10 12:39:13	316.4
2017-08-10 12:39:53	316.5
2017-08-10 12:40:13	316.3
2017-08-10 12:40:33	316.5
2017-08-10 12:41:23	316.7
2017-08-10 12:41:53	316.7
2017-08-10 12:42:33	316.5
2017-08-10 12:43:03	316.3
2017-08-10 12:43:33	316.4
2017-08-10 12:44:03	316.3
2017-08-10 12:44:43	316.5
2017-08-10 12:45:23	316.6
2017-08-10 12:45:53	316.6
2017-08-10 12:46:33	316.6
2017-08-10 12:47:03	316.7
2017-08-10 12:47:43	316.8
2017-08-10 12:48:13	316.7
2017-08-10 12:48:53	316.9
2017-08-10 12:49:33	316.8
2017-08-10 12:50:03	316.7
2017-08-10 12:50:33	316.9
2017-08-10 12:50:53	316.6
2017-08-10 12:51:33	316.5
2017-08-10 12:52:23	316.4
2017-08-10 12:52:53	316.4
2017-08-10 12:53:13	316.6
2017-08-10 12:53:53	316.6
2017-08-10 12:54:33	316.5
2017-08-10 12:55:13	316.5
2017-08-10 12:55:53	316.4
2017-08-10 12:56:33	316.5
2017-08-10 12:57:13	316.6
2017-08-10 12:57:33	316.8
2017-08-10 12:58:03	316.5
2017-08-10 12:58:33	316.3
2017-08-10 12:59:13	316.2
2017-08-10 12:59:33	316.4
2017-08-10 13:00:03	316.3
2017-08-10 13:00:53	316.3
2017-08-10 13:01:33	316.4
2017-08-10 13:02:03	316.4
2017-08-10 13:02:33	316.3
2017-08-10 13:03:13	316.2
2017-08-10 13:03:43	316.5
2017-08-10 13:04:13	316.3
2017-08-10 13:04:53	316.1
2017-08-10 13:05:23	316.3
2017-08-10 13:06:03	316.2
2017-08-10 13:06:43	316.2
2017-08-10 13:07:23	316.0
2017-08-10 13:08:03	316.2
2017-08-10 13:08:23	316.4
2017-08-10 13:08:53	316.6
2017-08-10 13:09:13	316.8
2017-08-10 13:09:43	316.8
2017-08-10 13:10:33	316.9
2017-08-10 13:11:13	316.9
2017-08-10 13:11:53	317.1
2017-08-10 13:12:33	317.0
2017-08-10 13:13:13	316.8
2017-08-10 13:13:53	316.8
2017-08-10 13:14:23	316.7
2017-08-10 13:14:53	316.5
2017-08-10 13:15:33	316.7
2017-08-10 13:16:13	316.6
2017-08-10 13:16:43	316.7
2017-08-10 13:17:23	316.6
2017-08-10 13:17:43	317.0
2017-08-10 13:18:23	316.9
2017-08-10 13:19:03	317.1
2017-08-10 13:19:43	317.1
2017-08-10 13:20:23	317.0
2017-08-10 13:20:53	316.9
2017-08-10 13:21:33	317.0
2017-08-10 13:22:03	317.0
2017-08-10 13:22:53	317.1
2017-08-10 13:23:23	317.0
2017-08-10 13:24:03	317.0
2017-08-10 13:24:23	316.8
2017-08-10 13:24:53	316.9
2017-08-10 13:25:33	317.2
2017-08-10 13:26:03	316.9
2017-08-10 13:26:43	316.8
2017-08-10 13:27:03	316.5
2017-08-10 13:27:43	316.3
2017-08-10 13:28:03	316.1
2017-08-10 13:28:43	316.0
2017-08-10 13:29:13	316.1
2017-08-10 13:29:53	316.2
2017-08-10 13:30:33	316.2
2017-08-10 13:31:03	316.1
2017-08-10 13:31:33	316.3
2017-08-10 13:31:53	316.6
2017-08-10 13:32:33	316.7
2017-08-10 13:33:13	316.6
2017-08-10 13:33:53	316.8
2017-08-10 13:34:33	316.6
2017-08-10 13:34:53	316.8
2017-08-10 13:35:33	316.8
2017-08-10 13:36:03	317.1
2017-08-10 13:36:33	317.2
2017-08-10 13:37:13	317.1
2017-08-10 13:37:43	317.1
2017-08-10 13:38:13	317.3
2017-08-10 13:38:43	317.5
2017-08-10 13:39:03	317.2
2017-08-10 13:39:33	317.1
2017-08-10 13:40:13	317.5
2017-08-10 13:40:43	317.5
2017-08-10 13:41:23	317.3
2017-08-10 13:41:53	316.9
2017-08-10 13:42:33	316.7
2017-08-10 13:42:53	316.9
2017-08-10 13:43:23	317.0
2017-08-10 13:43:53	316.9
2017-08-10 13:44:13	317.1
2017-08-10 13:44:43	317.0
2017-08-10 13:44:53	317.2
2017-08-10 13:45:23	317.2
2017-08-10 13:45:53	316.8
2017-08-10 13:46:33	316.6
2017-08-10 13:47:13	316.7
2017-08-10 13:47:53	316.5
2017-08-10 13:48:33	316.4
2017-08-10 13:49:03	316.6
2017-08-10 13:49:43	316.8
2017-08-10 13:50:13	316.8
2017-08-10 13:50:43	316.7
2017-08-10 13:51:13	316.8
2017-08-10 13:51:53	316.6
2017-08-10 13:52:23	316.6
2017-08-10 13:53:03	316.7
2017-08-10 13:53:43	316.8
2017-08-10 13:54:23	316.9
2017-08-10 13:55:03	316.9
2017-08-10 13:55:13	317.1
2017-08-10 13:55:33	316.9
2017-08-10 13:56:03	317.0
2017-08-10 13:56:33	316.8
2017-08-10 13:56:53	316.6
2017-08-10 13:57:23	316.6
2017-08-10 13:58:03	316.8
2017-08-10 13:58:33	316.9
2017-08-10 13:59:03	317.0
2017-08-10 13:59:33	316.8
2017-08-10 14:00:03	316.8
2017-08-10 14:01:03	317.0
2017-08-10 14:01:43	316.9
2017-08-10 14:02:23	317.1
2017-08-10 14:03:03	317.0
2017-08-10 14:03:43	317.2
2017-08-10 14:04:23	317.1
2017-08-10 14:04:43	316.9
2017-08-10 14:05:13	317.1
2017-08-10 14:05:53	317.1
2017-08-10 14:06:33	317.1
2017-08-10 14:07:03	317.1
2017-08-10 14:07:33	316.9
2017-08-10 14:08:03	316.7
2017-08-10 14:08:33	316.7
2017-08-10 14:09:13	316.6
2017-08-10 14:09:53	316.8
2017-08-10 14:10:23	317.0
2017-08-10 14:10:53	317.1
2017-08-10 14:11:33	316.8
2017-08-10 14:12:13	316.8
2017-08-10 14:12:43	316.7
2017-08-10 14:13:13	316.9
2017-08-10 14:13:53	317.0
2017-08-10 14:14:33	316.9
2017-08-10 14:14:43	317.1
2017-08-10 14:15:03	317.4
2017-08-10 14:15:43	317.3
2017-08-10 14:16:03	317.1
2017-08-10 14:16:33	317.0
2017-08-10 14:17:13	316.9
2017-08-10 14:17:53	316.8
2017-08-10 14:18:23	316.7
2017-08-10 14:19:03	316.8
2017-08-10 14:19:23	317.1
2017-08-10 14:20:03	317.0
2017-08-10 14:20:23	317.3
2017-08-10 14:20:53	317.1
2017-08-10 14:21:03	316.9
2017-08-10 14:21:23	316.7
2017-08-10 14:22:03	316.7
2017-08-10 14:22:13	317.0
2017-08-10 14:23:03	317.0
2017-08-10 14:23:43	316.8
2017-08-10 14:24:13	316.5
2017-08-10 14:24:43	316.4
2017-08-10 14:25:23	316.4
2017-08-10 14:25:53	316.5
2017-08-10 14:26:13	316.8
2017-08-10 14:26:33	317.1
2017-08-10 14:27:03	317.3
2017-08-10 14:27:43	317.3
2017-08-10 14:28:13	317.4
2017-08-10 14:28:53	317.5
2017-08-10 14:29:33	317.5
2017-08-10 14:30:23	317.5
2017-08-10 14:30:53	317.9
2017-08-10 14:31:23	317.6
2017-08-10 14:31:53	317.5
2017-08-10 14:32:33	317.5
2017-08-10 14:33:13	317.6
2017-08-10 14:33:43	317.8
2017-08-10 14:34:23	317.5
2017-08-10 14:34:53	317.5
2017-08-10 14:35:33	317.4
2017-08-10 14:36:03	317.2
2017-08-10 14:36:43	317.5
2017-08-10 14:37:23	317.6
2017-08-10 14:37:53	317.8
2017-08-10 14:38:33	318.0
2017-08-10 14:39:03	317.8
2017-08-10 14:39:33	317.7
2017-08-10 14:40:13	317.5
2017-08-10 14:40:43	317.3
2017-08-10 14:41:13	317.3
2017-08-10 14:41:33	317.0
2017-08-10 14:42:13	317.0
2017-08-10 14:42:43	317.1
2017-08-10 14:43:23	317.2
2017-08-10 14:44:03	317.2
2017-08-10 14:44:13	317.4
2017-08-10 14:44:43	317.4
2017-08-10 14:45:03	317.1
2017-08-10 14:45:53	316.8
2017-08-10 14:46:33	316.9
2017-08-10 14:47:13	317.1
2017-08-10 14:47:33	316.8
2017-08-10 14:48:13	316.7
2017-08-10 14:48:43	316.6
2017-08-10 14:49:23	316.9
2017-08-10 14:50:03	317.1
2017-08-10 14:50:33	317.2
2017-08-10 14:51:03	316.9
2017-08-10 14:51:33	316.7
2017-08-10 14:52:13	316.5
2017-08-10 14:52:53	316.6
2017-08-10 14:53:43	316.5
2017-08-10 14:54:03	316.2
2017-08-10 14:54:33	315.9
2017-08-10 14:55:03	315.9
2017-08-10 14:55:43	315.8
2017-08-10 14:56:23	316.0
2017-08-10 14:57:03	315.9
2017-08-10 14:57:43	315.9
2017-08-10 14:58:13	316.3
2017-08-10 14:58:53	316.4
2017-08-10 14:59:23	316.6
2017-08-10 14:59:43	316.3
2017-08-10 15:00:23	316.4
2017-08-10 15:00:43	316.7
2017-08-10 15:01:33	316.5
2017-08-10 15:02:13	316.6
2017-08-10 15:02:53	316.5
2017-08-10 15:03:23	316.5
2017-08-10 15:03:53	316.5
2017-08-10 15:04:23	316.4
2017-08-10 15:05:03	316.4
2017-08-10 15:05:43	316.5
2017-08-10 15:05:53	316.7
2017-08-10 15:06:33	317.0
2017-08-10 15:07:03	317.1
2017-08-10 15:07:43	316.8
2017-08-10 15:08:23	317.1
2017-08-10 15:08:43	316.9
2017-08-10 15:09:03	316.6
2017-08-10 15:09:43	316.6
2017-08-10 15:10:23	316.5
2017-08-10 15:11:03	316.5
2017-08-10 15:11:43	316.6
2017-08-10 15:12:33	316.7
2017-08-10 15:13:13	316.7
2017-08-10 15:13:53	316.7
2017-08-10 15:14:13	316.9
2017-08-10 15:14:33	317.2
2017-08-10 15:15:03	317.1
2017-08-10 15:15:53	317.1
2017-08-10 15:16:33	317.1
2017-08-10 15:17:03	316.9
2017-08-10 15:17:23	316.7
2017-08-10 15:18:03	316.6
2017-08-10 15:18:33	316.9
2017-08-10 15:19:13	316.8
2017-08-10 15:20:03	316.8
2017-08-10 15:20:33	317.0
2017-08-10 15:21:03	317.2
2017-08-10 15:21:33	317.5
2017-08-10 15:22:03	317.2
2017-08-10 15:22:33	317.1
2017-08-10 15:22:43	317.4
2017-08-10 15:23:13	317.3
2017-08-10 15:23:53	317.4
2017-08-10 15:24:33	317.2
2017-08-10 15:24:43	317.0
2017-08-10 15:25:23	316.9
2017-08-10 15:25:53	316.9
2017-08-10 15:26:13	317.1
2017-08-10 15:26:53	317.4
2017-08-10 15:27:33	317.3
2017-08-10 15:28:13	317.3
2017-08-10 15:28:43	317.3
2017-08-10 15:29:23	317.2
2017-08-10 15:30:03	317.3
2017-08-10 15:30:23	317.7
2017-08-10 15:31:03	317.5
2017-08-10 15:31:23	317.3
2017-08-10 15:31:53	317.0
2017-08-10 15:32:23	316.8
2017-08-10 15:32:53	316.9
2017-08-10 15:33:43	316.9
2017-08-10 15:34:23	317.0
2017-08-10 15:35:03	317.2
2017-08-10 15:35:43	317.3
2017-08-10 15:36:13	317.4
2017-08-10 15:36:53	317.4
2017-08-10 15:37:13	317.1
2017-08-10 15:37:43	317.0
2017-08-10 15:38:13	317.2
2017-08-10 15:38:33	316.9
2017-08-10 15:39:03	316.7
2017-08-10 15:39:43	316.8
2017-08-10 15:40:23	316.8
2017-08-10 15:41:03	316.8
2017-08-10 15:41:43	316.9
2017-08-10 15:42:13	316.7
2017-08-10 15:42:53	316.9
2017-08-10 15:43:43	316.9
2017-08-10 15:44:23	317.1
2017-08-10 15:44:53	317.0
2017-08-10 15:45:33	317.0
2017-08-10 15:46:03	317.0
2017-08-10 15:46:43	317.2
2017-08-10 15:46:53	317.4
2017-08-10 15:47:23	317.2
2017-08-10 15:48:03	317.4
2017-08-10 15:48:43	317.1
2017-08-10 15:49:03	316.9
2017-08-10 15:49:33	316.9
2017-08-10 15:50:13	316.6
2017-08-10 15:50:43	316.7
2017-08-10 15:51:03	316.5
2017-08-10 15:51:33	316.5
2017-08-10 15:52:13	316.4
2017-08-10 15:52:43	316.4
2017-08-10 15:53:13	316.6
2017-08-10 15:53:43	316.8
2017-08-10 15:54:23	317.0
2017-08-10 15:55:03	317.2
2017-08-10 15:55:43	316.8
2017-08-10 15:56:23	316.9
2017-08-10 15:56:53	316.6
2017-08-10 15:57:43	316.8
2017-08-10 15:58:23	316.6
2017-08-10 15:58:53	316.6
2017-08-10 15:59:33	316.6
2017-08-10 16:00:03	316.6
2017-08-10 16:00:43	316.5
2017-08-10 16:01:13	316.6
2017-08-10 16:01:33	316.8
2017-08-10 16:02:13	316.7
2017-08-10 16:02:53	316.5
2017-08-10 16:03:33	316.7
2017-08-10 16:03:53	317.1
2017-08-10 16:04:23	317.2
2017-08-10 16:05:03	317.0
2017-08-10 16:05:33	316.7
2017-08-10 16:06:03	316.5
2017-08-10 16:06:43	316.8
2017-08-10 16:07:23	316.8
2017-08-10 16:07:53	316.6
2017-08-10 16:08:33	316.6
2017-08-10 16:09:13	316.5
2017-08-10 16:09:53	316.7
2017-08-10 16:10:23	316.9
2017-08-10 16:10:53	317.1
2017-08-10 16:11:33	317.1
2017-08-10 16:11:53	317.3
2017-08-10 16:12:23	317.5
2017-08-10 16:12:53	317.4
2017-08-10 16:13:33	317.3
2017-08-10 16:14:13	317.1
2017-08-10 16:14:23	316.9
2017-08-10 16:14:53	316.6
2017-08-10 16:15:33	316.3
2017-08-10 16:16:13	316.4
2017-08-10 16:16:53	316.4
2017-08-10 16:17:23	316.4
2017-08-10 16:18:13	316.1
2017-08-10 16:18:43	316.1
2017-08-10 16:19:23	315.9
2017-08-10 16:19:53	315.8
2017-08-10 16:20:33	315.9
2017-08-10 16:21:13	316.0
2017-08-10 16:21:43	316.1
2017-08-10 16:22:13	316.5
2017-08-10 16:22:53	316.5
2017-08-10 16:23:23	316.7
2017-08-10 16:24:03	316.9
2017-08-10 16:24:43	316.9
2017-08-10 16:25:23	316.9
2017-08-10 16:25:53	316.6
2017-08-10 16:26:13	316.8
2017-08-10 16:26:43	316.8
2017-08-10 16:27:23	316.8
2017-08-10 16:28:03	316.8
2017-08-10 16:28:33	316.7
2017-08-10 16:29:13	316.7
2017-08-10 16:29:53	316.7
2017-08-10 16:30:13	316.9
2017-08-10 16:30:53	316.9
2017-08-10 16:31:23	317.1
2017-08-10 16:31:53	317.3
2017-08-10 16:32:23	317.3
2017-08-10 16:33:03	317.4
2017-08-10 16:33:33	317.5
2017-08-10 16:34:03	317.6
2017-08-10 16:34:43	317.4
2017-08-10 16:35:23	317.2
2017-08-10 16:36:03	317.1
2017-08-10 16:36:43	317.1
2017-08-10 16:37:23	316.9
2017-08-10 16:38:03	316.5
2017-08-10 16:38:43	316.6
2017-08-10 16:39:13	316.6
2017-08-10 16:39:53	316.4
2017-08-10 16:40:23	316.4
2017-08-10 16:41:13	316.5
2017-08-10 16:41:43	316.3
2017-08-10 16:42:13	316.3
2017-08-10 16:42:53	316.2
2017-08-10 16:43:33	316.4
2017-08-10 16:44:03	316.6
2017-08-10 16:44:33	316.9
2017-08-10 16:45:03	316.9
2017-08-10 16:45:33	317.1
2017-08-10 16:46:03	317.0
2017-08-10 16:46:43	317.0
2017-08-10 16:47:03	317.3
2017-08-10 16:47:33	317.2
2017-08-10 16:48:03	317.2
2017-08-10 16:48:43	317.1
2017-08-10 16:49:03	317.3
2017-08-10 16:49:33	317.1
2017-08-10 16:49:53	316.8
2017-08-10 16:50:23	316.6
2017-08-10 16:51:03	316.6
2017-08-10 16:51:23	316.9
2017-08-10 16:52:03	316.9
2017-08-10 16:52:23	316.6
2017-08-10 16:52:53	316.8
2017-08-10 16:53:23	316.5
2017-08-10 16:54:03	316.7
2017-08-10 16:54:23	317.0
2017-08-10 16:55:03	317.1
2017-08-10 16:55:23	316.9
2017-08-10 16:55:43	317.2
2017-08-10 16:56:13	317.3
2017-08-10 16:56:53	317.3
2017-08-10 16:57:33	317.5
2017-08-10 16:58:23	317.5
2017-08-10 16:58:53	317.6
2017-08-10 16:59:33	317.4
2017-08-10 16:59:53	317.1
2017-08-10 17:00:33	317.4
2017-08-10 17:00:53	317.1
2017-08-10 17:01:23	316.9
2017-08-10 17:01:53	316.9
2017-08-10 17:02:33	316.9
2017-08-10 17:03:13	316.9
2017-08-10 17:03:53	317.0
2017-08-10 17:04:33	317.1
2017-08-10 17:05:13	317.2
2017-08-10 17:05:53	316.9
2017-08-10 17:06:13	316.6
2017-08-10 17:06:53	316.5
2017-08-10 17:07:33	316.8
2017-08-10 17:08:03	316.7
2017-08-10 17:08:23	316.4
2017-08-10 17:09:03	316.3
2017-08-10 17:09:43	316.3
2017-08-10 17:10:13	316.3
2017-08-10 17:10:43	316.0
2017-08-10 17:11:03	315.8
2017-08-10 17:11:33	315.5
2017-08-10 17:12:03	315.7
2017-08-10 17:12:13	315.9
2017-08-10 17:12:33	316.1
2017-08-10 17:13:03	316.1
2017-08-10 17:13:23	316.3
2017-08-10 17:13:53	316.6
2017-08-10 17:14:33	316.3
2017-08-10 17:15:03	316.4
2017-08-10 17:15:33	316.3
2017-08-10 17:16:03	316.5
2017-08-10 17:16:33	316.7
2017-08-10 17:17:13	316.7
2017-08-10 17:17:53	316.5
2017-08-10 17:18:33	316.4
2017-08-10 17:19:13	316.5
2017-08-10 17:19:53	316.8
2017-08-10 17:20:23	316.8
2017-08-10 17:21:03	316.8
2017-08-10 17:21:43	316.5
2017-08-10 17:22:03	316.3
2017-08-10 17:22:43	316.4
2017-08-10 17:22:53	316.6
2017-08-10 17:23:33	316.6
2017-08-10 17:24:13	316.5
2017-08-10 17:24:43	316.5
2017-08-10 17:25:13	316.5
2017-08-10 17:25:53	316.6
2017-08-10 17:26:43	316.8
2017-08-10 17:27:23	316.7
2017-08-10 17:28:03	316.6
2017-08-10 17:28:43	316.8
2017-08-10 17:29:13	316.8
2017-08-10 17:29:43	316.6
2017-08-10 17:30:13	316.6
2017-08-10 17:30:53	316.4
2017-08-10 17:31:33	316.4
2017-08-10 17:32:23	316.5
2017-08-10 17:32:53	316.3
2017-08-10 17:33:33	316.1
2017-08-10 17:34:03	316.4
2017-08-10 17:34:43	316.4
2017-08-10 17:35:03	316.1
2017-08-10 17:35:43	316.1
2017-08-10 17:36:03	316.5
2017-08-10 17:36:33	316.5
2017-08-10 17:37:03	316.3
2017-08-10 17:37:43	316.3
2017-08-10 17:38:03	316.0
2017-08-10 17:38:43	316.1
2017-08-10 17:39:23	315.9
2017-08-10 17:40:03	316.2
2017-08-10 17:40:33	316.2
2017-08-10 17:41:03	316.5
2017-08-10 17:41:23	316.8
2017-08-10 17:42:03	316.9
2017-08-10 17:42:33	316.7
2017-08-10 17:43:13	316.6
2017-08-10 17:43:33	316.4
2017-08-10 17:44:03	316.5
2017-08-10 17:44:13	316.8
2017-08-10 17:44:23	317.0
2017-08-10 17:45:03	317.0
2017-08-10 17:45:33	316.9
2017-08-10 17:46:13	316.9
2017-08-10 17:46:53	317.1
2017-08-10 17:47:33	317.2
2017-08-10 17:48:13	317.2
2017-08-10 17:48:33	316.8
2017-08-10 17:49:13	316.9
2017-08-10 17:49:53	317.0
2017-08-10 17:50:33	317.0
2017-08-10 17:51:03	317.3
2017-08-10 17:51:43	317.2
2017-08-10 17:52:23	317.3
2017-08-10 17:52:53	317.0
2017-08-10 17:53:23	317.1
2017-08-10 17:53:53	316.8
2017-08-10 17:54:23	316.7
2017-08-10 17:54:53	316.9
2017-08-10 17:55:33	316.8
2017-08-10 17:56:03	316.9
2017-08-10 17:56:43	316.8
2017-08-10 17:57:23	316.8
2017-08-10 17:58:13	316.6
2017-08-10 17:58:33	316.9
2017-08-10 17:58:53	317.2
2017-08-10 17:59:23	317.1
2017-08-10 17:59:53	316.8
2017-08-10 18:00:33	316.9
2017-08-10 18:01:13	317.2
2017-08-10 18:01:53	317.2
2017-08-10 18:02:23	317.2
2017-08-10 18:03:03	317.0
2017-08-10 18:03:43	316.8
2017-08-10 18:04:03	317.2
2017-08-10 18:04:33	317.1
2017-08-10 18:05:13	317.1
2017-08-10 18:05:43	317.1
2017-08-10 18:06:23	317.0
2017-08-10 18:06:53	317.2
2017-08-10 18:07:13	316.8
2017-08-10 18:07:43	316.7
2017-08-10 18:08:23	316.6
2017-08-10 18:09:13	316.6
2017-08-10 18:09:43	316.5
2017-08-10 18:10:13	316.8
2017-08-10 18:10:43	317.0
2017-08-10 18:11:33	316.8
2017-08-10 18:12:03	316.8
2017-08-10 18:12:33	316.9
2017-08-10 18:12:53	316.7
2017-08-10 18:13:33	316.5
2017-08-10 18:14:03	316.7
2017-08-10 18:14:33	316.9
2017-08-10 18:15:13	316.8
2017-08-10 18:15:53	316.7
