part                                      alias                                                                             name                                      probe  fsm_part           halfshell        
----------------------------------------  --------------------------------------------------------------------------------  ----------------------------------------  -----  -----------------  -----------------
PixelEndcap_BpI_CL1_M-Outflow             CMS_TRACKER_PLCS/Pixel/PixelEndCap_BpI|1/PixelEndcap_BpI_CL1_M-Outflow            PixelEndcap BpI DCDC 3A                   TAir   PixelEndCap_BpI    PixelEndCap_BpI|1
PixelEndcap_BpI_CL1_M-Inflow              CMS_TRACKER_PLCS/Pixel/PixelEndCap_BpI|1/PixelEndcap_BpI_CL1_M-Inflow             PixelEndcap BpI DCDC 3B                   TAir   PixelEndCap_BpI    PixelEndCap_BpI|1
PixelEndcap_BpI_D2_CL1_Outflow            CMS_TRACKER_PLCS/Pixel/PixelEndCap_BpI|1/PixelEndcap_BpI_D2_CL1_Outflow           PixelEndcap BpI Disk 3O                   TSil   PixelEndCap_BpI    PixelEndCap_BpI  
PixelEndcap_BpI_D2_CL1_Inflow             CMS_TRACKER_PLCS/Pixel/PixelEndCap_BpI|1/PixelEndcap_BpI_D2_CL1_Inflow            PixelEndcap BpI Disk 3I                   TSil   PixelEndCap_BpI    PixelEndCap_BpI  
PixelEndcap_BpI_D1_CL1_Outflow            CMS_TRACKER_PLCS/Pixel/PixelEndCap_BpI|1/PixelEndcap_BpI_D1_CL1_Outflow           PixelEndcap BpI Disk 2O                   TSil   PixelEndCap_BpI    PixelEndCap_BpI  
PixelEndcap_BpI_D1_CL1_Inflow             CMS_TRACKER_PLCS/Pixel/PixelEndCap_BpI|1/PixelEndcap_BpI_D1_CL1_Inflow            PixelEndcap BpI Disk 2I                   TSil   PixelEndCap_BpI    PixelEndCap_BpI  
PixelEndcap_BpI_D1_ROG4_BLD12_PNL1        CMS_TRACKER_PLCS/Pixel/PixelEndCap_BpI/PixelEndcap_BpI_D1_ROG4_BLD12_PNL1         PixelEndcap BpI DCDC 3C                   TAir   PixelEndCap_BpI    PixelEndCap_BpI|1
PixelEndcap_BpI_D1_ROG4_BLD12_PNL2        CMS_TRACKER_PLCS/Pixel/PixelEndCap_BpI/PixelEndcap_BpI_D1_ROG4_BLD12_PNL2         PixelEndcap BpI DCDC 3D                   TAir   PixelEndCap_BpI    PixelEndCap_BpI|1
PixelEndcap_BpI_D2_ROG4_BLD12_PNL2        CMS_TRACKER_PLCS/Pixel/PixelEndCap_BpI/PixelEndcap_BpI_D2_ROG4_BLD12_PNL2         PixelEndcap BpI 1I_SF                     TLiq   PixelEndCap_BpI    PixelEndCap_BpI  
PixelEndcap_BpI_CL2_M-Inflow              CMS_TRACKER_PLCS/Pixel/PixelEndCap_BpI|1/PixelEndcap_BpI_CL2_M-Inflow             PixelEndcap BpO DCDC 3A                   TAir   PixelEndCap_BpO    PixelEndCap_BpO|1
PixelEndcap_BpI_CL2_M-Outflow             CMS_TRACKER_PLCS/Pixel/PixelEndCap_BpI|1/PixelEndcap_BpI_CL2_M-Outflow            PixelEndcap BpO DCDC 3B                   TAir   PixelEndCap_BpO    PixelEndCap_BpO|1
PixelEndcap_BpI_D2_CL2_Inflow             CMS_TRACKER_PLCS/Pixel/PixelEndCap_BpI|1/PixelEndcap_BpI_D2_CL2_Inflow            PixelEndcap BpO Disk 3O                   TSil   PixelEndCap_BpO    PixelEndCap_BpO  
PixelEndcap_BpI_D2_CL2_Outflow            CMS_TRACKER_PLCS/Pixel/PixelEndCap_BpI|1/PixelEndcap_BpI_D2_CL2_Outflow           PixelEndcap BpO Disk 3I                   TSil   PixelEndCap_BpO    PixelEndCap_BpO  
PixelEndcap_BpI_D1_CL2_Inflow             CMS_TRACKER_PLCS/Pixel/PixelEndCap_BpI|1/PixelEndcap_BpI_D1_CL2_Inflow            PixelEndcap BpO Disk 2O                   TSil   PixelEndCap_BpO    PixelEndCap_BpO  
PixelEndcap_BpI_D1_CL2_Outflow            CMS_TRACKER_PLCS/Pixel/PixelEndCap_BpI|1/PixelEndcap_BpI_D1_CL2_Outflow           PixelEndcap BpO Disk 2I                   TSil   PixelEndCap_BpO    PixelEndCap_BpO  
PixelEndcap_BpI_CarbonFiberShell          CMS_TRACKER_PLCS/Pixel/PixelEndCap_BpI/PixelEndcap_BpI_CarbonFiberShell           PixelEndcap BpO Disk 1O                   TSil   PixelEndCap_BpO    PixelEndCap_BpO  
PixelEndcap_BpI_D1_ROG2_BLD6_PNL1         CMS_TRACKER_PLCS/Pixel/PixelEndCap_BpI/PixelEndcap_BpI_D1_ROG2_BLD6_PNL1          PixelEndcap BpO DCDC 3C                   TAir   PixelEndCap_BpO    PixelEndCap_BpO|1
PixelEndcap_BpI_D1_ROG2_BLD6_PNL2         CMS_TRACKER_PLCS/Pixel/PixelEndCap_BpI/PixelEndcap_BpI_D1_ROG2_BLD6_PNL2          PixelEndcap BpO DCDC 3D                   TAir   PixelEndCap_BpO    PixelEndCap_BpO|1
PixelEndcap_BpO_CL1_M-Outflow             CMS_TRACKER_PLCS/Pixel/PixelEndCap_BpO|1/PixelEndcap_BpO_CL1_M-Outflow            PixelEndcap BmI DCDC 3A                   TAir   PixelEndCap_BmI    PixelEndCap_BmI|1
PixelEndcap_BpO_CL1_M-Inflow              CMS_TRACKER_PLCS/Pixel/PixelEndCap_BpO|1/PixelEndcap_BpO_CL1_M-Inflow             PixelEndcap BmI DCDC 3B                   TAir   PixelEndCap_BmI    PixelEndCap_BmI|1
PixelEndcap_BpO_D2_CL1_Inflow             CMS_TRACKER_PLCS/Pixel/PixelEndCap_BpO|1/PixelEndcap_BpO_D2_CL1_Inflow            PixelEndcap BmI Disk 3I                   TSil   PixelEndCap_BmI    PixelEndCap_BmI  
PixelEndcap_BpO_D1_CL1_Outflow            CMS_TRACKER_PLCS/Pixel/PixelEndCap_BpO|1/PixelEndcap_BpO_D1_CL1_Outflow           PixelEndcap BmI Disk 2O                   TSil   PixelEndCap_BmI    PixelEndCap_BmI  
PixelEndcap_BpO_D1_CL1_Inflow             CMS_TRACKER_PLCS/Pixel/PixelEndCap_BpO|1/PixelEndcap_BpO_D1_CL1_Inflow            PixelEndcap BmI Disk 2I                   TSil   PixelEndCap_BmI    PixelEndCap_BmI  
PixelEndcap_BpO_CarbonFiberShell          CMS_TRACKER_PLCS/Pixel/PixelEndCap_BpO/PixelEndcap_BpO_CarbonFiberShell           PixelEndcap BmI Disk 1O                   TSil   PixelEndCap_BmI    PixelEndCap_BmI  
PixelEndcap_BpO_D1_ROG2_BLD6_PNL1         CMS_TRACKER_PLCS/Pixel/PixelEndCap_BpO/PixelEndcap_BpO_D1_ROG2_BLD6_PNL1          PixelEndcap BmI DCDC 3C                   TAir   PixelEndCap_BmI    PixelEndCap_BmI|1
PixelEndcap_BpO_D1_ROG2_BLD6_PNL2         CMS_TRACKER_PLCS/Pixel/PixelEndCap_BpO/PixelEndcap_BpO_D1_ROG2_BLD6_PNL2          PixelEndcap BmI DCDC 3D                   TAir   PixelEndCap_BmI    PixelEndCap_BmI|1
PixelEndcap_BpO_CL2_M-Inflow              CMS_TRACKER_PLCS/Pixel/PixelEndCap_BpO|1/PixelEndcap_BpO_CL2_M-Inflow             PixelEndcap BmO DCDC 3A                   TAir   PixelEndCap_BmO    PixelEndCap_BmO|1
PixelEndcap_BpO_CL2_M-Outflow             CMS_TRACKER_PLCS/Pixel/PixelEndCap_BpO|1/PixelEndcap_BpO_CL2_M-Outflow            PixelEndcap BmO DCDC 3B                   TAir   PixelEndCap_BmO    PixelEndCap_BmO|1
PixelEndcap_BpO_D2_CL2_Inflow             CMS_TRACKER_PLCS/Pixel/PixelEndCap_BpO|1/PixelEndcap_BpO_D2_CL2_Inflow            PixelEndcap BmO Disk 3O                   TSil   PixelEndCap_BmO    PixelEndCap_BmO  
PixelEndcap_BpO_D2_CL2_Outflow            CMS_TRACKER_PLCS/Pixel/PixelEndCap_BpO|1/PixelEndcap_BpO_D2_CL2_Outflow           PixelEndcap BmO Disk 3I                   TSil   PixelEndCap_BmO    PixelEndCap_BmO  
PixelEndcap_BpO_D1_CL2_Inflow             CMS_TRACKER_PLCS/Pixel/PixelEndCap_BpO|1/PixelEndcap_BpO_D1_CL2_Inflow            PixelEndcap BmO Disk 2O                   TSil   PixelEndCap_BmO    PixelEndCap_BmO  
PixelEndcap_BpO_D1_CL2_Outflow            CMS_TRACKER_PLCS/Pixel/PixelEndCap_BpO|1/PixelEndcap_BpO_D1_CL2_Outflow           PixelEndcap BmO Disk 2I                   TSil   PixelEndCap_BmO    PixelEndCap_BmO  
PixelEndcap_BpO_Air                       CMS_TRACKER_PLCS/Pixel/PixelEndCap_BpO/PixelEndcap_BpO_Air                        PixelEndcap BmO Disk 1O                   TSil   PixelEndCap_BmO    PixelEndCap_BmO  
PixelEndcap_BpO_D1_ROG4_BLD12_PNL1        CMS_TRACKER_PLCS/Pixel/PixelEndCap_BpO/PixelEndcap_BpO_D1_ROG4_BLD12_PNL1         PixelEndcap BmO DCDC 3C                   TAir   PixelEndCap_BmO    PixelEndCap_BmO|1
PixelEndcap_BpO_D1_ROG4_BLD12_PNL2        CMS_TRACKER_PLCS/Pixel/PixelEndCap_BpO/PixelEndcap_BpO_D1_ROG4_BLD12_PNL2         PixelEndcap BmO DCDC 3D                   TAir   PixelEndCap_BmO    PixelEndCap_BmO|1
PixelEndcap_BpO_D2_ROG4_BLD12_PNL2        CMS_TRACKER_PLCS/Pixel/PixelEndCap_BpO/PixelEndcap_BpO_D2_ROG4_BLD12_PNL2         PixelEndcap BmO 1I_SF                     TLiq   PixelEndCap_BmO    PixelEndCap_BmO  
PixelEndcap_BmI_CL1_M-Inflow              CMS_TRACKER_PLCS/Pixel/PixelEndCap_BmI|1/PixelEndcap_BmI_CL1_M-Inflow             PixelEndcap BpI PC 1A                     TAir   PixelEndCap_BpI    PixelEndCap_BpI  
PixelEndcap_BmI_CL1_M-Outflow             CMS_TRACKER_PLCS/Pixel/PixelEndCap_BmI|1/PixelEndcap_BmI_CL1_M-Outflow            PixelEndcap BpI PC 1B                     TAir   PixelEndCap_BpI    PixelEndCap_BpI|1
PixelEndcap_BmI_D2_CL1_Inflow             CMS_TRACKER_PLCS/Pixel/PixelEndCap_BmI|1/PixelEndcap_BmI_D2_CL1_Inflow            PixelEndcap BpI PC 1C                     TAir   PixelEndCap_BpI    PixelEndCap_BpI|1
PixelEndcap_BmI_D2_CL1_Outflow            CMS_TRACKER_PLCS/Pixel/PixelEndCap_BmI|1/PixelEndcap_BmI_D2_CL1_Outflow           PixelEndcap BpI PC 1D                     TAir   PixelEndCap_BpI    PixelEndCap_BpI|1
PixelEndcap_BmI_D1_CL1_Inflow             CMS_TRACKER_PLCS/Pixel/PixelEndCap_BmI|1/PixelEndcap_BmI_D1_CL1_Inflow            PixelEndcap BpI PC 2A                     TAir   PixelEndCap_BpI    PixelEndCap_BpI|1
PixelEndcap_BmI_D1_CL1_Outflow            CMS_TRACKER_PLCS/Pixel/PixelEndCap_BmI|1/PixelEndcap_BmI_D1_CL1_Outflow           PixelEndcap BpI PC 2B                     TAir   PixelEndCap_BpI    PixelEndCap_BpI|1
PixelEndcap_BmI_CarbonFiberShell          CMS_TRACKER_PLCS/Pixel/PixelEndCap_BmI/PixelEndcap_BmI_CarbonFiberShell           PixelEndcap BpI PC 2C                     TAir   PixelEndCap_BpI    PixelEndCap_BpI|1
PixelEndcap_BmI_D1_ROG2_BLD6_PNL1         CMS_TRACKER_PLCS/Pixel/PixelEndCap_BmI/PixelEndcap_BmI_D1_ROG2_BLD6_PNL1          PixelEndcap BpI PC 3A                     TAir   PixelEndCap_BpI    PixelEndCap_BpI|1
PixelEndcap_BmI_D1_ROG2_BLD6_PNL2         CMS_TRACKER_PLCS/Pixel/PixelEndCap_BmI/PixelEndcap_BmI_D1_ROG2_BLD6_PNL2          PixelEndcap BpI PC 3B                     TAir   PixelEndCap_BpI    PixelEndCap_BpI|1
PixelEndcap_BmI_D1_ROG1_BLD1_PNL1         CMS_TRACKER_PLCS/Pixel/PixelEndCap_BmI/PixelEndcap_BmI_D1_ROG1_BLD1_PNL1          PixelEndcap BpI PC 3C                     TAir   PixelEndCap_BpI    PixelEndCap_BpI|1
PixelEndcap_BmI_D1_ROG1_BLD1_PNL2         CMS_TRACKER_PLCS/Pixel/PixelEndCap_BmI/PixelEndcap_BmI_D1_ROG1_BLD1_PNL2          PixelEndcap BpI PC 3D                     TAir   PixelEndCap_BpI    PixelEndCap_BpI|1
PixelEndcap_BmI_D2_ROG2_BLD6_PNL1         CMS_TRACKER_PLCS/Pixel/PixelEndCap_BmI/PixelEndcap_BmI_D2_ROG2_BLD6_PNL1          PixelEndcap BpI Air                       TAir   PixelEndCap_BpI    PixelEndCap_BpI|1
PixelEndcap_BmI_CL2_M-Outflow             CMS_TRACKER_PLCS/Pixel/PixelEndCap_BmI|1/PixelEndcap_BmI_CL2_M-Outflow            PixelEndcap BpO PC 1A                     TAir   PixelEndCap_BpO    PixelEndCap_BpO|1
PixelEndcap_BmI_CL2_M-Inflow              CMS_TRACKER_PLCS/Pixel/PixelEndCap_BmI|1/PixelEndcap_BmI_CL2_M-Inflow             PixelEndcap BpO PC 1B                     TAir   PixelEndCap_BpO    PixelEndCap_BpO|1
PixelEndcap_BmI_D2_CL2_Outflow            CMS_TRACKER_PLCS/Pixel/PixelEndCap_BmI|1/PixelEndcap_BmI_D2_CL2_Outflow           PixelEndcap BpO PC 1C                     TAir   PixelEndCap_BpO    PixelEndCap_BpO|1
PixelEndcap_BmI_D2_CL2_Inflow             CMS_TRACKER_PLCS/Pixel/PixelEndCap_BmI|1/PixelEndcap_BmI_D2_CL2_Inflow            PixelEndcap BpO PC 1D                     TAir   PixelEndCap_BpO    PixelEndCap_BpO|1
PixelEndcap_BmI_D1_CL2_Outflow            CMS_TRACKER_PLCS/Pixel/PixelEndCap_BmI|1/PixelEndcap_BmI_D1_CL2_Outflow           PixelEndcap BpO PC 2A                     TAir   PixelEndCap_BpO    PixelEndCap_BpO|1
PixelEndcap_BmI_D1_CL2_Inflow             CMS_TRACKER_PLCS/Pixel/PixelEndCap_BmI|1/PixelEndcap_BmI_D1_CL2_Inflow            PixelEndcap BpO PC 2B                     TAir   PixelEndCap_BpO    PixelEndCap_BpO|1
PixelEndcap_BmI_Air                       CMS_TRACKER_PLCS/Pixel/PixelEndCap_BmI/PixelEndcap_BmI_Air                        PixelEndcap BpO PC 2C                     TAir   PixelEndCap_BpO    PixelEndCap_BpO|1
PixelEndcap_BmI_D1_ROG4_BLD12_PNL1        CMS_TRACKER_PLCS/Pixel/PixelEndCap_BmI/PixelEndcap_BmI_D1_ROG4_BLD12_PNL1         PixelEndcap BpO PC 3A                     TAir   PixelEndCap_BpO    PixelEndCap_BpO|1
PixelEndcap_BmI_D1_ROG4_BLD12_PNL2        CMS_TRACKER_PLCS/Pixel/PixelEndCap_BmI/PixelEndcap_BmI_D1_ROG4_BLD12_PNL2         PixelEndcap BpO PC 3B                     TAir   PixelEndCap_BpO    PixelEndCap_BpO|1
PixelEndcap_BmI_D1_ROG3_BLD7_PNL1         CMS_TRACKER_PLCS/Pixel/PixelEndCap_BmI/PixelEndcap_BmI_D1_ROG3_BLD7_PNL1          PixelEndcap BpO PC 3C                     TAir   PixelEndCap_BpO    PixelEndCap_BpO|1
PixelEndcap_BmI_D1_ROG3_BLD7_PNL2         CMS_TRACKER_PLCS/Pixel/PixelEndCap_BmI/PixelEndcap_BmI_D1_ROG3_BLD7_PNL2          PixelEndcap BpO PC 3D                     TAir   PixelEndCap_BpO    PixelEndCap_BpO|1
PixelEndcap_BmI_D2_ROG4_BLD12_PNL1        CMS_TRACKER_PLCS/Pixel/PixelEndCap_BmI/PixelEndcap_BmI_D2_ROG4_BLD12_PNL1         PixelEndcap BpO Air                       TAir   PixelEndCap_BpO    PixelEndCap_BpO|1
PixelEndcap_BmO_CL1_M-Outflow             CMS_TRACKER_PLCS/Pixel/PixelEndCap_BmO|1/PixelEndcap_BmO_CL1_M-Outflow            PixelEndcap BmI PC 1A                     TAir   PixelEndCap_BmI    PixelEndCap_BmI|1
PixelEndcap_BmO_CL1_M-Inflow              CMS_TRACKER_PLCS/Pixel/PixelEndCap_BmO|1/PixelEndcap_BmO_CL1_M-Inflow             PixelEndcap BmI PC 1B                     TAir   PixelEndCap_BmI    PixelEndCap_BmI|1
PixelEndcap_BmO_D2_CL1_Outflow            CMS_TRACKER_PLCS/Pixel/PixelEndCap_BmO|1/PixelEndcap_BmO_D2_CL1_Outflow           PixelEndcap BmI PC 1C                     TAir   PixelEndCap_BmI    PixelEndCap_BmI|1
PixelEndcap_BmO_D2_CL1_Inflow             CMS_TRACKER_PLCS/Pixel/PixelEndCap_BmO|1/PixelEndcap_BmO_D2_CL1_Inflow            PixelEndcap BmI PC 1D                     TAir   PixelEndCap_BmI    PixelEndCap_BmI|1
PixelEndcap_BmO_D1_CL1_Outflow            CMS_TRACKER_PLCS/Pixel/PixelEndCap_BmO|1/PixelEndcap_BmO_D1_CL1_Outflow           PixelEndcap BmI PC 2A                     TAir   PixelEndCap_BmI    PixelEndCap_BmI|1
PixelEndcap_BmO_D1_CL1_Inflow             CMS_TRACKER_PLCS/Pixel/PixelEndCap_BmO|1/PixelEndcap_BmO_D1_CL1_Inflow            PixelEndcap BmI PC 2B                     TAir   PixelEndCap_BmI    PixelEndCap_BmI|1
PixelEndcap_BmO_Air                       CMS_TRACKER_PLCS/Pixel/PixelEndCap_BmO/PixelEndcap_BmO_Air                        PixelEndcap BmI PC 2C                     TAir   PixelEndCap_BmI    PixelEndCap_BmI|1
PixelEndcap_BmO_D1_ROG1_BLD1_PNL1         CMS_TRACKER_PLCS/Pixel/PixelEndCap_BmO/PixelEndcap_BmO_D1_ROG1_BLD1_PNL1          PixelEndcap BmI PC 3A                     TAir   PixelEndCap_BmI    PixelEndCap_BmI|1
PixelEndcap_BmO_D1_ROG1_BLD1_PNL2         CMS_TRACKER_PLCS/Pixel/PixelEndCap_BmO/PixelEndcap_BmO_D1_ROG1_BLD1_PNL2          PixelEndcap BmI PC 3B                     TAir   PixelEndCap_BmI    PixelEndCap_BmI|1
PixelEndcap_BmO_D1_ROG2_BLD6_PNL1         CMS_TRACKER_PLCS/Pixel/PixelEndCap_BmO/PixelEndcap_BmO_D1_ROG2_BLD6_PNL1          PixelEndcap BmI PC 3C                     TAir   PixelEndCap_BmI    PixelEndCap_BmI|1
PixelEndcap_BmO_D1_ROG2_BLD6_PNL2         CMS_TRACKER_PLCS/Pixel/PixelEndCap_BmO/PixelEndcap_BmO_D1_ROG2_BLD6_PNL2          PixelEndcap BmI PC 3D                     TAir   PixelEndCap_BmI    PixelEndCap_BmI|1
PixelEndcap_BmO_D2_ROG1_BLD1_PNL1         CMS_TRACKER_PLCS/Pixel/PixelEndCap_BmO/PixelEndcap_BmO_D2_ROG1_BLD1_PNL1          PixelEndcap BmI Air                       TAir   PixelEndCap_BmI    PixelEndCap_BmI|1
PixelEndcap_BmO_CL2_M-Inflow              CMS_TRACKER_PLCS/Pixel/PixelEndCap_BmO|1/PixelEndcap_BmO_CL2_M-Inflow             PixelEndcap BmO PC 1A                     TAir   PixelEndCap_BmO    PixelEndCap_BmO|1
PixelEndcap_BmO_CL2_M-Outflow             CMS_TRACKER_PLCS/Pixel/PixelEndCap_BmO|1/PixelEndcap_BmO_CL2_M-Outflow            PixelEndcap BmO PC 1B                     TAir   PixelEndCap_BmO    PixelEndCap_BmO|1
PixelEndcap_BmO_D2_CL2_Inflow             CMS_TRACKER_PLCS/Pixel/PixelEndCap_BmO|1/PixelEndcap_BmO_D2_CL2_Inflow            PixelEndcap BmO PC 1C                     TAir   PixelEndCap_BmO    PixelEndCap_BmO|1
PixelEndcap_BmO_D2_CL2_Outflow            CMS_TRACKER_PLCS/Pixel/PixelEndCap_BmO|1/PixelEndcap_BmO_D2_CL2_Outflow           PixelEndcap BmO PC 1D                     TAir   PixelEndCap_BmO    PixelEndCap_BmO|1
PixelEndcap_BmO_D1_CL2_Inflow             CMS_TRACKER_PLCS/Pixel/PixelEndCap_BmO|1/PixelEndcap_BmO_D1_CL2_Inflow            PixelEndcap BmO PC 2A                     TAir   PixelEndCap_BmO    PixelEndCap_BmO|1
PixelEndcap_BmO_D1_CL2_Outflow            CMS_TRACKER_PLCS/Pixel/PixelEndCap_BmO|1/PixelEndcap_BmO_D1_CL2_Outflow           PixelEndcap BmO PC 2B                     TAir   PixelEndCap_BmO    PixelEndCap_BmO|1
PixelEndcap_BmO_CarbonFiberShell          CMS_TRACKER_PLCS/Pixel/PixelEndCap_BmO/PixelEndcap_BmO_CarbonFiberShell           PixelEndcap BmO PC 2C                     TAir   PixelEndCap_BmO    PixelEndCap_BmO|1
PixelEndcap_BmO_D1_ROG3_BLD7_PNL1         CMS_TRACKER_PLCS/Pixel/PixelEndCap_BmO/PixelEndcap_BmO_D1_ROG3_BLD7_PNL1          PixelEndcap BmO PC 3A                     TAir   PixelEndCap_BmO    PixelEndCap_BmO|1
PixelEndcap_BmO_D1_ROG3_BLD7_PNL2         CMS_TRACKER_PLCS/Pixel/PixelEndCap_BmO/PixelEndcap_BmO_D1_ROG3_BLD7_PNL2          PixelEndcap BmO PC 3B                     TAir   PixelEndCap_BmO    PixelEndCap_BmO|1
PixelEndcap_BmO_D1_ROG4_BLD12_PNL1        CMS_TRACKER_PLCS/Pixel/PixelEndCap_BmO/PixelEndcap_BmO_D1_ROG4_BLD12_PNL1         PixelEndcap BmO PC 3C                     TAir   PixelEndCap_BmO    PixelEndCap_BmO|1
PixelEndcap_BmO_D1_ROG4_BLD12_PNL2        CMS_TRACKER_PLCS/Pixel/PixelEndCap_BmO/PixelEndcap_BmO_D1_ROG4_BLD12_PNL2         PixelEndcap BmO PC 3D                     TAir   PixelEndCap_BmO    PixelEndCap_BmO|1
PixelEndcap_BmO_D2_ROG3_BLD7_PNL1         CMS_TRACKER_PLCS/Pixel/PixelEndCap_BmO/PixelEndcap_BmO_D2_ROG3_BLD7_PNL1          PixelEndcap BmO Air                       TAir   PixelEndCap_BmO    PixelEndCap_BmO|1
PixelBarrel_BpI_SEC2_AOHDOH               CMS_TRACKER_PLCS/Pixel/PixelBarrel_BpI|1/PixelBarrel_BpI_SEC2_AOHDOH              PixelBarrel BpI 6M L4D3PN                 TLiq   PixelBarrel_BpI    PixelBarrel_BpI  
PixelBarrel_BpI_SEC3_AOHDOH               CMS_TRACKER_PLCS/Pixel/PixelBarrel_BpI|1/PixelBarrel_BpI_SEC3_AOHDOH              PixelBarrel BpI 6R L4D3PN                 TLiq   PixelBarrel_BpI    PixelBarrel_BpI  
PixelBarrel_BpI_SEC4_AOHDOH               CMS_TRACKER_PLCS/Pixel/PixelBarrel_BpI|1/PixelBarrel_BpI_SEC4_AOHDOH              PixelBarrel BpI Sector 5 POH 1R Detector  TSil   PixelBarrel_BpI    PixelBarrel_BpI|1
PixelBarrel_BpI_Tube5                     CMS_TRACKER_PLCS/Pixel/PixelBarrel_BpI/PixelBarrel_BpI_Tube5                      PixelBarrel BpI Sector 6 POH 2R Inp       TSil   PixelBarrel_BpI    PixelBarrel_BpI|1
PixelBarrel_BpI_Tube1                     CMS_TRACKER_PLCS/Pixel/PixelBarrel_BpI/PixelBarrel_BpI_Tube1                      PixelBarrel BpI Sector 6 POH 2R Detector  TSil   PixelBarrel_BpI    PixelBarrel_BpI|1
PixelBarrel_BpI_Tube2                     CMS_TRACKER_PLCS/Pixel/PixelBarrel_BpI/PixelBarrel_BpI_Tube2                      PixelBarrel BpI Sector 7 POH 3R Inp       TSil   PixelBarrel_BpI    PixelBarrel_BpI|1
PixelBarrel_BpI_Tube3                     CMS_TRACKER_PLCS/Pixel/PixelBarrel_BpI/PixelBarrel_BpI_Tube3                      PixelBarrel BpI Sector 7 POH 3R Detector  TSil   PixelBarrel_BpI    PixelBarrel_BpI|1
PixelBarrel_BpI_Tube4                     CMS_TRACKER_PLCS/Pixel/PixelBarrel_BpI/PixelBarrel_BpI_Tube4                      PixelBarrel BpI Sector 8 POH 4R Inp       TSil   PixelBarrel_BpI    PixelBarrel_BpI|1
PixelBarrel_BpI_CCU                       CMS_TRACKER_PLCS/Pixel/PixelBarrel_BpI|1/PixelBarrel_BpI_CCU                      PixelBarrel BpI Sector 8 POH 4R Detector  TSil   PixelBarrel_BpI    PixelBarrel_BpI|1
PixelBarrel_BpI_SEC8_AOHDOH               CMS_TRACKER_PLCS/Pixel/PixelBarrel_BpI|1/PixelBarrel_BpI_SEC8_AOHDOH              PixelBarrel BpO 1I L4D2PF                 TLiq   PixelBarrel_BpO    PixelBarrel_BpO  
PixelBarrel_BpI_SEC7_AOHDOH               CMS_TRACKER_PLCS/Pixel/PixelBarrel_BpI|1/PixelBarrel_BpI_SEC7_AOHDOH              PixelBarrel BpO 1M L4D2PF                 TLiq   PixelBarrel_BpO    PixelBarrel_BpO  
PixelBarrel_BpI_SEC6_AOHDOH               CMS_TRACKER_PLCS/Pixel/PixelBarrel_BpI|1/PixelBarrel_BpI_SEC6_AOHDOH              PixelBarrel BpO 1R L4D2PF                 TLiq   PixelBarrel_BpO    PixelBarrel_BpO  
PixelBarrel_BpI_SEC5_AOHDOH               CMS_TRACKER_PLCS/Pixel/PixelBarrel_BpI|1/PixelBarrel_BpI_SEC5_AOHDOH              PixelBarrel BpO Sector 4 POH 1R Detector  TSil   PixelBarrel_BpO    PixelBarrel_BpO|1
PixelBarrel_BpI_Tube6                     CMS_TRACKER_PLCS/Pixel/PixelBarrel_BpI/PixelBarrel_BpI_Tube6                      PixelBarrel BpO Sector 3 POH 2R Inp       TSil   PixelBarrel_BpO    PixelBarrel_BpO|1
PixelBarrel_BpI_Tube10                    CMS_TRACKER_PLCS/Pixel/PixelBarrel_BpI/PixelBarrel_BpI_Tube10                     PixelBarrel BpO Sector 3 POH 2R Detector  TSil   PixelBarrel_BpO    PixelBarrel_BpO|1
PixelBarrel_BpI_Tube9                     CMS_TRACKER_PLCS/Pixel/PixelBarrel_BpI/PixelBarrel_BpI_Tube9                      PixelBarrel BpO Sector 2 POH 3R Inp       TSil   PixelBarrel_BpO    PixelBarrel_BpO|1
PixelBarrel_BpI_Tube8                     CMS_TRACKER_PLCS/Pixel/PixelBarrel_BpI/PixelBarrel_BpI_Tube8                      PixelBarrel BpO Sector 2 POH 3R Detector  TSil   PixelBarrel_BpO    PixelBarrel_BpO|1
PixelBarrel_BpI_Tube7                     CMS_TRACKER_PLCS/Pixel/PixelBarrel_BpI/PixelBarrel_BpI_Tube7                      PixelBarrel BpO Sector 1 POH 4R Inp       TSil   PixelBarrel_BpO    PixelBarrel_BpO|1
PixelBarrel_BpI_Air                       CMS_TRACKER_PLCS/Pixel/PixelBarrel_BpI/PixelBarrel_BpI_Air                        PixelBarrel BpO Sector 1 POH 4R Detector  TSil   PixelBarrel_BpO    PixelBarrel_BpO|1
PixelBarrel_BpO_SEC1_AOHDOH               CMS_TRACKER_PLCS/Pixel/PixelBarrel_BpO|1/PixelBarrel_BpO_SEC1_AOHDOH              PixelBarrel BmI 1I L4D2MN                 TLiq   PixelBarrel_BmI    PixelBarrel_BmI  
PixelBarrel_BpO_SEC2_AOHDOH               CMS_TRACKER_PLCS/Pixel/PixelBarrel_BpO|1/PixelBarrel_BpO_SEC2_AOHDOH              PixelBarrel BmI 1M L4D2MN                 TLiq   PixelBarrel_BmI    PixelBarrel_BmI  
PixelBarrel_BpO_SEC3_AOHDOH               CMS_TRACKER_PLCS/Pixel/PixelBarrel_BpO|1/PixelBarrel_BpO_SEC3_AOHDOH              PixelBarrel BmI 1R L4D2MN                 TLiq   PixelBarrel_BmI    PixelBarrel_BmI  
PixelBarrel_BpO_SEC4_AOHDOH               CMS_TRACKER_PLCS/Pixel/PixelBarrel_BpO|1/PixelBarrel_BpO_SEC4_AOHDOH              PixelBarrel BmI Sector 4 POH 1R Detector  TSil   PixelBarrel_BmI    PixelBarrel_BmI|1
PixelBarrel_BpO_Tube5                     CMS_TRACKER_PLCS/Pixel/PixelBarrel_BpO/PixelBarrel_BpO_Tube5                      PixelBarrel BmI Sector 3 POH 2R Inp       TSil   PixelBarrel_BmI    PixelBarrel_BmI|1
PixelBarrel_BpO_Tube1                     CMS_TRACKER_PLCS/Pixel/PixelBarrel_BpO/PixelBarrel_BpO_Tube1                      PixelBarrel BmI Sector 3 POH 2R Detector  TSil   PixelBarrel_BmI    PixelBarrel_BmI|1
PixelBarrel_BpO_Tube2                     CMS_TRACKER_PLCS/Pixel/PixelBarrel_BpO/PixelBarrel_BpO_Tube2                      PixelBarrel BmI Sector 2 POH 3R Inp       TSil   PixelBarrel_BmI    PixelBarrel_BmI|1
PixelBarrel_BpO_Tube3                     CMS_TRACKER_PLCS/Pixel/PixelBarrel_BpO/PixelBarrel_BpO_Tube3                      PixelBarrel BmI Sector 2 POH 3R Detector  TSil   PixelBarrel_BmI    PixelBarrel_BmI|1
PixelBarrel_BpO_Tube4                     CMS_TRACKER_PLCS/Pixel/PixelBarrel_BpO/PixelBarrel_BpO_Tube4                      PixelBarrel BmI Sector 1 POH 4R Inp       TSil   PixelBarrel_BmI    PixelBarrel_BmI|1
PixelBarrel_BpO_Air                       CMS_TRACKER_PLCS/Pixel/PixelBarrel_BpO/PixelBarrel_BpO_Air                        PixelBarrel BmI Sector 1 POH 4R Detector  TSil   PixelBarrel_BmI    PixelBarrel_BmI|1
PixelBarrel_BpO_SEC8_AOHDOH               CMS_TRACKER_PLCS/Pixel/PixelBarrel_BpO|1/PixelBarrel_BpO_SEC8_AOHDOH              PixelBarrel BmO 6I L4D3MF                 TLiq   PixelBarrel_BmO    PixelBarrel_BmO  
PixelBarrel_BpO_SEC6_AOHDOH               CMS_TRACKER_PLCS/Pixel/PixelBarrel_BpO|1/PixelBarrel_BpO_SEC6_AOHDOH              PixelBarrel BmO 6R L4D3MF                 TLiq   PixelBarrel_BmO    PixelBarrel_BmO  
PixelBarrel_BpO_SEC5_AOHDOH               CMS_TRACKER_PLCS/Pixel/PixelBarrel_BpO|1/PixelBarrel_BpO_SEC5_AOHDOH              PixelBarrel BmO Sector 5 POH 1R Detector  TSil   PixelBarrel_BmO    PixelBarrel_BmO|1
PixelBarrel_BpO_Tube6                     CMS_TRACKER_PLCS/Pixel/PixelBarrel_BpO/PixelBarrel_BpO_Tube6                      PixelBarrel BmO Sector 6 POH 2R Inp       TSil   PixelBarrel_BmO    PixelBarrel_BmO|1
PixelBarrel_BpO_Tube10                    CMS_TRACKER_PLCS/Pixel/PixelBarrel_BpO/PixelBarrel_BpO_Tube10                     PixelBarrel BmO Sector 6 POH 2R Detector  TSil   PixelBarrel_BmO    PixelBarrel_BmO|1
PixelBarrel_BpO_Tube9                     CMS_TRACKER_PLCS/Pixel/PixelBarrel_BpO/PixelBarrel_BpO_Tube9                      PixelBarrel BmO Sector 7 POH 3R Inp       TSil   PixelBarrel_BmO    PixelBarrel_BmO|1
PixelBarrel_BpO_Tube8                     CMS_TRACKER_PLCS/Pixel/PixelBarrel_BpO/PixelBarrel_BpO_Tube8                      PixelBarrel BmO Sector 7 POH 3R Detector  TSil   PixelBarrel_BmO    PixelBarrel_BmO|1
PixelBarrel_BpO_Tube7                     CMS_TRACKER_PLCS/Pixel/PixelBarrel_BpO/PixelBarrel_BpO_Tube7                      PixelBarrel BmO Sector 8 POH 4R Inp       TSil   PixelBarrel_BmO    PixelBarrel_BmO|1
PixelBarrel_BpO_CCU                       CMS_TRACKER_PLCS/Pixel/PixelBarrel_BpO|1/PixelBarrel_BpO_CCU                      PixelBarrel BmO Sector 8 POH 4R Detector  TSil   PixelBarrel_BmO    PixelBarrel_BmO|1
PixelBarrel_BmI_SEC1_AOHDOH               CMS_TRACKER_PLCS/Pixel/PixelBarrel_BmI|1/PixelBarrel_BmI_SEC1_AOHDOH              PixelBarrel BpI 1I L4D1PN                 TLiq   PixelBarrel_BpI    PixelBarrel_BpI  
PixelBarrel_BmI_SEC2_AOHDOH               CMS_TRACKER_PLCS/Pixel/PixelBarrel_BmI|1/PixelBarrel_BmI_SEC2_AOHDOH              PixelBarrel BpI 1M L4D1PN                 TLiq   PixelBarrel_BpI    PixelBarrel_BpI  
PixelBarrel_BmI_SEC3_AOHDOH               CMS_TRACKER_PLCS/Pixel/PixelBarrel_BmI|1/PixelBarrel_BmI_SEC3_AOHDOH              PixelBarrel BpI 1R L4D1PN                 TLiq   PixelBarrel_BpI    PixelBarrel_BpI  
PixelBarrel_BmI_SEC4_AOHDOH               CMS_TRACKER_PLCS/Pixel/PixelBarrel_BmI|1/PixelBarrel_BmI_SEC4_AOHDOH              PixelBarrel BpI Sector 4 POH 1L Detector  TSil   PixelBarrel_BpI    PixelBarrel_BpI|1
PixelBarrel_BmI_Tube5                     CMS_TRACKER_PLCS/Pixel/PixelBarrel_BmI/PixelBarrel_BmI_Tube5                      PixelBarrel BpI Sector 3 POH 2L Inp       TSil   PixelBarrel_BpI    PixelBarrel_BpI|1
PixelBarrel_BmI_Tube1                     CMS_TRACKER_PLCS/Pixel/PixelBarrel_BmI/PixelBarrel_BmI_Tube1                      PixelBarrel BpI Sector 3 POH 2L Detector  TSil   PixelBarrel_BpI    PixelBarrel_BpI|1
PixelBarrel_BmI_Tube2                     CMS_TRACKER_PLCS/Pixel/PixelBarrel_BmI/PixelBarrel_BmI_Tube2                      PixelBarrel BpI Sector 2 POH 3L Inp       TSil   PixelBarrel_BpI    PixelBarrel_BpI|1
PixelBarrel_BmI_Tube3                     CMS_TRACKER_PLCS/Pixel/PixelBarrel_BmI/PixelBarrel_BmI_Tube3                      PixelBarrel BpI Sector 2 POH 3L Detector  TSil   PixelBarrel_BpI    PixelBarrel_BpI|1
PixelBarrel_BmI_Tube4                     CMS_TRACKER_PLCS/Pixel/PixelBarrel_BmI/PixelBarrel_BmI_Tube4                      PixelBarrel BpI Sector 1 POH 4L Inp       TSil   PixelBarrel_BpI    PixelBarrel_BpI|1
PixelBarrel_BmI_Air                       CMS_TRACKER_PLCS/Pixel/PixelBarrel_BmI/PixelBarrel_BmI_Air                        PixelBarrel BpI Sector 1 POH 4L Detector  TSil   PixelBarrel_BpI    PixelBarrel_BpI|1
PixelBarrel_BmI_SEC8_AOHDOH               CMS_TRACKER_PLCS/Pixel/PixelBarrel_BmI|1/PixelBarrel_BmI_SEC8_AOHDOH              PixelBarrel BpO 6I L4D4PF                 TLiq   PixelBarrel_BpO    PixelBarrel_BpO  
PixelBarrel_BmI_SEC7_AOHDOH               CMS_TRACKER_PLCS/Pixel/PixelBarrel_BmI|1/PixelBarrel_BmI_SEC7_AOHDOH              PixelBarrel BpO 6M L4D4PF                 TLiq   PixelBarrel_BpO    PixelBarrel_BpO  
PixelBarrel_BmI_SEC6_AOHDOH               CMS_TRACKER_PLCS/Pixel/PixelBarrel_BmI|1/PixelBarrel_BmI_SEC6_AOHDOH              PixelBarrel BpO 6R L4D4PF                 TLiq   PixelBarrel_BpO    PixelBarrel_BpO  
PixelBarrel_BmI_SEC5_AOHDOH               CMS_TRACKER_PLCS/Pixel/PixelBarrel_BmI|1/PixelBarrel_BmI_SEC5_AOHDOH              PixelBarrel BpO Sector 5 POH 1L Detector  TSil   PixelBarrel_BpO    PixelBarrel_BpO|1
PixelBarrel_BmI_Tube6                     CMS_TRACKER_PLCS/Pixel/PixelBarrel_BmI/PixelBarrel_BmI_Tube6                      PixelBarrel BpO Sector 6 POH 2L Inp       TSil   PixelBarrel_BpO    PixelBarrel_BpO|1
PixelBarrel_BmI_Tube10                    CMS_TRACKER_PLCS/Pixel/PixelBarrel_BmI/PixelBarrel_BmI_Tube10                     PixelBarrel BpO Sector 6 POH 2L Detector  TSil   PixelBarrel_BpO    PixelBarrel_BpO|1
PixelBarrel_BmI_Tube9                     CMS_TRACKER_PLCS/Pixel/PixelBarrel_BmI/PixelBarrel_BmI_Tube9                      PixelBarrel BpO Sector 7 POH 3L Inp       TSil   PixelBarrel_BpO    PixelBarrel_BpO|1
PixelBarrel_BmI_Tube8                     CMS_TRACKER_PLCS/Pixel/PixelBarrel_BmI/PixelBarrel_BmI_Tube8                      PixelBarrel BpO Sector 7 POH 3L Detector  TSil   PixelBarrel_BpO    PixelBarrel_BpO|1
PixelBarrel_BmI_CCU                       CMS_TRACKER_PLCS/Pixel/PixelBarrel_BmI|1/PixelBarrel_BmI_CCU                      PixelBarrel BpO Sector 8 POH 4L Detector  TSil   PixelBarrel_BpO    PixelBarrel_BpO|1
PixelBarrel_BmO_SEC1_AOHDOH               CMS_TRACKER_PLCS/Pixel/PixelBarrel_BmO|1/PixelBarrel_BmO_SEC1_AOHDOH              PixelBarrel BmI 6R L4D4MN                 TLiq   PixelBarrel_BmI    PixelBarrel_BmI  
PixelBarrel_BmO_SEC2_AOHDOH               CMS_TRACKER_PLCS/Pixel/PixelBarrel_BmO|1/PixelBarrel_BmO_SEC2_AOHDOH              PixelBarrel BmI 6M L4D4MN                 TLiq   PixelBarrel_BmI    PixelBarrel_BmI  
PixelBarrel_BmO_SEC3_AOHDOH               CMS_TRACKER_PLCS/Pixel/PixelBarrel_BmO|1/PixelBarrel_BmO_SEC3_AOHDOH              PixelBarrel BmI 6I L4D4MN                 TLiq   PixelBarrel_BmI    PixelBarrel_BmI  
PixelBarrel_BmO_SEC4_AOHDOH               CMS_TRACKER_PLCS/Pixel/PixelBarrel_BmO|1/PixelBarrel_BmO_SEC4_AOHDOH              PixelBarrel BmI Sector 5 POH 1L Detector  TSil   PixelBarrel_BmI    PixelBarrel_BmI|1
PixelBarrel_BmO_Tube5                     CMS_TRACKER_PLCS/Pixel/PixelBarrel_BmO/PixelBarrel_BmO_Tube5                      PixelBarrel BmI Sector 6 POH 2L Inp       TSil   PixelBarrel_BmI    PixelBarrel_BmI|1
PixelBarrel_BmO_Tube1                     CMS_TRACKER_PLCS/Pixel/PixelBarrel_BmO/PixelBarrel_BmO_Tube1                      PixelBarrel BmI Sector 6 POH 2L Detector  TSil   PixelBarrel_BmI    PixelBarrel_BmI|1
PixelBarrel_BmO_Tube2                     CMS_TRACKER_PLCS/Pixel/PixelBarrel_BmO/PixelBarrel_BmO_Tube2                      PixelBarrel BmI Sector 7 POH 3L Inp       TSil   PixelBarrel_BmI    PixelBarrel_BmI|1
PixelBarrel_BmO_Tube3                     CMS_TRACKER_PLCS/Pixel/PixelBarrel_BmO/PixelBarrel_BmO_Tube3                      PixelBarrel BmI Sector 7 POH 3L Detector  TSil   PixelBarrel_BmI    PixelBarrel_BmI|1
PixelBarrel_BmO_Tube4                     CMS_TRACKER_PLCS/Pixel/PixelBarrel_BmO/PixelBarrel_BmO_Tube4                      PixelBarrel BmI Sector 8 POH 4L Inp       TSil   PixelBarrel_BmI    PixelBarrel_BmI|1
PixelBarrel_BmO_CCU                       CMS_TRACKER_PLCS/Pixel/PixelBarrel_BmO|1/PixelBarrel_BmO_CCU                      PixelBarrel BmI Sector 8 POH 4L Detector  TSil   PixelBarrel_BmI    PixelBarrel_BmI|1
PixelBarrel_BmO_SEC8_AOHDOH               CMS_TRACKER_PLCS/Pixel/PixelBarrel_BmO|1/PixelBarrel_BmO_SEC8_AOHDOH              PixelBarrel BmO 1I L4D1MF                 TLiq   PixelBarrel_BmO    PixelBarrel_BmO  
PixelBarrel_BmO_SEC7_AOHDOH               CMS_TRACKER_PLCS/Pixel/PixelBarrel_BmO|1/PixelBarrel_BmO_SEC7_AOHDOH              PixelBarrel BmO 1M L4D1MF                 TLiq   PixelBarrel_BmO    PixelBarrel_BmO  
PixelBarrel_BmO_SEC6_AOHDOH               CMS_TRACKER_PLCS/Pixel/PixelBarrel_BmO|1/PixelBarrel_BmO_SEC6_AOHDOH              PixelBarrel BmO 1R L4D1MF                 TLiq   PixelBarrel_BmO    PixelBarrel_BmO  
PixelBarrel_BmO_SEC5_AOHDOH               CMS_TRACKER_PLCS/Pixel/PixelBarrel_BmO|1/PixelBarrel_BmO_SEC5_AOHDOH              PixelBarrel BmO Sector 4  POH 1L Detecto  TSil   PixelBarrel_BmO    PixelBarrel_BmO|1
PixelBarrel_BmO_Tube6                     CMS_TRACKER_PLCS/Pixel/PixelBarrel_BmO/PixelBarrel_BmO_Tube6                      PixelBarrel BmO Sector 3 POH 2L Inp       TSil   PixelBarrel_BmO    PixelBarrel_BmO|1
PixelBarrel_BmO_Tube10                    CMS_TRACKER_PLCS/Pixel/PixelBarrel_BmO/PixelBarrel_BmO_Tube10                     PixelBarrel BmO Sector 3 POH 2L Detector  TSil   PixelBarrel_BmO    PixelBarrel_BmO|1
PixelBarrel_BmO_Tube9                     CMS_TRACKER_PLCS/Pixel/PixelBarrel_BmO/PixelBarrel_BmO_Tube9                      PixelBarrel BmO Sector 2 POH 3L Inp       TSil   PixelBarrel_BmO    PixelBarrel_BmO|1
PixelBarrel_BmO_Tube8                     CMS_TRACKER_PLCS/Pixel/PixelBarrel_BmO/PixelBarrel_BmO_Tube8                      PixelBarrel BmO Sector 2 POH 3L Detector  TSil   PixelBarrel_BmO    PixelBarrel_BmO|1
PixelBarrel_BmO_Tube7                     CMS_TRACKER_PLCS/Pixel/PixelBarrel_BmO/PixelBarrel_BmO_Tube7                      PixelBarrel BmO Sector 1 POH 4L Inp       TSil   PixelBarrel_BmO    PixelBarrel_BmO|1
PixelBarrel_BmO_Air                       CMS_TRACKER_PLCS/Pixel/PixelBarrel_BmO/PixelBarrel_BmO_Air                        PixelBarrel BmO Sector 1 POH 4L Detector  TSil   PixelBarrel_BmO    PixelBarrel_BmO|1
