('2018-05-05 16:31:45', 'R1', 'target', 10, 'readback results', (1, {u'300.000000': 1}))
not fully updated yet
('2018-05-05 16:31:47', 'R1', 'target', 10, 'readback results', (1, {u'300.000000': 1}))
not fully updated yet
('2018-05-05 16:31:49', 'R1', 'target', 10, 'readback results', (1, {u'300.000000': 1}))
not fully updated yet
('2018-05-05 16:31:51', 'R1', 'target', 10, 'readback results', (1, {u'10.000000': 1}))
('2018-05-05 16:31:51', 'R2', 'target', 10, 'readback results', (1, {u'10.000000': 1}))
('2018-05-05 16:31:51', 'L4', 'target', 5, 'readback results', (1, {u'200.000000': 1}))
not fully updated yet
('2018-05-05 16:31:53', 'R1', 'target', 10, 'readback results', (1, {u'10.000000': 1}))
('2018-05-05 16:31:53', 'R2', 'target', 10, 'readback results', (1, {u'10.000000': 1}))
('2018-05-05 16:31:53', 'L4', 'target', 5, 'readback results', (1, {u'200.000000': 1}))
not fully updated yet
('2018-05-05 16:31:55', 'R1', 'target', 10, 'readback results', (1, {u'10.000000': 1}))
('2018-05-05 16:31:55', 'R2', 'target', 10, 'readback results', (1, {u'10.000000': 1}))
('2018-05-05 16:31:55', 'L4', 'target', 5, 'readback results', (1, {u'5.000000': 1}))
('2018-05-05 16:31:55', 'L2', 'target', 10, 'readback results', (1, {u'10.000000': 1}))
('2018-05-05 16:31:55', 'L3', 'target', 10, 'readback results', (1, {u'10.000000': 1}))
('2018-05-05 16:31:55', 'L1', 'target', 20, 'readback results', (1, {u'20.000000': 1}))
all settings updated
('2018-05-05 16:31:55', 'R1', 'target', 'ON', 'readback results', (1, {u'HVRAMPINGDOWN': 1}))
not stable yet
('2018-05-05 16:31:57', 'R1', 'target', 'ON', 'readback results', (1, {u'HVRAMPINGDOWN': 1}))
not stable yet
('2018-05-05 16:31:59', 'R1', 'target', 'ON', 'readback results', (1, {u'HVRAMPINGDOWN': 1}))
not stable yet
('2018-05-05 16:32:01', 'R1', 'target', 'ON', 'readback results', (1, {u'HVRAMPINGDOWN': 1}))
not stable yet
('2018-05-05 16:32:03', 'R1', 'target', 'ON', 'readback results', (1, {u'HVRAMPINGDOWN': 1}))
not stable yet
('2018-05-05 16:32:05', 'R1', 'target', 'ON', 'readback results', (1, {u'HVRAMPINGDOWN': 1}))
not stable yet
('2018-05-05 16:32:07', 'R1', 'target', 'ON', 'readback results', (1, {u'HVRAMPINGDOWN': 1}))
not stable yet
('2018-05-05 16:32:09', 'R1', 'target', 'ON', 'readback results', (1, {u'HVRAMPINGDOWN': 1}))
not stable yet
('2018-05-05 16:32:11', 'R1', 'target', 'ON', 'readback results', (1, {u'HVRAMPINGDOWN': 1}))
not stable yet
('2018-05-05 16:32:13', 'R1', 'target', 'ON', 'readback results', (1, {u'HVRAMPINGDOWN': 1}))
not stable yet
('2018-05-05 16:32:15', 'R1', 'target', 'ON', 'readback results', (1, {u'HVRAMPINGDOWN': 1}))
not stable yet
('2018-05-05 16:32:17', 'R1', 'target', 'ON', 'readback results', (1, {u'HVRAMPINGDOWN': 1}))
not stable yet
('2018-05-05 16:32:19', 'R1', 'target', 'ON', 'readback results', (1, {u'HVRAMPINGDOWN': 1}))
not stable yet
('2018-05-05 16:32:21', 'R1', 'target', 'ON', 'readback results', (1, {u'ON': 1}))
('2018-05-05 16:32:21', 'R2', 'target', 'ON', 'readback results', (1, {u'ON': 1}))
('2018-05-05 16:32:21', 'L4', 'target', 'ON', 'readback results', (1, {u'ON': 1}))
('2018-05-05 16:32:21', 'L2', 'target', 'ON', 'readback results', (1, {u'ON': 1}))
('2018-05-05 16:32:21', 'L3', 'target', 'ON', 'readback results', (1, {u'ON': 1}))
('2018-05-05 16:32:21', 'L1', 'target', 'ON', 'readback results', (1, {u'HVRAMPINGDOWN': 1}))
not stable yet
('2018-05-05 16:32:23', 'R1', 'target', 'ON', 'readback results', (1, {u'ON': 1}))
('2018-05-05 16:32:23', 'R2', 'target', 'ON', 'readback results', (1, {u'ON': 1}))
('2018-05-05 16:32:23', 'L4', 'target', 'ON', 'readback results', (1, {u'ON': 1}))
('2018-05-05 16:32:23', 'L2', 'target', 'ON', 'readback results', (1, {u'ON': 1}))
('2018-05-05 16:32:23', 'L3', 'target', 'ON', 'readback results', (1, {u'ON': 1}))
('2018-05-05 16:32:23', 'L1', 'target', 'ON', 'readback results', (1, {u'HVRAMPINGDOWN': 1}))
not stable yet
('2018-05-05 16:32:25', 'R1', 'target', 'ON', 'readback results', (1, {u'ON': 1}))
('2018-05-05 16:32:25', 'R2', 'target', 'ON', 'readback results', (1, {u'ON': 1}))
('2018-05-05 16:32:26', 'L4', 'target', 'ON', 'readback results', (1, {u'ON': 1}))
('2018-05-05 16:32:26', 'L2', 'target', 'ON', 'readback results', (1, {u'ON': 1}))
('2018-05-05 16:32:26', 'L3', 'target', 'ON', 'readback results', (1, {u'ON': 1}))
('2018-05-05 16:32:26', 'L1', 'target', 'ON', 'readback results', (1, {u'HVRAMPINGDOWN': 1}))
not stable yet
('2018-05-05 16:32:28', 'R1', 'target', 'ON', 'readback results', (1, {u'ON': 1}))
('2018-05-05 16:32:28', 'R2', 'target', 'ON', 'readback results', (1, {u'ON': 1}))
('2018-05-05 16:32:28', 'L4', 'target', 'ON', 'readback results', (1, {u'ON': 1}))
('2018-05-05 16:32:28', 'L2', 'target', 'ON', 'readback results', (1, {u'ON': 1}))
('2018-05-05 16:32:28', 'L3', 'target', 'ON', 'readback results', (1, {u'ON': 1}))
('2018-05-05 16:32:28', 'L1', 'target', 'ON', 'readback results', (1, {u'HVRAMPINGDOWN': 1}))
not stable yet
('2018-05-05 16:32:30', 'R1', 'target', 'ON', 'readback results', (1, {u'ON': 1}))
('2018-05-05 16:32:30', 'R2', 'target', 'ON', 'readback results', (1, {u'ON': 1}))
('2018-05-05 16:32:30', 'L4', 'target', 'ON', 'readback results', (1, {u'ON': 1}))
('2018-05-05 16:32:30', 'L2', 'target', 'ON', 'readback results', (1, {u'ON': 1}))
('2018-05-05 16:32:30', 'L3', 'target', 'ON', 'readback results', (1, {u'ON': 1}))
('2018-05-05 16:32:30', 'L1', 'target', 'ON', 'readback results', (1, {u'ON': 1}))
all states stable
timestamp(UTC):2018-05-05 16:32:31, fill:6645, run:315764, lumisection:150, orbit:39146638 -- L1:20, L2:10, L3:10, L4:5 -- start
timestamp(UTC):2018-05-05 16:36:18, fill:6645, run:315764, lumisection:160, orbit:41719829 -- L1:20, L2:10, L3:10, L4:5 -- stop
('2018-05-05 16:36:19', 'R1', 'target', 20, 'readback results', (1, {u'10.000000': 1}))
not fully updated yet
('2018-05-05 16:36:21', 'R1', 'target', 20, 'readback results', (1, {u'10.000000': 1}))
not fully updated yet
('2018-05-05 16:36:23', 'R1', 'target', 20, 'readback results', (1, {u'10.000000': 1}))
not fully updated yet
('2018-05-05 16:36:25', 'R1', 'target', 20, 'readback results', (1, {u'10.000000': 1}))
not fully updated yet
('2018-05-05 16:36:27', 'R1', 'target', 20, 'readback results', (1, {u'20.000000': 1}))
('2018-05-05 16:36:27', 'R2', 'target', 20, 'readback results', (1, {u'20.000000': 1}))
('2018-05-05 16:36:27', 'L4', 'target', 10, 'readback results', (1, {u'10.000000': 1}))
('2018-05-05 16:36:27', 'L2', 'target', 20, 'readback results', (1, {u'20.000000': 1}))
('2018-05-05 16:36:27', 'L3', 'target', 20, 'readback results', (1, {u'20.000000': 1}))
('2018-05-05 16:36:27', 'L1', 'target', 40, 'readback results', (1, {u'40.000000': 1}))
all settings updated
('2018-05-05 16:36:27', 'R1', 'target', 'ON', 'readback results', (1, {u'ON': 1}))
('2018-05-05 16:36:27', 'R2', 'target', 'ON', 'readback results', (1, {u'ON': 1}))
('2018-05-05 16:36:27', 'L4', 'target', 'ON', 'readback results', (1, {u'ON': 1}))
('2018-05-05 16:36:27', 'L2', 'target', 'ON', 'readback results', (1, {u'ON': 1}))
('2018-05-05 16:36:27', 'L3', 'target', 'ON', 'readback results', (1, {u'ON': 1}))
('2018-05-05 16:36:27', 'L1', 'target', 'ON', 'readback results', (1, {u'ON': 1}))
all states stable
timestamp(UTC):2018-05-05 16:36:27, fill:6645, run:315764, lumisection:160, orbit:41825841 -- L1:40, L2:20, L3:20, L4:10 -- start
timestamp(UTC):2018-05-05 16:40:09, fill:6645, run:315764, lumisection:170, orbit:44322177 -- L1:40, L2:20, L3:20, L4:10 -- stop
('2018-05-05 16:40:11', 'R1', 'target', 30, 'readback results', (1, {u'20.000000': 1}))
not fully updated yet
('2018-05-05 16:40:13', 'R1', 'target', 30, 'readback results', (1, {u'20.000000': 1}))
not fully updated yet
('2018-05-05 16:40:15', 'R1', 'target', 30, 'readback results', (1, {u'20.000000': 1}))
not fully updated yet
('2018-05-05 16:40:17', 'R1', 'target', 30, 'readback results', (1, {u'30.000000': 1}))
('2018-05-05 16:40:17', 'R2', 'target', 30, 'readback results', (1, {u'30.000000': 1}))
('2018-05-05 16:40:17', 'L4', 'target', 15, 'readback results', (1, {u'15.000000': 1}))
('2018-05-05 16:40:17', 'L2', 'target', 30, 'readback results', (1, {u'30.000000': 1}))
('2018-05-05 16:40:17', 'L3', 'target', 30, 'readback results', (1, {u'30.000000': 1}))
('2018-05-05 16:40:17', 'L1', 'target', 60, 'readback results', (1, {u'60.000000': 1}))
all settings updated
('2018-05-05 16:40:17', 'R1', 'target', 'ON', 'readback results', (1, {u'ON': 1}))
('2018-05-05 16:40:17', 'R2', 'target', 'ON', 'readback results', (1, {u'ON': 1}))
('2018-05-05 16:40:17', 'L4', 'target', 'ON', 'readback results', (1, {u'ON': 1}))
('2018-05-05 16:40:17', 'L2', 'target', 'ON', 'readback results', (1, {u'ON': 1}))
('2018-05-05 16:40:17', 'L3', 'target', 'ON', 'readback results', (1, {u'ON': 1}))
('2018-05-05 16:40:17', 'L1', 'target', 'ON', 'readback results', (1, {u'HVRAMPINGUP': 1}))
not stable yet
('2018-05-05 16:40:19', 'R1', 'target', 'ON', 'readback results', (1, {u'ON': 1}))
('2018-05-05 16:40:19', 'R2', 'target', 'ON', 'readback results', (1, {u'ON': 1}))
('2018-05-05 16:40:19', 'L4', 'target', 'ON', 'readback results', (1, {u'ON': 1}))
('2018-05-05 16:40:19', 'L2', 'target', 'ON', 'readback results', (1, {u'ON': 1}))
('2018-05-05 16:40:19', 'L3', 'target', 'ON', 'readback results', (1, {u'ON': 1}))
('2018-05-05 16:40:19', 'L1', 'target', 'ON', 'readback results', (1, {u'HVRAMPINGUP': 1}))
not stable yet
('2018-05-05 16:40:21', 'R1', 'target', 'ON', 'readback results', (1, {u'ON': 1}))
('2018-05-05 16:40:21', 'R2', 'target', 'ON', 'readback results', (1, {u'ON': 1}))
('2018-05-05 16:40:21', 'L4', 'target', 'ON', 'readback results', (1, {u'ON': 1}))
('2018-05-05 16:40:21', 'L2', 'target', 'ON', 'readback results', (1, {u'ON': 1}))
('2018-05-05 16:40:21', 'L3', 'target', 'ON', 'readback results', (1, {u'ON': 1}))
('2018-05-05 16:40:21', 'L1', 'target', 'ON', 'readback results', (1, {u'ON': 1}))
all states stable
timestamp(UTC):2018-05-05 16:40:23, fill:6645, run:315764, lumisection:170, orbit:44480767 -- L1:60, L2:30, L3:30, L4:15 -- start
timestamp(UTC):2018-05-05 16:44:05, fill:6645, run:315764, lumisection:180, orbit:46948744 -- L1:60, L2:30, L3:30, L4:15 -- stop
('2018-05-05 16:44:06', 'R1', 'target', 40, 'readback results', (1, {u'30.000000': 1}))
not fully updated yet
('2018-05-05 16:44:08', 'R1', 'target', 40, 'readback results', (1, {u'30.000000': 1}))
not fully updated yet
('2018-05-05 16:44:10', 'R1', 'target', 40, 'readback results', (1, {u'30.000000': 1}))
not fully updated yet
('2018-05-05 16:44:12', 'R1', 'target', 40, 'readback results', (1, {u'30.000000': 1}))
not fully updated yet
('2018-05-05 16:44:14', 'R1', 'target', 40, 'readback results', (1, {u'40.000000': 1}))
('2018-05-05 16:44:14', 'R2', 'target', 40, 'readback results', (1, {u'40.000000': 1}))
('2018-05-05 16:44:14', 'L4', 'target', 20, 'readback results', (1, {u'20.000000': 1}))
('2018-05-05 16:44:14', 'L2', 'target', 40, 'readback results', (1, {u'40.000000': 1}))
('2018-05-05 16:44:14', 'L3', 'target', 40, 'readback results', (1, {u'40.000000': 1}))
('2018-05-05 16:44:14', 'L1', 'target', 80, 'readback results', (1, {u'80.000000': 1}))
all settings updated
('2018-05-05 16:44:14', 'R1', 'target', 'ON', 'readback results', (1, {u'ON': 1}))
('2018-05-05 16:44:14', 'R2', 'target', 'ON', 'readback results', (1, {u'ON': 1}))
('2018-05-05 16:44:14', 'L4', 'target', 'ON', 'readback results', (1, {u'ON': 1}))
('2018-05-05 16:44:14', 'L2', 'target', 'ON', 'readback results', (1, {u'ON': 1}))
('2018-05-05 16:44:14', 'L3', 'target', 'ON', 'readback results', (1, {u'ON': 1}))
('2018-05-05 16:44:14', 'L1', 'target', 'ON', 'readback results', (1, {u'HVRAMPINGUP': 1}))
not stable yet
('2018-05-05 16:44:16', 'R1', 'target', 'ON', 'readback results', (1, {u'ON': 1}))
('2018-05-05 16:44:16', 'R2', 'target', 'ON', 'readback results', (1, {u'ON': 1}))
('2018-05-05 16:44:16', 'L4', 'target', 'ON', 'readback results', (1, {u'ON': 1}))
('2018-05-05 16:44:16', 'L2', 'target', 'ON', 'readback results', (1, {u'ON': 1}))
('2018-05-05 16:44:16', 'L3', 'target', 'ON', 'readback results', (1, {u'ON': 1}))
('2018-05-05 16:44:16', 'L1', 'target', 'ON', 'readback results', (1, {u'HVRAMPINGUP': 1}))
not stable yet
('2018-05-05 16:44:18', 'R1', 'target', 'ON', 'readback results', (1, {u'ON': 1}))
('2018-05-05 16:44:18', 'R2', 'target', 'ON', 'readback results', (1, {u'ON': 1}))
('2018-05-05 16:44:18', 'L4', 'target', 'ON', 'readback results', (1, {u'ON': 1}))
('2018-05-05 16:44:18', 'L2', 'target', 'ON', 'readback results', (1, {u'ON': 1}))
('2018-05-05 16:44:18', 'L3', 'target', 'ON', 'readback results', (1, {u'ON': 1}))
('2018-05-05 16:44:18', 'L1', 'target', 'ON', 'readback results', (1, {u'ON': 1}))
all states stable
timestamp(UTC):2018-05-05 16:44:19, fill:6645, run:315764, lumisection:180, orbit:47135051 -- L1:80, L2:40, L3:40, L4:20 -- start
timestamp(UTC):2018-05-05 16:47:55, fill:6645, run:315764, lumisection:190, orbit:49565502 -- L1:80, L2:40, L3:40, L4:20 -- stop
('2018-05-05 16:47:58', 'R1', 'target', 50, 'readback results', (1, {u'40.000000': 1}))
not fully updated yet
('2018-05-05 16:48:00', 'R1', 'target', 50, 'readback results', (1, {u'40.000000': 1}))
not fully updated yet
('2018-05-05 16:48:02', 'R1', 'target', 50, 'readback results', (1, {u'40.000000': 1}))
not fully updated yet
('2018-05-05 16:48:04', 'R1', 'target', 50, 'readback results', (1, {u'40.000000': 1}))
not fully updated yet
('2018-05-05 16:48:06', 'R1', 'target', 50, 'readback results', (1, {u'40.000000': 1}))
not fully updated yet
('2018-05-05 16:48:08', 'R1', 'target', 50, 'readback results', (1, {u'50.000000': 1}))
('2018-05-05 16:48:08', 'R2', 'target', 50, 'readback results', (1, {u'50.000000': 1}))
('2018-05-05 16:48:08', 'L4', 'target', 25, 'readback results', (1, {u'25.000000': 1}))
('2018-05-05 16:48:08', 'L2', 'target', 50, 'readback results', (1, {u'50.000000': 1}))
('2018-05-05 16:48:08', 'L3', 'target', 50, 'readback results', (1, {u'50.000000': 1}))
('2018-05-05 16:48:08', 'L1', 'target', 100, 'readback results', (1, {u'100.000000': 1}))
all settings updated
('2018-05-05 16:48:08', 'R1', 'target', 'ON', 'readback results', (1, {u'ON': 1}))
('2018-05-05 16:48:08', 'R2', 'target', 'ON', 'readback results', (1, {u'ON': 1}))
('2018-05-05 16:48:08', 'L4', 'target', 'ON', 'readback results', (1, {u'ON': 1}))
('2018-05-05 16:48:08', 'L2', 'target', 'ON', 'readback results', (1, {u'ON': 1}))
('2018-05-05 16:48:08', 'L3', 'target', 'ON', 'readback results', (1, {u'ON': 1}))
('2018-05-05 16:48:08', 'L1', 'target', 'ON', 'readback results', (1, {u'ON': 1}))
all states stable
timestamp(UTC):2018-05-05 16:48:10, fill:6645, run:315764, lumisection:190, orbit:49728746 -- L1:100, L2:50, L3:50, L4:25 -- start
timestamp(UTC):2018-05-05 16:51:48, fill:6645, run:315764, lumisection:200, orbit:52187784 -- L1:100, L2:50, L3:50, L4:25 -- stop
('2018-05-05 16:51:51', 'R1', 'target', 60, 'readback results', (1, {u'50.000000': 1}))
not fully updated yet
('2018-05-05 16:51:53', 'R1', 'target', 60, 'readback results', (1, {u'50.000000': 1}))
not fully updated yet
('2018-05-05 16:51:55', 'R1', 'target', 60, 'readback results', (1, {u'50.000000': 1}))
not fully updated yet
('2018-05-05 16:51:57', 'R1', 'target', 60, 'readback results', (1, {u'50.000000': 1}))
not fully updated yet
('2018-05-05 16:51:59', 'R1', 'target', 60, 'readback results', (1, {u'60.000000': 1}))
('2018-05-05 16:51:59', 'R2', 'target', 60, 'readback results', (1, {u'60.000000': 1}))
('2018-05-05 16:51:59', 'L4', 'target', 30, 'readback results', (1, {u'30.000000': 1}))
('2018-05-05 16:51:59', 'L2', 'target', 60, 'readback results', (1, {u'60.000000': 1}))
('2018-05-05 16:51:59', 'L3', 'target', 60, 'readback results', (1, {u'60.000000': 1}))
('2018-05-05 16:51:59', 'L1', 'target', 120, 'readback results', (1, {u'120.000000': 1}))
all settings updated
('2018-05-05 16:51:59', 'R1', 'target', 'ON', 'readback results', (1, {u'ON': 1}))
('2018-05-05 16:51:59', 'R2', 'target', 'ON', 'readback results', (1, {u'ON': 1}))
('2018-05-05 16:51:59', 'L4', 'target', 'ON', 'readback results', (1, {u'ON': 1}))
('2018-05-05 16:51:59', 'L2', 'target', 'ON', 'readback results', (1, {u'ON': 1}))
('2018-05-05 16:51:59', 'L3', 'target', 'ON', 'readback results', (1, {u'ON': 1}))
('2018-05-05 16:51:59', 'L1', 'target', 'ON', 'readback results', (1, {u'ON': 1}))
all states stable
timestamp(UTC):2018-05-05 16:52:00, fill:6645, run:315764, lumisection:200, orbit:52322198 -- L1:120, L2:60, L3:60, L4:30 -- start
timestamp(UTC):2018-05-05 16:55:41, fill:6645, run:315764, lumisection:210, orbit:54804994 -- L1:120, L2:60, L3:60, L4:30 -- stop
('2018-05-05 16:55:43', 'R1', 'target', 70, 'readback results', (1, {u'60.000000': 1}))
not fully updated yet
('2018-05-05 16:55:45', 'R1', 'target', 70, 'readback results', (1, {u'60.000000': 1}))
not fully updated yet
('2018-05-05 16:55:47', 'R1', 'target', 70, 'readback results', (1, {u'60.000000': 1}))
not fully updated yet
('2018-05-05 16:55:49', 'R1', 'target', 70, 'readback results', (1, {u'60.000000': 1}))
not fully updated yet
('2018-05-05 16:55:51', 'R1', 'target', 70, 'readback results', (1, {u'70.000000': 1}))
('2018-05-05 16:55:51', 'R2', 'target', 70, 'readback results', (1, {u'70.000000': 1}))
('2018-05-05 16:55:51', 'L4', 'target', 40, 'readback results', (1, {u'40.000000': 1}))
('2018-05-05 16:55:51', 'L2', 'target', 70, 'readback results', (1, {u'70.000000': 1}))
('2018-05-05 16:55:51', 'L3', 'target', 70, 'readback results', (1, {u'70.000000': 1}))
('2018-05-05 16:55:51', 'L1', 'target', 140, 'readback results', (1, {u'140.000000': 1}))
all settings updated
('2018-05-05 16:55:51', 'R1', 'target', 'ON', 'readback results', (1, {u'ON': 1}))
('2018-05-05 16:55:51', 'R2', 'target', 'ON', 'readback results', (1, {u'ON': 1}))
('2018-05-05 16:55:51', 'L4', 'target', 'ON', 'readback results', (1, {u'HVRAMPINGUP': 1}))
not stable yet
('2018-05-05 16:55:53', 'R1', 'target', 'ON', 'readback results', (1, {u'ON': 1}))
('2018-05-05 16:55:53', 'R2', 'target', 'ON', 'readback results', (1, {u'ON': 1}))
('2018-05-05 16:55:53', 'L4', 'target', 'ON', 'readback results', (1, {u'HVRAMPINGUP': 1}))
not stable yet
('2018-05-05 16:55:55', 'R1', 'target', 'ON', 'readback results', (1, {u'ON': 1}))
('2018-05-05 16:55:55', 'R2', 'target', 'ON', 'readback results', (1, {u'ON': 1}))
('2018-05-05 16:55:55', 'L4', 'target', 'ON', 'readback results', (1, {u'ON': 1}))
('2018-05-05 16:55:55', 'L2', 'target', 'ON', 'readback results', (1, {u'ON': 1}))
('2018-05-05 16:55:55', 'L3', 'target', 'ON', 'readback results', (1, {u'ON': 1}))
('2018-05-05 16:55:55', 'L1', 'target', 'ON', 'readback results', (1, {u'ON': 1}))
all states stable
timestamp(UTC):2018-05-05 16:55:56, fill:6645, run:315764, lumisection:210, orbit:54969957 -- L1:140, L2:70, L3:70, L4:40 -- start
timestamp(UTC):2018-05-05 16:59:36, fill:6645, run:315764, lumisection:220, orbit:57440386 -- L1:140, L2:70, L3:70, L4:40 -- stop
('2018-05-05 16:59:38', 'R1', 'target', 80, 'readback results', (1, {u'70.000000': 1}))
not fully updated yet
('2018-05-05 16:59:40', 'R1', 'target', 80, 'readback results', (1, {u'70.000000': 1}))
not fully updated yet
('2018-05-05 16:59:42', 'R1', 'target', 80, 'readback results', (1, {u'70.000000': 1}))
not fully updated yet
('2018-05-05 16:59:44', 'R1', 'target', 80, 'readback results', (1, {u'80.000000': 1}))
('2018-05-05 16:59:44', 'R2', 'target', 80, 'readback results', (1, {u'80.000000': 1}))
('2018-05-05 16:59:44', 'L4', 'target', 50, 'readback results', (1, {u'50.000000': 1}))
('2018-05-05 16:59:44', 'L2', 'target', 80, 'readback results', (1, {u'80.000000': 1}))
('2018-05-05 16:59:44', 'L3', 'target', 80, 'readback results', (1, {u'80.000000': 1}))
('2018-05-05 16:59:44', 'L1', 'target', 160, 'readback results', (1, {u'160.000000': 1}))
all settings updated
('2018-05-05 16:59:44', 'R1', 'target', 'ON', 'readback results', (1, {u'ON': 1}))
('2018-05-05 16:59:44', 'R2', 'target', 'ON', 'readback results', (1, {u'ON': 1}))
('2018-05-05 16:59:44', 'L4', 'target', 'ON', 'readback results', (1, {u'ON': 1}))
('2018-05-05 16:59:44', 'L2', 'target', 'ON', 'readback results', (1, {u'ON': 1}))
('2018-05-05 16:59:44', 'L3', 'target', 'ON', 'readback results', (1, {u'ON': 1}))
('2018-05-05 16:59:44', 'L1', 'target', 'ON', 'readback results', (1, {u'ON': 1}))
all states stable
timestamp(UTC):2018-05-05 16:59:46, fill:6645, run:315764, lumisection:220, orbit:57553203 -- L1:160, L2:80, L3:80, L4:50 -- start
timestamp(UTC):2018-05-05 17:03:27, fill:6645, run:315764, lumisection:230, orbit:60043347 -- L1:160, L2:80, L3:80, L4:50 -- stop
('2018-05-05 17:03:29', 'R1', 'target', 90, 'readback results', (1, {u'80.000000': 1}))
not fully updated yet
('2018-05-05 17:03:31', 'R1', 'target', 90, 'readback results', (1, {u'80.000000': 1}))
not fully updated yet
('2018-05-05 17:03:33', 'R1', 'target', 90, 'readback results', (1, {u'80.000000': 1}))
not fully updated yet
('2018-05-05 17:03:35', 'R1', 'target', 90, 'readback results', (1, {u'80.000000': 1}))
not fully updated yet
('2018-05-05 17:03:37', 'R1', 'target', 90, 'readback results', (1, {u'90.000000': 1}))
('2018-05-05 17:03:37', 'R2', 'target', 90, 'readback results', (1, {u'90.000000': 1}))
('2018-05-05 17:03:37', 'L4', 'target', 60, 'readback results', (1, {u'60.000000': 1}))
('2018-05-05 17:03:37', 'L2', 'target', 90, 'readback results', (1, {u'90.000000': 1}))
('2018-05-05 17:03:37', 'L3', 'target', 90, 'readback results', (1, {u'90.000000': 1}))
('2018-05-05 17:03:37', 'L1', 'target', 180, 'readback results', (1, {u'180.000000': 1}))
all settings updated
('2018-05-05 17:03:37', 'R1', 'target', 'ON', 'readback results', (1, {u'ON': 1}))
('2018-05-05 17:03:37', 'R2', 'target', 'ON', 'readback results', (1, {u'ON': 1}))
('2018-05-05 17:03:37', 'L4', 'target', 'ON', 'readback results', (1, {u'ON': 1}))
('2018-05-05 17:03:37', 'L2', 'target', 'ON', 'readback results', (1, {u'ON': 1}))
('2018-05-05 17:03:37', 'L3', 'target', 'ON', 'readback results', (1, {u'ON': 1}))
('2018-05-05 17:03:37', 'L1', 'target', 'ON', 'readback results', (1, {u'ON': 1}))
all states stable
timestamp(UTC):2018-05-05 17:03:39, fill:6645, run:315764, lumisection:230, orbit:60176652 -- L1:180, L2:90, L3:90, L4:60 -- start
timestamp(UTC):2018-05-05 17:07:21, fill:6645, run:315764, lumisection:240, orbit:62671231 -- L1:180, L2:90, L3:90, L4:60 -- stop
('2018-05-05 17:07:23', 'R1', 'target', 100, 'readback results', (1, {u'90.000000': 1}))
not fully updated yet
('2018-05-05 17:07:25', 'R1', 'target', 100, 'readback results', (1, {u'90.000000': 1}))
not fully updated yet
('2018-05-05 17:07:27', 'R1', 'target', 100, 'readback results', (1, {u'90.000000': 1}))
not fully updated yet
('2018-05-05 17:07:29', 'R1', 'target', 100, 'readback results', (1, {u'100.000000': 1}))
('2018-05-05 17:07:29', 'R2', 'target', 100, 'readback results', (1, {u'100.000000': 1}))
('2018-05-05 17:07:29', 'L4', 'target', 80, 'readback results', (1, {u'60.000000': 1}))
not fully updated yet
('2018-05-05 17:07:31', 'R1', 'target', 100, 'readback results', (1, {u'100.000000': 1}))
('2018-05-05 17:07:31', 'R2', 'target', 100, 'readback results', (1, {u'100.000000': 1}))
('2018-05-05 17:07:31', 'L4', 'target', 80, 'readback results', (1, {u'60.000000': 1}))
not fully updated yet
('2018-05-05 17:07:33', 'R1', 'target', 100, 'readback results', (1, {u'100.000000': 1}))
('2018-05-05 17:07:33', 'R2', 'target', 100, 'readback results', (1, {u'100.000000': 1}))
('2018-05-05 17:07:33', 'L4', 'target', 80, 'readback results', (1, {u'80.000000': 1}))
('2018-05-05 17:07:33', 'L2', 'target', 100, 'readback results', (1, {u'100.000000': 1}))
('2018-05-05 17:07:33', 'L3', 'target', 100, 'readback results', (1, {u'100.000000': 1}))
('2018-05-05 17:07:33', 'L1', 'target', 200, 'readback results', (1, {u'200.000000': 1}))
all settings updated
('2018-05-05 17:07:33', 'R1', 'target', 'ON', 'readback results', (1, {u'ON': 1}))
('2018-05-05 17:07:33', 'R2', 'target', 'ON', 'readback results', (1, {u'ON': 1}))
('2018-05-05 17:07:33', 'L4', 'target', 'ON', 'readback results', (1, {u'ON': 1}))
('2018-05-05 17:07:33', 'L2', 'target', 'ON', 'readback results', (1, {u'ON': 1}))
('2018-05-05 17:07:33', 'L3', 'target', 'ON', 'readback results', (1, {u'ON': 1}))
('2018-05-05 17:07:33', 'L1', 'target', 'ON', 'readback results', (1, {u'ON': 1}))
all states stable
timestamp(UTC):2018-05-05 17:07:35, fill:6645, run:315764, lumisection:240, orbit:62830841 -- L1:200, L2:100, L3:100, L4:80 -- start
timestamp(UTC):2018-05-05 17:11:14, fill:6645, run:315764, lumisection:250, orbit:65299490 -- L1:200, L2:100, L3:100, L4:80 -- stop
('2018-05-05 17:11:18', 'R1', 'target', 125, 'readback results', (1, {u'100.000000': 1}))
not fully updated yet
('2018-05-05 17:11:20', 'R1', 'target', 125, 'readback results', (1, {u'100.000000': 1}))
not fully updated yet
('2018-05-05 17:11:22', 'R1', 'target', 125, 'readback results', (1, {u'100.000000': 1}))
not fully updated yet
('2018-05-05 17:11:24', 'R1', 'target', 125, 'readback results', (1, {u'125.000000': 1}))
('2018-05-05 17:11:24', 'R2', 'target', 125, 'readback results', (1, {u'125.000000': 1}))
('2018-05-05 17:11:24', 'L4', 'target', 100, 'readback results', (1, {u'80.000000': 1}))
not fully updated yet
('2018-05-05 17:11:26', 'R1', 'target', 125, 'readback results', (1, {u'125.000000': 1}))
('2018-05-05 17:11:26', 'R2', 'target', 125, 'readback results', (1, {u'125.000000': 1}))
('2018-05-05 17:11:26', 'L4', 'target', 100, 'readback results', (1, {u'80.000000': 1}))
not fully updated yet
('2018-05-05 17:11:28', 'R1', 'target', 125, 'readback results', (1, {u'125.000000': 1}))
('2018-05-05 17:11:28', 'R2', 'target', 125, 'readback results', (1, {u'125.000000': 1}))
('2018-05-05 17:11:28', 'L4', 'target', 100, 'readback results', (1, {u'100.000000': 1}))
('2018-05-05 17:11:28', 'L2', 'target', 125, 'readback results', (1, {u'125.000000': 1}))
('2018-05-05 17:11:28', 'L3', 'target', 125, 'readback results', (1, {u'125.000000': 1}))
('2018-05-05 17:11:28', 'L1', 'target', 240, 'readback results', (1, {u'240.000000': 1}))
all settings updated
('2018-05-05 17:11:28', 'R1', 'target', 'ON', 'readback results', (1, {u'ON': 1}))
('2018-05-05 17:11:28', 'R2', 'target', 'ON', 'readback results', (1, {u'ON': 1}))
('2018-05-05 17:11:28', 'L4', 'target', 'ON', 'readback results', (1, {u'ON': 1}))
('2018-05-05 17:11:28', 'L2', 'target', 'ON', 'readback results', (1, {u'ON': 1}))
('2018-05-05 17:11:28', 'L3', 'target', 'ON', 'readback results', (1, {u'ON': 1}))
('2018-05-05 17:11:28', 'L1', 'target', 'ON', 'readback results', (1, {u'ON': 1}))
all states stable
timestamp(UTC):2018-05-05 17:11:29, fill:6645, run:315764, lumisection:250, orbit:65460761 -- L1:240, L2:125, L3:125, L4:100 -- start
timestamp(UTC):2018-05-05 17:15:08, fill:6645, run:315764, lumisection:260, orbit:67931853 -- L1:240, L2:125, L3:125, L4:100 -- stop
('2018-05-05 17:15:10', 'R1', 'target', 150, 'readback results', (1, {u'125.000000': 1}))
not fully updated yet
('2018-05-05 17:15:12', 'R1', 'target', 150, 'readback results', (1, {u'125.000000': 1}))
not fully updated yet
('2018-05-05 17:15:14', 'R1', 'target', 150, 'readback results', (1, {u'125.000000': 1}))
not fully updated yet
('2018-05-05 17:15:16', 'R1', 'target', 150, 'readback results', (1, {u'125.000000': 1}))
not fully updated yet
('2018-05-05 17:15:18', 'R1', 'target', 150, 'readback results', (1, {u'150.000000': 1}))
('2018-05-05 17:15:18', 'R2', 'target', 150, 'readback results', (1, {u'150.000000': 1}))
('2018-05-05 17:15:18', 'L4', 'target', 125, 'readback results', (1, {u'125.000000': 1}))
('2018-05-05 17:15:18', 'L2', 'target', 150, 'readback results', (1, {u'150.000000': 1}))
('2018-05-05 17:15:18', 'L3', 'target', 150, 'readback results', (1, {u'150.000000': 1}))
('2018-05-05 17:15:18', 'L1', 'target', 280, 'readback results', (1, {u'280.000000': 1}))
all settings updated
('2018-05-05 17:15:18', 'R1', 'target', 'ON', 'readback results', (1, {u'ON': 1}))
('2018-05-05 17:15:18', 'R2', 'target', 'ON', 'readback results', (1, {u'ON': 1}))
('2018-05-05 17:15:18', 'L4', 'target', 'ON', 'readback results', (1, {u'ON': 1}))
('2018-05-05 17:15:18', 'L2', 'target', 'ON', 'readback results', (1, {u'ON': 1}))
('2018-05-05 17:15:18', 'L3', 'target', 'ON', 'readback results', (1, {u'ON': 1}))
('2018-05-05 17:15:18', 'L1', 'target', 'ON', 'readback results', (1, {u'HVRAMPINGUP': 1}))
not stable yet
('2018-05-05 17:15:20', 'R1', 'target', 'ON', 'readback results', (1, {u'ON': 1}))
('2018-05-05 17:15:20', 'R2', 'target', 'ON', 'readback results', (1, {u'ON': 1}))
('2018-05-05 17:15:20', 'L4', 'target', 'ON', 'readback results', (1, {u'ON': 1}))
('2018-05-05 17:15:20', 'L2', 'target', 'ON', 'readback results', (1, {u'ON': 1}))
('2018-05-05 17:15:20', 'L3', 'target', 'ON', 'readback results', (1, {u'ON': 1}))
('2018-05-05 17:15:20', 'L1', 'target', 'ON', 'readback results', (1, {u'HVRAMPINGUP': 1}))
not stable yet
('2018-05-05 17:15:22', 'R1', 'target', 'ON', 'readback results', (1, {u'ON': 1}))
('2018-05-05 17:15:22', 'R2', 'target', 'ON', 'readback results', (1, {u'ON': 1}))
('2018-05-05 17:15:22', 'L4', 'target', 'ON', 'readback results', (1, {u'ON': 1}))
('2018-05-05 17:15:22', 'L2', 'target', 'ON', 'readback results', (1, {u'ON': 1}))
('2018-05-05 17:15:22', 'L3', 'target', 'ON', 'readback results', (1, {u'ON': 1}))
('2018-05-05 17:15:22', 'L1', 'target', 'ON', 'readback results', (1, {u'HVRAMPINGUP': 1}))
not stable yet
('2018-05-05 17:15:24', 'R1', 'target', 'ON', 'readback results', (1, {u'ON': 1}))
('2018-05-05 17:15:24', 'R2', 'target', 'ON', 'readback results', (1, {u'ON': 1}))
('2018-05-05 17:15:24', 'L4', 'target', 'ON', 'readback results', (1, {u'ON': 1}))
('2018-05-05 17:15:24', 'L2', 'target', 'ON', 'readback results', (1, {u'ON': 1}))
('2018-05-05 17:15:24', 'L3', 'target', 'ON', 'readback results', (1, {u'ON': 1}))
('2018-05-05 17:15:25', 'L1', 'target', 'ON', 'readback results', (1, {u'ON': 1}))
all states stable
timestamp(UTC):2018-05-05 17:15:25, fill:6645, run:315764, lumisection:260, orbit:68119359 -- L1:280, L2:150, L3:150, L4:125 -- start
timestamp(UTC):2018-05-05 17:18:59, fill:6645, run:315764, lumisection:270, orbit:70522726 -- L1:280, L2:150, L3:150, L4:125 -- stop
('2018-05-05 17:19:01', 'R1', 'target', 175, 'readback results', (1, {u'150.000000': 1}))
not fully updated yet
('2018-05-05 17:19:03', 'R1', 'target', 175, 'readback results', (1, {u'150.000000': 1}))
not fully updated yet
('2018-05-05 17:19:05', 'R1', 'target', 175, 'readback results', (1, {u'150.000000': 1}))
not fully updated yet
('2018-05-05 17:19:07', 'R1', 'target', 175, 'readback results', (1, {u'150.000000': 1}))
not fully updated yet
('2018-05-05 17:19:09', 'R1', 'target', 175, 'readback results', (1, {u'150.000000': 1}))
not fully updated yet
('2018-05-05 17:19:11', 'R1', 'target', 175, 'readback results', (1, {u'175.000000': 1}))
('2018-05-05 17:19:11', 'R2', 'target', 175, 'readback results', (1, {u'175.000000': 1}))
('2018-05-05 17:19:11', 'L4', 'target', 150, 'readback results', (1, {u'150.000000': 1}))
('2018-05-05 17:19:11', 'L2', 'target', 175, 'readback results', (1, {u'175.000000': 1}))
('2018-05-05 17:19:11', 'L3', 'target', 175, 'readback results', (1, {u'175.000000': 1}))
('2018-05-05 17:19:11', 'L1', 'target', 320, 'readback results', (1, {u'320.000000': 1}))
all settings updated
('2018-05-05 17:19:11', 'R1', 'target', 'ON', 'readback results', (1, {u'ON': 1}))
('2018-05-05 17:19:11', 'R2', 'target', 'ON', 'readback results', (1, {u'ON': 1}))
('2018-05-05 17:19:11', 'L4', 'target', 'ON', 'readback results', (1, {u'ON': 1}))
('2018-05-05 17:19:11', 'L2', 'target', 'ON', 'readback results', (1, {u'ON': 1}))
('2018-05-05 17:19:11', 'L3', 'target', 'ON', 'readback results', (1, {u'ON': 1}))
('2018-05-05 17:19:11', 'L1', 'target', 'ON', 'readback results', (1, {u'ON': 1}))
all states stable
timestamp(UTC):2018-05-05 17:19:13, fill:6645, run:315764, lumisection:270, orbit:70683404 -- L1:320, L2:175, L3:175, L4:150 -- start
timestamp(UTC):2018-05-05 17:22:53, fill:6645, run:315764, lumisection:280, orbit:73153756 -- L1:320, L2:175, L3:175, L4:150 -- stop
('2018-05-05 17:22:55', 'R1', 'target', 200, 'readback results', (1, {u'175.000000': 1}))
not fully updated yet
('2018-05-05 17:22:57', 'R1', 'target', 200, 'readback results', (1, {u'175.000000': 1}))
not fully updated yet
('2018-05-05 17:22:59', 'R1', 'target', 200, 'readback results', (1, {u'175.000000': 1}))
not fully updated yet
('2018-05-05 17:23:02', 'R1', 'target', 200, 'readback results', (1, {u'175.000000': 1}))
not fully updated yet
('2018-05-05 17:23:04', 'R1', 'target', 200, 'readback results', (1, {u'175.000000': 1}))
not fully updated yet
('2018-05-05 17:23:06', 'R1', 'target', 200, 'readback results', (1, {u'200.000000': 1}))
('2018-05-05 17:23:06', 'R2', 'target', 200, 'readback results', (1, {u'200.000000': 1}))
('2018-05-05 17:23:06', 'L4', 'target', 175, 'readback results', (1, {u'175.000000': 1}))
('2018-05-05 17:23:06', 'L2', 'target', 200, 'readback results', (1, {u'200.000000': 1}))
('2018-05-05 17:23:06', 'L3', 'target', 200, 'readback results', (1, {u'200.000000': 1}))
('2018-05-05 17:23:06', 'L1', 'target', 350, 'readback results', (1, {u'350.000000': 1}))
all settings updated
('2018-05-05 17:23:06', 'R1', 'target', 'ON', 'readback results', (1, {u'ON': 1}))
('2018-05-05 17:23:06', 'R2', 'target', 'ON', 'readback results', (1, {u'ON': 1}))
('2018-05-05 17:23:06', 'L4', 'target', 'ON', 'readback results', (1, {u'ON': 1}))
('2018-05-05 17:23:06', 'L2', 'target', 'ON', 'readback results', (1, {u'ON': 1}))
('2018-05-05 17:23:06', 'L3', 'target', 'ON', 'readback results', (1, {u'ON': 1}))
('2018-05-05 17:23:06', 'L1', 'target', 'ON', 'readback results', (1, {u'ON': 1}))
all states stable
timestamp(UTC):2018-05-05 17:23:07, fill:6645, run:315764, lumisection:280, orbit:73311203 -- L1:350, L2:200, L3:200, L4:175 -- start
timestamp(UTC):2018-05-05 17:26:46, fill:6645, run:315764, lumisection:290, orbit:75775055 -- L1:350, L2:200, L3:200, L4:175 -- stop
('2018-05-05 17:26:49', 'R1', 'target', 225, 'readback results', (1, {u'200.000000': 1}))
not fully updated yet
('2018-05-05 17:26:51', 'R1', 'target', 225, 'readback results', (1, {u'200.000000': 1}))
not fully updated yet
('2018-05-05 17:26:53', 'R1', 'target', 225, 'readback results', (1, {u'200.000000': 1}))
not fully updated yet
('2018-05-05 17:26:55', 'R1', 'target', 225, 'readback results', (1, {u'225.000000': 1}))
('2018-05-05 17:26:55', 'R2', 'target', 225, 'readback results', (1, {u'225.000000': 1}))
('2018-05-05 17:26:55', 'L4', 'target', 200, 'readback results', (1, {u'175.000000': 1}))
not fully updated yet
('2018-05-05 17:26:57', 'R1', 'target', 225, 'readback results', (1, {u'225.000000': 1}))
('2018-05-05 17:26:57', 'R2', 'target', 225, 'readback results', (1, {u'225.000000': 1}))
('2018-05-05 17:26:57', 'L4', 'target', 200, 'readback results', (1, {u'175.000000': 1}))
not fully updated yet
('2018-05-05 17:26:59', 'R1', 'target', 225, 'readback results', (1, {u'225.000000': 1}))
('2018-05-05 17:26:59', 'R2', 'target', 225, 'readback results', (1, {u'225.000000': 1}))
('2018-05-05 17:26:59', 'L4', 'target', 200, 'readback results', (1, {u'200.000000': 1}))
('2018-05-05 17:26:59', 'L2', 'target', 225, 'readback results', (1, {u'225.000000': 1}))
('2018-05-05 17:26:59', 'L3', 'target', 225, 'readback results', (1, {u'225.000000': 1}))
('2018-05-05 17:26:59', 'L1', 'target', 400, 'readback results', (1, {u'400.000000': 1}))
all settings updated
('2018-05-05 17:26:59', 'R1', 'target', 'ON', 'readback results', (1, {u'ON': 1}))
('2018-05-05 17:26:59', 'R2', 'target', 'ON', 'readback results', (1, {u'ON': 1}))
('2018-05-05 17:26:59', 'L4', 'target', 'ON', 'readback results', (1, {u'ON': 1}))
('2018-05-05 17:26:59', 'L2', 'target', 'ON', 'readback results', (1, {u'ON': 1}))
('2018-05-05 17:26:59', 'L3', 'target', 'ON', 'readback results', (1, {u'ON': 1}))
('2018-05-05 17:26:59', 'L1', 'target', 'ON', 'readback results', (1, {u'ON': 1}))
all states stable
timestamp(UTC):2018-05-05 17:27:00, fill:6645, run:315764, lumisection:290, orbit:75933126 -- L1:400, L2:225, L3:225, L4:200 -- start
timestamp(UTC):2018-05-05 17:30:39, fill:6645, run:315764, lumisection:300, orbit:78397728 -- L1:400, L2:225, L3:225, L4:200 -- stop
('2018-05-05 17:30:42', 'R1', 'target', 250, 'readback results', (1, {u'225.000000': 1}))
not fully updated yet
('2018-05-05 17:30:44', 'R1', 'target', 250, 'readback results', (1, {u'225.000000': 1}))
not fully updated yet
('2018-05-05 17:30:46', 'R1', 'target', 250, 'readback results', (1, {u'225.000000': 1}))
not fully updated yet
('2018-05-05 17:30:48', 'R1', 'target', 250, 'readback results', (1, {u'225.000000': 1}))
not fully updated yet
('2018-05-05 17:30:50', 'R1', 'target', 250, 'readback results', (1, {u'250.000000': 1}))
('2018-05-05 17:30:50', 'R2', 'target', 250, 'readback results', (1, {u'250.000000': 1}))
('2018-05-05 17:30:50', 'L4', 'target', 250, 'readback results', (1, {u'250.000000': 1}))
('2018-05-05 17:30:50', 'L2', 'target', 250, 'readback results', (1, {u'250.000000': 1}))
('2018-05-05 17:30:50', 'L3', 'target', 250, 'readback results', (1, {u'250.000000': 1}))
('2018-05-05 17:30:50', 'L1', 'target', 10, 'readback results', (1, {u'10.000000': 1}))
all settings updated
('2018-05-05 17:30:50', 'R1', 'target', 'ON', 'readback results', (1, {u'HVRAMPINGUP': 1}))
not stable yet
('2018-05-05 17:30:52', 'R1', 'target', 'ON', 'readback results', (1, {u'HVRAMPINGUP': 1}))
not stable yet
('2018-05-05 17:30:54', 'R1', 'target', 'ON', 'readback results', (1, {u'ON': 1}))
('2018-05-05 17:30:54', 'R2', 'target', 'ON', 'readback results', (1, {u'ON': 1}))
('2018-05-05 17:30:54', 'L4', 'target', 'ON', 'readback results', (1, {u'ON': 1}))
('2018-05-05 17:30:54', 'L2', 'target', 'ON', 'readback results', (1, {u'ON': 1}))
('2018-05-05 17:30:54', 'L3', 'target', 'ON', 'readback results', (1, {u'ON': 1}))
('2018-05-05 17:30:54', 'L1', 'target', 'ON', 'readback results', (1, {u'HVRAMPINGDOWN': 1}))
not stable yet
('2018-05-05 17:30:56', 'R1', 'target', 'ON', 'readback results', (1, {u'ON': 1}))
('2018-05-05 17:30:56', 'R2', 'target', 'ON', 'readback results', (1, {u'ON': 1}))
('2018-05-05 17:30:56', 'L4', 'target', 'ON', 'readback results', (1, {u'ON': 1}))
('2018-05-05 17:30:56', 'L2', 'target', 'ON', 'readback results', (1, {u'ON': 1}))
('2018-05-05 17:30:56', 'L3', 'target', 'ON', 'readback results', (1, {u'ON': 1}))
('2018-05-05 17:30:56', 'L1', 'target', 'ON', 'readback results', (1, {u'HVRAMPINGDOWN': 1}))
not stable yet
('2018-05-05 17:30:58', 'R1', 'target', 'ON', 'readback results', (1, {u'ON': 1}))
('2018-05-05 17:30:58', 'R2', 'target', 'ON', 'readback results', (1, {u'ON': 1}))
('2018-05-05 17:30:58', 'L4', 'target', 'ON', 'readback results', (1, {u'ON': 1}))
('2018-05-05 17:30:58', 'L2', 'target', 'ON', 'readback results', (1, {u'ON': 1}))
('2018-05-05 17:30:58', 'L3', 'target', 'ON', 'readback results', (1, {u'ON': 1}))
('2018-05-05 17:30:58', 'L1', 'target', 'ON', 'readback results', (1, {u'HVRAMPINGDOWN': 1}))
not stable yet
('2018-05-05 17:31:00', 'R1', 'target', 'ON', 'readback results', (1, {u'ON': 1}))
('2018-05-05 17:31:00', 'R2', 'target', 'ON', 'readback results', (1, {u'ON': 1}))
('2018-05-05 17:31:00', 'L4', 'target', 'ON', 'readback results', (1, {u'ON': 1}))
('2018-05-05 17:31:00', 'L2', 'target', 'ON', 'readback results', (1, {u'ON': 1}))
('2018-05-05 17:31:00', 'L3', 'target', 'ON', 'readback results', (1, {u'ON': 1}))
('2018-05-05 17:31:00', 'L1', 'target', 'ON', 'readback results', (1, {u'HVRAMPINGDOWN': 1}))
not stable yet
('2018-05-05 17:31:03', 'R1', 'target', 'ON', 'readback results', (1, {u'ON': 1}))
('2018-05-05 17:31:03', 'R2', 'target', 'ON', 'readback results', (1, {u'ON': 1}))
('2018-05-05 17:31:03', 'L4', 'target', 'ON', 'readback results', (1, {u'ON': 1}))
('2018-05-05 17:31:03', 'L2', 'target', 'ON', 'readback results', (1, {u'ON': 1}))
('2018-05-05 17:31:03', 'L3', 'target', 'ON', 'readback results', (1, {u'ON': 1}))
('2018-05-05 17:31:03', 'L1', 'target', 'ON', 'readback results', (1, {u'HVRAMPINGDOWN': 1}))
not stable yet
('2018-05-05 17:31:05', 'R1', 'target', 'ON', 'readback results', (1, {u'ON': 1}))
('2018-05-05 17:31:05', 'R2', 'target', 'ON', 'readback results', (1, {u'ON': 1}))
('2018-05-05 17:31:05', 'L4', 'target', 'ON', 'readback results', (1, {u'ON': 1}))
('2018-05-05 17:31:05', 'L2', 'target', 'ON', 'readback results', (1, {u'ON': 1}))
('2018-05-05 17:31:05', 'L3', 'target', 'ON', 'readback results', (1, {u'ON': 1}))
('2018-05-05 17:31:05', 'L1', 'target', 'ON', 'readback results', (1, {u'HVRAMPINGDOWN': 1}))
not stable yet
('2018-05-05 17:31:07', 'R1', 'target', 'ON', 'readback results', (1, {u'ON': 1}))
('2018-05-05 17:31:07', 'R2', 'target', 'ON', 'readback results', (1, {u'ON': 1}))
('2018-05-05 17:31:07', 'L4', 'target', 'ON', 'readback results', (1, {u'ON': 1}))
('2018-05-05 17:31:07', 'L2', 'target', 'ON', 'readback results', (1, {u'ON': 1}))
('2018-05-05 17:31:07', 'L3', 'target', 'ON', 'readback results', (1, {u'ON': 1}))
('2018-05-05 17:31:07', 'L1', 'target', 'ON', 'readback results', (1, {u'HVRAMPINGDOWN': 1}))
not stable yet
('2018-05-05 17:31:09', 'R1', 'target', 'ON', 'readback results', (1, {u'ON': 1}))
('2018-05-05 17:31:09', 'R2', 'target', 'ON', 'readback results', (1, {u'ON': 1}))
('2018-05-05 17:31:09', 'L4', 'target', 'ON', 'readback results', (1, {u'ON': 1}))
('2018-05-05 17:31:09', 'L2', 'target', 'ON', 'readback results', (1, {u'ON': 1}))
('2018-05-05 17:31:09', 'L3', 'target', 'ON', 'readback results', (1, {u'ON': 1}))
('2018-05-05 17:31:09', 'L1', 'target', 'ON', 'readback results', (1, {u'HVRAMPINGDOWN': 1}))
not stable yet
('2018-05-05 17:31:11', 'R1', 'target', 'ON', 'readback results', (1, {u'ON': 1}))
('2018-05-05 17:31:11', 'R2', 'target', 'ON', 'readback results', (1, {u'ON': 1}))
('2018-05-05 17:31:11', 'L4', 'target', 'ON', 'readback results', (1, {u'ON': 1}))
('2018-05-05 17:31:11', 'L2', 'target', 'ON', 'readback results', (1, {u'ON': 1}))
('2018-05-05 17:31:11', 'L3', 'target', 'ON', 'readback results', (1, {u'ON': 1}))
('2018-05-05 17:31:11', 'L1', 'target', 'ON', 'readback results', (1, {u'HVRAMPINGDOWN': 1}))
not stable yet
('2018-05-05 17:31:13', 'R1', 'target', 'ON', 'readback results', (1, {u'ON': 1}))
('2018-05-05 17:31:13', 'R2', 'target', 'ON', 'readback results', (1, {u'ON': 1}))
('2018-05-05 17:31:13', 'L4', 'target', 'ON', 'readback results', (1, {u'ON': 1}))
('2018-05-05 17:31:13', 'L2', 'target', 'ON', 'readback results', (1, {u'ON': 1}))
('2018-05-05 17:31:13', 'L3', 'target', 'ON', 'readback results', (1, {u'ON': 1}))
('2018-05-05 17:31:13', 'L1', 'target', 'ON', 'readback results', (1, {u'HVRAMPINGDOWN': 1}))
not stable yet
('2018-05-05 17:31:15', 'R1', 'target', 'ON', 'readback results', (1, {u'ON': 1}))
('2018-05-05 17:31:15', 'R2', 'target', 'ON', 'readback results', (1, {u'ON': 1}))
('2018-05-05 17:31:15', 'L4', 'target', 'ON', 'readback results', (1, {u'ON': 1}))
('2018-05-05 17:31:15', 'L2', 'target', 'ON', 'readback results', (1, {u'ON': 1}))
('2018-05-05 17:31:15', 'L3', 'target', 'ON', 'readback results', (1, {u'ON': 1}))
('2018-05-05 17:31:15', 'L1', 'target', 'ON', 'readback results', (1, {u'HVRAMPINGDOWN': 1}))
not stable yet
('2018-05-05 17:31:17', 'R1', 'target', 'ON', 'readback results', (1, {u'ON': 1}))
('2018-05-05 17:31:17', 'R2', 'target', 'ON', 'readback results', (1, {u'ON': 1}))
('2018-05-05 17:31:17', 'L4', 'target', 'ON', 'readback results', (1, {u'ON': 1}))
('2018-05-05 17:31:17', 'L2', 'target', 'ON', 'readback results', (1, {u'ON': 1}))
('2018-05-05 17:31:17', 'L3', 'target', 'ON', 'readback results', (1, {u'ON': 1}))
('2018-05-05 17:31:17', 'L1', 'target', 'ON', 'readback results', (1, {u'HVRAMPINGDOWN': 1}))
not stable yet
('2018-05-05 17:31:19', 'R1', 'target', 'ON', 'readback results', (1, {u'ON': 1}))
('2018-05-05 17:31:19', 'R2', 'target', 'ON', 'readback results', (1, {u'ON': 1}))
('2018-05-05 17:31:19', 'L4', 'target', 'ON', 'readback results', (1, {u'ON': 1}))
('2018-05-05 17:31:19', 'L2', 'target', 'ON', 'readback results', (1, {u'ON': 1}))
('2018-05-05 17:31:19', 'L3', 'target', 'ON', 'readback results', (1, {u'ON': 1}))
('2018-05-05 17:31:20', 'L1', 'target', 'ON', 'readback results', (1, {u'HVRAMPINGDOWN': 1}))
not stable yet
('2018-05-05 17:31:22', 'R1', 'target', 'ON', 'readback results', (1, {u'ON': 1}))
('2018-05-05 17:31:22', 'R2', 'target', 'ON', 'readback results', (1, {u'ON': 1}))
('2018-05-05 17:31:22', 'L4', 'target', 'ON', 'readback results', (1, {u'ON': 1}))
('2018-05-05 17:31:22', 'L2', 'target', 'ON', 'readback results', (1, {u'ON': 1}))
('2018-05-05 17:31:22', 'L3', 'target', 'ON', 'readback results', (1, {u'ON': 1}))
('2018-05-05 17:31:22', 'L1', 'target', 'ON', 'readback results', (1, {u'HVRAMPINGDOWN': 1}))
not stable yet
('2018-05-05 17:31:24', 'R1', 'target', 'ON', 'readback results', (1, {u'ON': 1}))
('2018-05-05 17:31:24', 'R2', 'target', 'ON', 'readback results', (1, {u'ON': 1}))
('2018-05-05 17:31:24', 'L4', 'target', 'ON', 'readback results', (1, {u'ON': 1}))
('2018-05-05 17:31:24', 'L2', 'target', 'ON', 'readback results', (1, {u'ON': 1}))
('2018-05-05 17:31:24', 'L3', 'target', 'ON', 'readback results', (1, {u'ON': 1}))
('2018-05-05 17:31:24', 'L1', 'target', 'ON', 'readback results', (1, {u'HVRAMPINGDOWN': 1}))
not stable yet
('2018-05-05 17:31:26', 'R1', 'target', 'ON', 'readback results', (1, {u'ON': 1}))
('2018-05-05 17:31:26', 'R2', 'target', 'ON', 'readback results', (1, {u'ON': 1}))
('2018-05-05 17:31:26', 'L4', 'target', 'ON', 'readback results', (1, {u'ON': 1}))
('2018-05-05 17:31:26', 'L2', 'target', 'ON', 'readback results', (1, {u'ON': 1}))
('2018-05-05 17:31:26', 'L3', 'target', 'ON', 'readback results', (1, {u'ON': 1}))
('2018-05-05 17:31:26', 'L1', 'target', 'ON', 'readback results', (1, {u'HVRAMPINGDOWN': 1}))
not stable yet
('2018-05-05 17:31:28', 'R1', 'target', 'ON', 'readback results', (1, {u'ON': 1}))
('2018-05-05 17:31:28', 'R2', 'target', 'ON', 'readback results', (1, {u'ON': 1}))
('2018-05-05 17:31:28', 'L4', 'target', 'ON', 'readback results', (1, {u'ON': 1}))
('2018-05-05 17:31:28', 'L2', 'target', 'ON', 'readback results', (1, {u'ON': 1}))
('2018-05-05 17:31:28', 'L3', 'target', 'ON', 'readback results', (1, {u'ON': 1}))
('2018-05-05 17:31:28', 'L1', 'target', 'ON', 'readback results', (1, {u'HVRAMPINGDOWN': 1}))
not stable yet
('2018-05-05 17:31:30', 'R1', 'target', 'ON', 'readback results', (1, {u'ON': 1}))
('2018-05-05 17:31:30', 'R2', 'target', 'ON', 'readback results', (1, {u'ON': 1}))
('2018-05-05 17:31:30', 'L4', 'target', 'ON', 'readback results', (1, {u'ON': 1}))
('2018-05-05 17:31:30', 'L2', 'target', 'ON', 'readback results', (1, {u'ON': 1}))
('2018-05-05 17:31:30', 'L3', 'target', 'ON', 'readback results', (1, {u'ON': 1}))
('2018-05-05 17:31:30', 'L1', 'target', 'ON', 'readback results', (1, {u'ON': 1}))
all states stable
timestamp(UTC):2018-05-05 17:31:32, fill:6645, run:315764, lumisection:302, orbit:78988711 -- L1:10, L2:250, L3:250, L4:250 -- start
timestamp(UTC):2018-05-05 17:35:18, fill:6645, run:315764, lumisection:312, orbit:81533957 -- L1:10, L2:250, L3:250, L4:250 -- stop
('2018-05-05 17:35:20', 'R1', 'target', 300, 'readback results', (1, {u'250.000000': 1}))
not fully updated yet
('2018-05-05 17:35:22', 'R1', 'target', 300, 'readback results', (1, {u'250.000000': 1}))
not fully updated yet
('2018-05-05 17:35:25', 'R1', 'target', 300, 'readback results', (1, {u'250.000000': 1}))
not fully updated yet
('2018-05-05 17:35:27', 'R1', 'target', 300, 'readback results', (1, {u'250.000000': 1}))
not fully updated yet
('2018-05-05 17:35:29', 'R1', 'target', 300, 'readback results', (1, {u'300.000000': 1}))
('2018-05-05 17:35:29', 'R2', 'target', 300, 'readback results', (1, {u'300.000000': 1}))
('2018-05-05 17:35:29', 'L4', 'target', 300, 'readback results', (1, {u'300.000000': 1}))
('2018-05-05 17:35:29', 'L2', 'target', 300, 'readback results', (1, {u'300.000000': 1}))
('2018-05-05 17:35:29', 'L3', 'target', 300, 'readback results', (1, {u'300.000000': 1}))
('2018-05-05 17:35:29', 'L1', 'target', 30, 'readback results', (1, {u'30.000000': 1}))
all settings updated
('2018-05-05 17:35:29', 'R1', 'target', 'ON', 'readback results', (1, {u'HVRAMPINGUP': 1}))
not stable yet
('2018-05-05 17:35:31', 'R1', 'target', 'ON', 'readback results', (1, {u'HVRAMPINGUP': 1}))
not stable yet
('2018-05-05 17:35:33', 'R1', 'target', 'ON', 'readback results', (1, {u'ON': 1}))
('2018-05-05 17:35:33', 'R2', 'target', 'ON', 'readback results', (1, {u'ON': 1}))
('2018-05-05 17:35:33', 'L4', 'target', 'ON', 'readback results', (1, {u'ON': 1}))
('2018-05-05 17:35:33', 'L2', 'target', 'ON', 'readback results', (1, {u'ON': 1}))
('2018-05-05 17:35:33', 'L3', 'target', 'ON', 'readback results', (1, {u'ON': 1}))
('2018-05-05 17:35:33', 'L1', 'target', 'ON', 'readback results', (1, {u'ON': 1}))
all states stable
timestamp(UTC):2018-05-05 17:35:34, fill:6645, run:315764, lumisection:312, orbit:81716554 -- L1:30, L2:300, L3:300, L4:300 -- start
