('2018-08-31 22:15:27', 'R1', 'target', 10, 'readback results', (1, {u'300.000000': 1}))
not fully updated yet
('2018-08-31 22:15:29', 'R1', 'target', 10, 'readback results', (1, {u'300.000000': 1}))
not fully updated yet
('2018-08-31 22:15:31', 'R1', 'target', 10, 'readback results', (1, {u'300.000000': 1}))
not fully updated yet
('2018-08-31 22:15:33', 'R1', 'target', 10, 'readback results', (1, {u'300.000000': 1}))
not fully updated yet
('2018-08-31 22:15:35', 'R1', 'target', 10, 'readback results', (1, {u'10.000000': 1}))
('2018-08-31 22:15:35', 'R2', 'target', 10, 'readback results', (1, {u'10.000000': 1}))
('2018-08-31 22:15:35', 'L4', 'target', 5, 'readback results', (1, {u'5.000000': 1}))
('2018-08-31 22:15:36', 'L2', 'target', 10, 'readback results', (1, {u'10.000000': 1}))
('2018-08-31 22:15:36', 'L3', 'target', 10, 'readback results', (1, {u'10.000000': 1}))
('2018-08-31 22:15:36', 'L1', 'target', 20, 'readback results', (1, {u'20.000000': 1}))
all settings updated
('2018-08-31 22:15:36', 'R1', 'target', 'ON', 'readback results', (1, {u'HVRAMPINGDOWN': 1}))
not stable yet
('2018-08-31 22:15:38', 'R1', 'target', 'ON', 'readback results', (1, {u'HVRAMPINGDOWN': 1}))
not stable yet
('2018-08-31 22:15:40', 'R1', 'target', 'ON', 'readback results', (1, {u'HVRAMPINGDOWN': 1}))
not stable yet
('2018-08-31 22:15:42', 'R1', 'target', 'ON', 'readback results', (1, {u'HVRAMPINGDOWN': 1}))
not stable yet
('2018-08-31 22:15:44', 'R1', 'target', 'ON', 'readback results', (1, {u'HVRAMPINGDOWN': 1}))
not stable yet
('2018-08-31 22:15:46', 'R1', 'target', 'ON', 'readback results', (1, {u'HVRAMPINGDOWN': 1}))
not stable yet
('2018-08-31 22:15:48', 'R1', 'target', 'ON', 'readback results', (1, {u'HVRAMPINGDOWN': 1}))
not stable yet
('2018-08-31 22:15:50', 'R1', 'target', 'ON', 'readback results', (1, {u'HVRAMPINGDOWN': 1}))
not stable yet
('2018-08-31 22:15:52', 'R1', 'target', 'ON', 'readback results', (1, {u'HVRAMPINGDOWN': 1}))
not stable yet
('2018-08-31 22:15:54', 'R1', 'target', 'ON', 'readback results', (1, {u'HVRAMPINGDOWN': 1}))
not stable yet
('2018-08-31 22:15:56', 'R1', 'target', 'ON', 'readback results', (1, {u'HVRAMPINGDOWN': 1}))
not stable yet
('2018-08-31 22:15:58', 'R1', 'target', 'ON', 'readback results', (1, {u'HVRAMPINGDOWN': 1}))
not stable yet
('2018-08-31 22:16:00', 'R1', 'target', 'ON', 'readback results', (1, {u'HVRAMPINGDOWN': 1}))
not stable yet
('2018-08-31 22:16:02', 'R1', 'target', 'ON', 'readback results', (1, {u'HVRAMPINGDOWN': 1}))
not stable yet
('2018-08-31 22:16:04', 'R1', 'target', 'ON', 'readback results', (1, {u'HVRAMPINGDOWN': 1}))
not stable yet
('2018-08-31 22:16:06', 'R1', 'target', 'ON', 'readback results', (1, {u'ON': 1}))
('2018-08-31 22:16:06', 'R2', 'target', 'ON', 'readback results', (1, {u'ON': 1}))
('2018-08-31 22:16:06', 'L4', 'target', 'ON', 'readback results', (1, {u'ON': 1}))
('2018-08-31 22:16:06', 'L2', 'target', 'ON', 'readback results', (1, {u'ON': 1}))
('2018-08-31 22:16:06', 'L3', 'target', 'ON', 'readback results', (1, {u'ON': 1}))
('2018-08-31 22:16:06', 'L1', 'target', 'ON', 'readback results', (1, {u'HVRAMPINGDOWN': 1}))
not stable yet
('2018-08-31 22:16:08', 'R1', 'target', 'ON', 'readback results', (1, {u'ON': 1}))
('2018-08-31 22:16:08', 'R2', 'target', 'ON', 'readback results', (1, {u'ON': 1}))
('2018-08-31 22:16:08', 'L4', 'target', 'ON', 'readback results', (1, {u'ON': 1}))
('2018-08-31 22:16:08', 'L2', 'target', 'ON', 'readback results', (1, {u'ON': 1}))
('2018-08-31 22:16:08', 'L3', 'target', 'ON', 'readback results', (1, {u'ON': 1}))
('2018-08-31 22:16:08', 'L1', 'target', 'ON', 'readback results', (1, {u'HVRAMPINGDOWN': 1}))
not stable yet
('2018-08-31 22:16:10', 'R1', 'target', 'ON', 'readback results', (1, {u'ON': 1}))
('2018-08-31 22:16:10', 'R2', 'target', 'ON', 'readback results', (1, {u'ON': 1}))
('2018-08-31 22:16:10', 'L4', 'target', 'ON', 'readback results', (1, {u'ON': 1}))
('2018-08-31 22:16:10', 'L2', 'target', 'ON', 'readback results', (1, {u'ON': 1}))
('2018-08-31 22:16:10', 'L3', 'target', 'ON', 'readback results', (1, {u'ON': 1}))
('2018-08-31 22:16:10', 'L1', 'target', 'ON', 'readback results', (1, {u'HVRAMPINGDOWN': 1}))
not stable yet
('2018-08-31 22:16:12', 'R1', 'target', 'ON', 'readback results', (1, {u'ON': 1}))
('2018-08-31 22:16:12', 'R2', 'target', 'ON', 'readback results', (1, {u'ON': 1}))
('2018-08-31 22:16:12', 'L4', 'target', 'ON', 'readback results', (1, {u'ON': 1}))
('2018-08-31 22:16:12', 'L2', 'target', 'ON', 'readback results', (1, {u'ON': 1}))
('2018-08-31 22:16:12', 'L3', 'target', 'ON', 'readback results', (1, {u'ON': 1}))
('2018-08-31 22:16:12', 'L1', 'target', 'ON', 'readback results', (1, {u'HVRAMPINGDOWN': 1}))
not stable yet
('2018-08-31 22:16:14', 'R1', 'target', 'ON', 'readback results', (1, {u'ON': 1}))
('2018-08-31 22:16:14', 'R2', 'target', 'ON', 'readback results', (1, {u'ON': 1}))
('2018-08-31 22:16:14', 'L4', 'target', 'ON', 'readback results', (1, {u'ON': 1}))
('2018-08-31 22:16:14', 'L2', 'target', 'ON', 'readback results', (1, {u'ON': 1}))
('2018-08-31 22:16:14', 'L3', 'target', 'ON', 'readback results', (1, {u'ON': 1}))
('2018-08-31 22:16:14', 'L1', 'target', 'ON', 'readback results', (1, {u'HVRAMPINGDOWN': 1}))
not stable yet
('2018-08-31 22:16:16', 'R1', 'target', 'ON', 'readback results', (1, {u'ON': 1}))
('2018-08-31 22:16:16', 'R2', 'target', 'ON', 'readback results', (1, {u'ON': 1}))
('2018-08-31 22:16:16', 'L4', 'target', 'ON', 'readback results', (1, {u'ON': 1}))
('2018-08-31 22:16:16', 'L2', 'target', 'ON', 'readback results', (1, {u'ON': 1}))
('2018-08-31 22:16:17', 'L3', 'target', 'ON', 'readback results', (1, {u'ON': 1}))
('2018-08-31 22:16:17', 'L1', 'target', 'ON', 'readback results', (1, {u'ON': 1}))
all states stable
timestamp(UTC):2018-08-31 22:16:17, fill:7110, run:322022, lumisection:230, orbit:60279961 -- L1:20, L2:10, L3:10, L4:5, R1:10, R2:10 -- start
timestamp(UTC):2018-08-31 22:20:14, fill:7110, run:322022, lumisection:241, orbit:62943225 -- L1:20, L2:10, L3:10, L4:5, R1:10, R2:10 -- stop
('2018-08-31 22:20:17', 'R1', 'target', 20, 'readback results', (1, {u'10.000000': 1}))
not fully updated yet
('2018-08-31 22:20:19', 'R1', 'target', 20, 'readback results', (1, {u'10.000000': 1}))
not fully updated yet
('2018-08-31 22:20:21', 'R1', 'target', 20, 'readback results', (1, {u'10.000000': 1}))
not fully updated yet
('2018-08-31 22:20:23', 'R1', 'target', 20, 'readback results', (1, {u'10.000000': 1}))
not fully updated yet
('2018-08-31 22:20:25', 'R1', 'target', 20, 'readback results', (1, {u'20.000000': 1}))
('2018-08-31 22:20:25', 'R2', 'target', 20, 'readback results', (1, {u'20.000000': 1}))
('2018-08-31 22:20:25', 'L4', 'target', 10, 'readback results', (1, {u'10.000000': 1}))
('2018-08-31 22:20:25', 'L2', 'target', 20, 'readback results', (1, {u'20.000000': 1}))
('2018-08-31 22:20:25', 'L3', 'target', 20, 'readback results', (1, {u'20.000000': 1}))
('2018-08-31 22:20:25', 'L1', 'target', 40, 'readback results', (1, {u'40.000000': 1}))
all settings updated
('2018-08-31 22:20:25', 'R1', 'target', 'ON', 'readback results', (1, {u'ON': 1}))
('2018-08-31 22:20:25', 'R2', 'target', 'ON', 'readback results', (1, {u'ON': 1}))
('2018-08-31 22:20:25', 'L4', 'target', 'ON', 'readback results', (1, {u'ON': 1}))
('2018-08-31 22:20:25', 'L2', 'target', 'ON', 'readback results', (1, {u'ON': 1}))
('2018-08-31 22:20:25', 'L3', 'target', 'ON', 'readback results', (1, {u'ON': 1}))
('2018-08-31 22:20:25', 'L1', 'target', 'ON', 'readback results', (1, {u'ON': 1}))
all states stable
timestamp(UTC):2018-08-31 22:20:26, fill:7110, run:322022, lumisection:241, orbit:63075867 -- L1:40, L2:20, L3:20, L4:10, R1:20, R2:20 -- start
timestamp(UTC):2018-08-31 22:24:06, fill:7110, run:322022, lumisection:251, orbit:65549032 -- L1:40, L2:20, L3:20, L4:10, R1:20, R2:20 -- stop
('2018-08-31 22:24:08', 'R1', 'target', 30, 'readback results', (1, {u'20.000000': 1}))
not fully updated yet
('2018-08-31 22:24:10', 'R1', 'target', 30, 'readback results', (1, {u'20.000000': 1}))
not fully updated yet
('2018-08-31 22:24:12', 'R1', 'target', 30, 'readback results', (1, {u'30.000000': 1}))
('2018-08-31 22:24:12', 'R2', 'target', 30, 'readback results', (1, {u'30.000000': 1}))
('2018-08-31 22:24:12', 'L4', 'target', 15, 'readback results', (1, {u'10.000000': 1}))
not fully updated yet
('2018-08-31 22:24:14', 'R1', 'target', 30, 'readback results', (1, {u'30.000000': 1}))
('2018-08-31 22:24:14', 'R2', 'target', 30, 'readback results', (1, {u'30.000000': 1}))
('2018-08-31 22:24:14', 'L4', 'target', 15, 'readback results', (1, {u'10.000000': 1}))
not fully updated yet
('2018-08-31 22:24:16', 'R1', 'target', 30, 'readback results', (1, {u'30.000000': 1}))
('2018-08-31 22:24:16', 'R2', 'target', 30, 'readback results', (1, {u'30.000000': 1}))
('2018-08-31 22:24:16', 'L4', 'target', 15, 'readback results', (1, {u'10.000000': 1}))
not fully updated yet
('2018-08-31 22:24:19', 'R1', 'target', 30, 'readback results', (1, {u'30.000000': 1}))
('2018-08-31 22:24:19', 'R2', 'target', 30, 'readback results', (1, {u'30.000000': 1}))
('2018-08-31 22:24:19', 'L4', 'target', 15, 'readback results', (1, {u'15.000000': 1}))
('2018-08-31 22:24:19', 'L2', 'target', 30, 'readback results', (1, {u'30.000000': 1}))
('2018-08-31 22:24:19', 'L3', 'target', 30, 'readback results', (1, {u'30.000000': 1}))
('2018-08-31 22:24:19', 'L1', 'target', 60, 'readback results', (1, {u'60.000000': 1}))
all settings updated
('2018-08-31 22:24:19', 'R1', 'target', 'ON', 'readback results', (1, {u'ON': 1}))
('2018-08-31 22:24:19', 'R2', 'target', 'ON', 'readback results', (1, {u'ON': 1}))
('2018-08-31 22:24:19', 'L4', 'target', 'ON', 'readback results', (1, {u'ON': 1}))
('2018-08-31 22:24:19', 'L2', 'target', 'ON', 'readback results', (1, {u'ON': 1}))
('2018-08-31 22:24:19', 'L3', 'target', 'ON', 'readback results', (1, {u'ON': 1}))
('2018-08-31 22:24:19', 'L1', 'target', 'ON', 'readback results', (1, {u'ON': 1}))
all states stable
timestamp(UTC):2018-08-31 22:24:20, fill:7110, run:322022, lumisection:251, orbit:65683169 -- L1:60, L2:30, L3:30, L4:15, R1:30, R2:30 -- start
timestamp(UTC):2018-08-31 22:28:00, fill:7110, run:322022, lumisection:261, orbit:68178385 -- L1:60, L2:30, L3:30, L4:15, R1:30, R2:30 -- stop
('2018-08-31 22:28:02', 'R1', 'target', 40, 'readback results', (1, {u'30.000000': 1}))
not fully updated yet
('2018-08-31 22:28:04', 'R1', 'target', 40, 'readback results', (1, {u'30.000000': 1}))
not fully updated yet
('2018-08-31 22:28:06', 'R1', 'target', 40, 'readback results', (1, {u'40.000000': 1}))
('2018-08-31 22:28:06', 'R2', 'target', 40, 'readback results', (1, {u'40.000000': 1}))
('2018-08-31 22:28:06', 'L4', 'target', 20, 'readback results', (1, {u'15.000000': 1}))
not fully updated yet
('2018-08-31 22:28:08', 'R1', 'target', 40, 'readback results', (1, {u'40.000000': 1}))
('2018-08-31 22:28:08', 'R2', 'target', 40, 'readback results', (1, {u'40.000000': 1}))
('2018-08-31 22:28:08', 'L4', 'target', 20, 'readback results', (1, {u'15.000000': 1}))
not fully updated yet
('2018-08-31 22:28:11', 'R1', 'target', 40, 'readback results', (1, {u'40.000000': 1}))
('2018-08-31 22:28:11', 'R2', 'target', 40, 'readback results', (1, {u'40.000000': 1}))
('2018-08-31 22:28:11', 'L4', 'target', 20, 'readback results', (1, {u'15.000000': 1}))
not fully updated yet
('2018-08-31 22:28:13', 'R1', 'target', 40, 'readback results', (1, {u'40.000000': 1}))
('2018-08-31 22:28:13', 'R2', 'target', 40, 'readback results', (1, {u'40.000000': 1}))
('2018-08-31 22:28:13', 'L4', 'target', 20, 'readback results', (1, {u'20.000000': 1}))
('2018-08-31 22:28:13', 'L2', 'target', 40, 'readback results', (1, {u'40.000000': 1}))
('2018-08-31 22:28:13', 'L3', 'target', 40, 'readback results', (1, {u'40.000000': 1}))
('2018-08-31 22:28:13', 'L1', 'target', 80, 'readback results', (1, {u'80.000000': 1}))
all settings updated
('2018-08-31 22:28:13', 'R1', 'target', 'ON', 'readback results', (1, {u'ON': 1}))
('2018-08-31 22:28:13', 'R2', 'target', 'ON', 'readback results', (1, {u'ON': 1}))
('2018-08-31 22:28:13', 'L4', 'target', 'ON', 'readback results', (1, {u'ON': 1}))
('2018-08-31 22:28:13', 'L2', 'target', 'ON', 'readback results', (1, {u'ON': 1}))
('2018-08-31 22:28:13', 'L3', 'target', 'ON', 'readback results', (1, {u'ON': 1}))
('2018-08-31 22:28:13', 'L1', 'target', 'ON', 'readback results', (1, {u'ON': 1}))
all states stable
timestamp(UTC):2018-08-31 22:28:14, fill:7110, run:322022, lumisection:261, orbit:68339788 -- L1:80, L2:40, L3:40, L4:20, R1:40, R2:40 -- start
timestamp(UTC):2018-08-31 22:31:52, fill:7110, run:322022, lumisection:271, orbit:70786533 -- L1:80, L2:40, L3:40, L4:20, R1:40, R2:40 -- stop
('2018-08-31 22:31:54', 'R1', 'target', 50, 'readback results', (1, {u'40.000000': 1}))
not fully updated yet
('2018-08-31 22:31:56', 'R1', 'target', 50, 'readback results', (1, {u'40.000000': 1}))
not fully updated yet
('2018-08-31 22:31:58', 'R1', 'target', 50, 'readback results', (1, {u'50.000000': 1}))
('2018-08-31 22:31:58', 'R2', 'target', 50, 'readback results', (1, {u'50.000000': 1}))
('2018-08-31 22:31:58', 'L4', 'target', 25, 'readback results', (1, {u'20.000000': 1}))
not fully updated yet
('2018-08-31 22:32:00', 'R1', 'target', 50, 'readback results', (1, {u'50.000000': 1}))
('2018-08-31 22:32:00', 'R2', 'target', 50, 'readback results', (1, {u'50.000000': 1}))
('2018-08-31 22:32:00', 'L4', 'target', 25, 'readback results', (1, {u'20.000000': 1}))
not fully updated yet
('2018-08-31 22:32:02', 'R1', 'target', 50, 'readback results', (1, {u'50.000000': 1}))
('2018-08-31 22:32:02', 'R2', 'target', 50, 'readback results', (1, {u'50.000000': 1}))
('2018-08-31 22:32:03', 'L4', 'target', 25, 'readback results', (1, {u'20.000000': 1}))
not fully updated yet
('2018-08-31 22:32:05', 'R1', 'target', 50, 'readback results', (1, {u'50.000000': 1}))
('2018-08-31 22:32:05', 'R2', 'target', 50, 'readback results', (1, {u'50.000000': 1}))
('2018-08-31 22:32:05', 'L4', 'target', 25, 'readback results', (1, {u'25.000000': 1}))
('2018-08-31 22:32:05', 'L2', 'target', 50, 'readback results', (1, {u'50.000000': 1}))
('2018-08-31 22:32:05', 'L3', 'target', 50, 'readback results', (1, {u'50.000000': 1}))
('2018-08-31 22:32:05', 'L1', 'target', 100, 'readback results', (1, {u'100.000000': 1}))
all settings updated
('2018-08-31 22:32:05', 'R1', 'target', 'ON', 'readback results', (1, {u'ON': 1}))
('2018-08-31 22:32:05', 'R2', 'target', 'ON', 'readback results', (1, {u'ON': 1}))
('2018-08-31 22:32:05', 'L4', 'target', 'ON', 'readback results', (1, {u'ON': 1}))
('2018-08-31 22:32:05', 'L2', 'target', 'ON', 'readback results', (1, {u'ON': 1}))
('2018-08-31 22:32:05', 'L3', 'target', 'ON', 'readback results', (1, {u'ON': 1}))
('2018-08-31 22:32:05', 'L1', 'target', 'ON', 'readback results', (1, {u'ON': 1}))
all states stable
timestamp(UTC):2018-08-31 22:32:06, fill:7110, run:322022, lumisection:271, orbit:70945624 -- L1:100, L2:50, L3:50, L4:25, R1:50, R2:50 -- start
timestamp(UTC):2018-08-31 22:35:45, fill:7110, run:322022, lumisection:281, orbit:73405782 -- L1:100, L2:50, L3:50, L4:25, R1:50, R2:50 -- stop
('2018-08-31 22:35:48', 'R1', 'target', 60, 'readback results', (1, {u'50.000000': 1}))
not fully updated yet
('2018-08-31 22:35:50', 'R1', 'target', 60, 'readback results', (1, {u'50.000000': 1}))
not fully updated yet
('2018-08-31 22:35:52', 'R1', 'target', 60, 'readback results', (1, {u'50.000000': 1}))
not fully updated yet
('2018-08-31 22:35:54', 'R1', 'target', 60, 'readback results', (1, {u'50.000000': 1}))
not fully updated yet
('2018-08-31 22:35:56', 'R1', 'target', 60, 'readback results', (1, {u'60.000000': 1}))
('2018-08-31 22:35:56', 'R2', 'target', 60, 'readback results', (1, {u'60.000000': 1}))
('2018-08-31 22:35:56', 'L4', 'target', 30, 'readback results', (1, {u'30.000000': 1}))
('2018-08-31 22:35:56', 'L2', 'target', 60, 'readback results', (1, {u'60.000000': 1}))
('2018-08-31 22:35:56', 'L3', 'target', 60, 'readback results', (1, {u'60.000000': 1}))
('2018-08-31 22:35:56', 'L1', 'target', 120, 'readback results', (1, {u'120.000000': 1}))
all settings updated
('2018-08-31 22:35:56', 'R1', 'target', 'ON', 'readback results', (1, {u'ON': 1}))
('2018-08-31 22:35:56', 'R2', 'target', 'ON', 'readback results', (1, {u'ON': 1}))
('2018-08-31 22:35:56', 'L4', 'target', 'ON', 'readback results', (1, {u'ON': 1}))
('2018-08-31 22:35:56', 'L2', 'target', 'ON', 'readback results', (1, {u'ON': 1}))
('2018-08-31 22:35:56', 'L3', 'target', 'ON', 'readback results', (1, {u'ON': 1}))
('2018-08-31 22:35:56', 'L1', 'target', 'ON', 'readback results', (1, {u'ON': 1}))
all states stable
timestamp(UTC):2018-08-31 22:35:56, fill:7110, run:322022, lumisection:281, orbit:73539162 -- L1:120, L2:60, L3:60, L4:30, R1:60, R2:60 -- start
timestamp(UTC):2018-08-31 22:39:38, fill:7110, run:322022, lumisection:291, orbit:76031847 -- L1:120, L2:60, L3:60, L4:30, R1:60, R2:60 -- stop
('2018-08-31 22:39:41', 'R1', 'target', 70, 'readback results', (1, {u'60.000000': 1}))
not fully updated yet
('2018-08-31 22:39:43', 'R1', 'target', 70, 'readback results', (1, {u'60.000000': 1}))
not fully updated yet
('2018-08-31 22:39:45', 'R1', 'target', 70, 'readback results', (1, {u'60.000000': 1}))
not fully updated yet
('2018-08-31 22:39:47', 'R1', 'target', 70, 'readback results', (1, {u'60.000000': 1}))
not fully updated yet
('2018-08-31 22:39:49', 'R1', 'target', 70, 'readback results', (1, {u'60.000000': 1}))
not fully updated yet
('2018-08-31 22:39:51', 'R1', 'target', 70, 'readback results', (1, {u'70.000000': 1}))
('2018-08-31 22:39:51', 'R2', 'target', 70, 'readback results', (1, {u'70.000000': 1}))
('2018-08-31 22:39:51', 'L4', 'target', 40, 'readback results', (1, {u'40.000000': 1}))
('2018-08-31 22:39:51', 'L2', 'target', 70, 'readback results', (1, {u'70.000000': 1}))
('2018-08-31 22:39:51', 'L3', 'target', 70, 'readback results', (1, {u'70.000000': 1}))
('2018-08-31 22:39:51', 'L1', 'target', 140, 'readback results', (1, {u'140.000000': 1}))
all settings updated
('2018-08-31 22:39:51', 'R1', 'target', 'ON', 'readback results', (1, {u'ON': 1}))
('2018-08-31 22:39:51', 'R2', 'target', 'ON', 'readback results', (1, {u'ON': 1}))
('2018-08-31 22:39:51', 'L4', 'target', 'ON', 'readback results', (1, {u'ON': 1}))
('2018-08-31 22:39:51', 'L2', 'target', 'ON', 'readback results', (1, {u'ON': 1}))
('2018-08-31 22:39:51', 'L3', 'target', 'ON', 'readback results', (1, {u'ON': 1}))
('2018-08-31 22:39:51', 'L1', 'target', 'ON', 'readback results', (1, {u'ON': 1}))
all states stable
timestamp(UTC):2018-08-31 22:39:52, fill:7110, run:322022, lumisection:291, orbit:76194593 -- L1:140, L2:70, L3:70, L4:40, R1:70, R2:70 -- start
timestamp(UTC):2018-08-31 22:43:32, fill:7110, run:322022, lumisection:301, orbit:78661829 -- L1:140, L2:70, L3:70, L4:40, R1:70, R2:70 -- stop
('2018-08-31 22:43:34', 'R1', 'target', 80, 'readback results', (1, {u'70.000000': 1}))
not fully updated yet
('2018-08-31 22:43:36', 'R1', 'target', 80, 'readback results', (1, {u'70.000000': 1}))
not fully updated yet
('2018-08-31 22:43:38', 'R1', 'target', 80, 'readback results', (1, {u'70.000000': 1}))
not fully updated yet
('2018-08-31 22:43:40', 'R1', 'target', 80, 'readback results', (1, {u'70.000000': 1}))
not fully updated yet
('2018-08-31 22:43:42', 'R1', 'target', 80, 'readback results', (1, {u'80.000000': 1}))
('2018-08-31 22:43:42', 'R2', 'target', 80, 'readback results', (1, {u'80.000000': 1}))
('2018-08-31 22:43:42', 'L4', 'target', 50, 'readback results', (1, {u'50.000000': 1}))
('2018-08-31 22:43:42', 'L2', 'target', 80, 'readback results', (1, {u'80.000000': 1}))
('2018-08-31 22:43:42', 'L3', 'target', 80, 'readback results', (1, {u'80.000000': 1}))
('2018-08-31 22:43:42', 'L1', 'target', 160, 'readback results', (1, {u'160.000000': 1}))
all settings updated
('2018-08-31 22:43:42', 'R1', 'target', 'ON', 'readback results', (1, {u'ON': 1}))
('2018-08-31 22:43:42', 'R2', 'target', 'ON', 'readback results', (1, {u'ON': 1}))
('2018-08-31 22:43:42', 'L4', 'target', 'ON', 'readback results', (1, {u'ON': 1}))
('2018-08-31 22:43:42', 'L2', 'target', 'ON', 'readback results', (1, {u'ON': 1}))
('2018-08-31 22:43:42', 'L3', 'target', 'ON', 'readback results', (1, {u'ON': 1}))
('2018-08-31 22:43:42', 'L1', 'target', 'ON', 'readback results', (1, {u'ON': 1}))
all states stable
timestamp(UTC):2018-08-31 22:43:44, fill:7110, run:322022, lumisection:301, orbit:78793861 -- L1:160, L2:80, L3:80, L4:50, R1:80, R2:80 -- start
timestamp(UTC):2018-08-31 22:47:26, fill:7110, run:322022, lumisection:311, orbit:81294346 -- L1:160, L2:80, L3:80, L4:50, R1:80, R2:80 -- stop
('2018-08-31 22:47:29', 'R1', 'target', 90, 'readback results', (1, {u'80.000000': 1}))
not fully updated yet
('2018-08-31 22:47:31', 'R1', 'target', 90, 'readback results', (1, {u'80.000000': 1}))
not fully updated yet
('2018-08-31 22:47:33', 'R1', 'target', 90, 'readback results', (1, {u'80.000000': 1}))
not fully updated yet
('2018-08-31 22:47:35', 'R1', 'target', 90, 'readback results', (1, {u'90.000000': 1}))
('2018-08-31 22:47:35', 'R2', 'target', 90, 'readback results', (1, {u'90.000000': 1}))
('2018-08-31 22:47:35', 'L4', 'target', 60, 'readback results', (1, {u'60.000000': 1}))
('2018-08-31 22:47:35', 'L2', 'target', 90, 'readback results', (1, {u'90.000000': 1}))
('2018-08-31 22:47:35', 'L3', 'target', 90, 'readback results', (1, {u'90.000000': 1}))
('2018-08-31 22:47:35', 'L1', 'target', 180, 'readback results', (1, {u'180.000000': 1}))
all settings updated
('2018-08-31 22:47:35', 'R1', 'target', 'ON', 'readback results', (1, {u'ON': 1}))
('2018-08-31 22:47:35', 'R2', 'target', 'ON', 'readback results', (1, {u'ON': 1}))
('2018-08-31 22:47:35', 'L4', 'target', 'ON', 'readback results', (1, {u'ON': 1}))
('2018-08-31 22:47:35', 'L2', 'target', 'ON', 'readback results', (1, {u'ON': 1}))
('2018-08-31 22:47:35', 'L3', 'target', 'ON', 'readback results', (1, {u'ON': 1}))
('2018-08-31 22:47:35', 'L1', 'target', 'ON', 'readback results', (1, {u'ON': 1}))
all states stable
timestamp(UTC):2018-08-31 22:47:36, fill:7110, run:322022, lumisection:311, orbit:81402558 -- L1:180, L2:90, L3:90, L4:60, R1:90, R2:90 -- start
timestamp(UTC):2018-08-31 22:51:19, fill:7110, run:322022, lumisection:321, orbit:83913027 -- L1:180, L2:90, L3:90, L4:60, R1:90, R2:90 -- stop
('2018-08-31 22:51:22', 'R1', 'target', 100, 'readback results', (1, {u'90.000000': 1}))
not fully updated yet
('2018-08-31 22:51:24', 'R1', 'target', 100, 'readback results', (1, {u'90.000000': 1}))
not fully updated yet
('2018-08-31 22:51:26', 'R1', 'target', 100, 'readback results', (1, {u'90.000000': 1}))
not fully updated yet
('2018-08-31 22:51:28', 'R1', 'target', 100, 'readback results', (1, {u'100.000000': 1}))
('2018-08-31 22:51:28', 'R2', 'target', 100, 'readback results', (1, {u'100.000000': 1}))
('2018-08-31 22:51:28', 'L4', 'target', 80, 'readback results', (1, {u'80.000000': 1}))
('2018-08-31 22:51:28', 'L2', 'target', 100, 'readback results', (1, {u'100.000000': 1}))
('2018-08-31 22:51:28', 'L3', 'target', 100, 'readback results', (1, {u'100.000000': 1}))
('2018-08-31 22:51:28', 'L1', 'target', 200, 'readback results', (1, {u'200.000000': 1}))
all settings updated
('2018-08-31 22:51:28', 'R1', 'target', 'ON', 'readback results', (1, {u'ON': 1}))
('2018-08-31 22:51:28', 'R2', 'target', 'ON', 'readback results', (1, {u'ON': 1}))
('2018-08-31 22:51:28', 'L4', 'target', 'ON', 'readback results', (1, {u'ON': 1}))
('2018-08-31 22:51:28', 'L2', 'target', 'ON', 'readback results', (1, {u'ON': 1}))
('2018-08-31 22:51:28', 'L3', 'target', 'ON', 'readback results', (1, {u'ON': 1}))
('2018-08-31 22:51:28', 'L1', 'target', 'ON', 'readback results', (1, {u'ON': 1}))
all states stable
timestamp(UTC):2018-08-31 22:51:29, fill:7110, run:322022, lumisection:321, orbit:84019032 -- L1:200, L2:100, L3:100, L4:80, R1:100, R2:100 -- start
timestamp(UTC):2018-08-31 22:55:13, fill:7110, run:322022, lumisection:331, orbit:86545026 -- L1:200, L2:100, L3:100, L4:80, R1:100, R2:100 -- stop
('2018-08-31 22:55:14', 'R1', 'target', 125, 'readback results', (1, {u'100.000000': 1}))
not fully updated yet
('2018-08-31 22:55:16', 'R1', 'target', 125, 'readback results', (1, {u'100.000000': 1}))
not fully updated yet
('2018-08-31 22:55:18', 'R1', 'target', 125, 'readback results', (1, {u'125.000000': 1}))
('2018-08-31 22:55:18', 'R2', 'target', 125, 'readback results', (1, {u'125.000000': 1}))
('2018-08-31 22:55:18', 'L4', 'target', 100, 'readback results', (1, {u'80.000000': 1}))
not fully updated yet
('2018-08-31 22:55:20', 'R1', 'target', 125, 'readback results', (1, {u'125.000000': 1}))
('2018-08-31 22:55:20', 'R2', 'target', 125, 'readback results', (1, {u'125.000000': 1}))
('2018-08-31 22:55:20', 'L4', 'target', 100, 'readback results', (1, {u'80.000000': 1}))
not fully updated yet
('2018-08-31 22:55:22', 'R1', 'target', 125, 'readback results', (1, {u'125.000000': 1}))
('2018-08-31 22:55:22', 'R2', 'target', 125, 'readback results', (1, {u'125.000000': 1}))
('2018-08-31 22:55:23', 'L4', 'target', 100, 'readback results', (1, {u'80.000000': 1}))
not fully updated yet
('2018-08-31 22:55:25', 'R1', 'target', 125, 'readback results', (1, {u'125.000000': 1}))
('2018-08-31 22:55:25', 'R2', 'target', 125, 'readback results', (1, {u'125.000000': 1}))
('2018-08-31 22:55:25', 'L4', 'target', 100, 'readback results', (1, {u'100.000000': 1}))
('2018-08-31 22:55:25', 'L2', 'target', 125, 'readback results', (1, {u'125.000000': 1}))
('2018-08-31 22:55:25', 'L3', 'target', 125, 'readback results', (1, {u'125.000000': 1}))
('2018-08-31 22:55:25', 'L1', 'target', 240, 'readback results', (1, {u'240.000000': 1}))
all settings updated
('2018-08-31 22:55:25', 'R1', 'target', 'ON', 'readback results', (1, {u'ON': 1}))
('2018-08-31 22:55:25', 'R2', 'target', 'ON', 'readback results', (1, {u'ON': 1}))
('2018-08-31 22:55:25', 'L4', 'target', 'ON', 'readback results', (1, {u'ON': 1}))
('2018-08-31 22:55:25', 'L2', 'target', 'ON', 'readback results', (1, {u'ON': 1}))
('2018-08-31 22:55:25', 'L3', 'target', 'ON', 'readback results', (1, {u'ON': 1}))
('2018-08-31 22:55:25', 'L1', 'target', 'ON', 'readback results', (1, {u'ON': 1}))
all states stable
timestamp(UTC):2018-08-31 22:55:25, fill:7110, run:322022, lumisection:331, orbit:86678270 -- L1:240, L2:125, L3:125, L4:100, R1:125, R2:125 -- start
timestamp(UTC):2018-08-31 22:59:07, fill:7110, run:322022, lumisection:341, orbit:89173927 -- L1:240, L2:125, L3:125, L4:100, R1:125, R2:125 -- stop
('2018-08-31 22:59:08', 'R1', 'target', 150, 'readback results', (1, {u'125.000000': 1}))
not fully updated yet
('2018-08-31 22:59:10', 'R1', 'target', 150, 'readback results', (1, {u'125.000000': 1}))
not fully updated yet
('2018-08-31 22:59:12', 'R1', 'target', 150, 'readback results', (1, {u'125.000000': 1}))
not fully updated yet
('2018-08-31 22:59:14', 'R1', 'target', 150, 'readback results', (1, {u'125.000000': 1}))
not fully updated yet
('2018-08-31 22:59:16', 'R1', 'target', 150, 'readback results', (1, {u'150.000000': 1}))
('2018-08-31 22:59:16', 'R2', 'target', 150, 'readback results', (1, {u'150.000000': 1}))
('2018-08-31 22:59:16', 'L4', 'target', 125, 'readback results', (1, {u'125.000000': 1}))
('2018-08-31 22:59:16', 'L2', 'target', 150, 'readback results', (1, {u'150.000000': 1}))
('2018-08-31 22:59:16', 'L3', 'target', 150, 'readback results', (1, {u'150.000000': 1}))
('2018-08-31 22:59:16', 'L1', 'target', 280, 'readback results', (1, {u'280.000000': 1}))
all settings updated
('2018-08-31 22:59:16', 'R1', 'target', 'ON', 'readback results', (1, {u'ON': 1}))
('2018-08-31 22:59:16', 'R2', 'target', 'ON', 'readback results', (1, {u'ON': 1}))
('2018-08-31 22:59:16', 'L4', 'target', 'ON', 'readback results', (1, {u'ON': 1}))
('2018-08-31 22:59:16', 'L2', 'target', 'ON', 'readback results', (1, {u'ON': 1}))
('2018-08-31 22:59:16', 'L3', 'target', 'ON', 'readback results', (1, {u'ON': 1}))
('2018-08-31 22:59:16', 'L1', 'target', 'ON', 'readback results', (1, {u'HVRAMPINGUP': 1}))
not stable yet
('2018-08-31 22:59:18', 'R1', 'target', 'ON', 'readback results', (1, {u'ON': 1}))
('2018-08-31 22:59:18', 'R2', 'target', 'ON', 'readback results', (1, {u'ON': 1}))
('2018-08-31 22:59:18', 'L4', 'target', 'ON', 'readback results', (1, {u'ON': 1}))
('2018-08-31 22:59:18', 'L2', 'target', 'ON', 'readback results', (1, {u'ON': 1}))
('2018-08-31 22:59:18', 'L3', 'target', 'ON', 'readback results', (1, {u'ON': 1}))
('2018-08-31 22:59:18', 'L1', 'target', 'ON', 'readback results', (1, {u'HVRAMPINGUP': 1}))
not stable yet
('2018-08-31 22:59:21', 'R1', 'target', 'ON', 'readback results', (1, {u'ON': 1}))
('2018-08-31 22:59:21', 'R2', 'target', 'ON', 'readback results', (1, {u'ON': 1}))
('2018-08-31 22:59:21', 'L4', 'target', 'ON', 'readback results', (1, {u'ON': 1}))
('2018-08-31 22:59:21', 'L2', 'target', 'ON', 'readback results', (1, {u'ON': 1}))
('2018-08-31 22:59:21', 'L3', 'target', 'ON', 'readback results', (1, {u'ON': 1}))
('2018-08-31 22:59:21', 'L1', 'target', 'ON', 'readback results', (1, {u'HVRAMPINGUP': 1}))
not stable yet
('2018-08-31 22:59:23', 'R1', 'target', 'ON', 'readback results', (1, {u'ON': 1}))
('2018-08-31 22:59:23', 'R2', 'target', 'ON', 'readback results', (1, {u'ON': 1}))
('2018-08-31 22:59:23', 'L4', 'target', 'ON', 'readback results', (1, {u'ON': 1}))
('2018-08-31 22:59:23', 'L2', 'target', 'ON', 'readback results', (1, {u'ON': 1}))
('2018-08-31 22:59:23', 'L3', 'target', 'ON', 'readback results', (1, {u'ON': 1}))
('2018-08-31 22:59:23', 'L1', 'target', 'ON', 'readback results', (1, {u'ON': 1}))
all states stable
timestamp(UTC):2018-08-31 22:59:23, fill:7110, run:322022, lumisection:341, orbit:89360682 -- L1:280, L2:150, L3:150, L4:125, R1:150, R2:150 -- start
timestamp(UTC):2018-08-31 23:02:58, fill:7110, run:322022, lumisection:351, orbit:91778781 -- L1:280, L2:150, L3:150, L4:125, R1:150, R2:150 -- stop
('2018-08-31 23:03:01', 'R1', 'target', 175, 'readback results', (1, {u'150.000000': 1}))
not fully updated yet
('2018-08-31 23:03:03', 'R1', 'target', 175, 'readback results', (1, {u'150.000000': 1}))
not fully updated yet
('2018-08-31 23:03:05', 'R1', 'target', 175, 'readback results', (1, {u'150.000000': 1}))
not fully updated yet
('2018-08-31 23:03:07', 'R1', 'target', 175, 'readback results', (1, {u'150.000000': 1}))
not fully updated yet
('2018-08-31 23:03:09', 'R1', 'target', 175, 'readback results', (1, {u'175.000000': 1}))
('2018-08-31 23:03:09', 'R2', 'target', 175, 'readback results', (1, {u'175.000000': 1}))
('2018-08-31 23:03:09', 'L4', 'target', 150, 'readback results', (1, {u'150.000000': 1}))
('2018-08-31 23:03:09', 'L2', 'target', 175, 'readback results', (1, {u'175.000000': 1}))
('2018-08-31 23:03:09', 'L3', 'target', 175, 'readback results', (1, {u'175.000000': 1}))
('2018-08-31 23:03:09', 'L1', 'target', 320, 'readback results', (1, {u'320.000000': 1}))
all settings updated
('2018-08-31 23:03:09', 'R1', 'target', 'ON', 'readback results', (1, {u'ON': 1}))
('2018-08-31 23:03:09', 'R2', 'target', 'ON', 'readback results', (1, {u'ON': 1}))
('2018-08-31 23:03:09', 'L4', 'target', 'ON', 'readback results', (1, {u'ON': 1}))
('2018-08-31 23:03:09', 'L2', 'target', 'ON', 'readback results', (1, {u'ON': 1}))
('2018-08-31 23:03:09', 'L3', 'target', 'ON', 'readback results', (1, {u'ON': 1}))
('2018-08-31 23:03:09', 'L1', 'target', 'ON', 'readback results', (1, {u'HVRAMPINGUP': 1}))
not stable yet
('2018-08-31 23:03:11', 'R1', 'target', 'ON', 'readback results', (1, {u'ON': 1}))
('2018-08-31 23:03:11', 'R2', 'target', 'ON', 'readback results', (1, {u'ON': 1}))
('2018-08-31 23:03:11', 'L4', 'target', 'ON', 'readback results', (1, {u'ON': 1}))
('2018-08-31 23:03:11', 'L2', 'target', 'ON', 'readback results', (1, {u'ON': 1}))
('2018-08-31 23:03:11', 'L3', 'target', 'ON', 'readback results', (1, {u'ON': 1}))
('2018-08-31 23:03:11', 'L1', 'target', 'ON', 'readback results', (1, {u'HVRAMPINGUP': 1}))
not stable yet
('2018-08-31 23:03:13', 'R1', 'target', 'ON', 'readback results', (1, {u'ON': 1}))
('2018-08-31 23:03:13', 'R2', 'target', 'ON', 'readback results', (1, {u'ON': 1}))
('2018-08-31 23:03:13', 'L4', 'target', 'ON', 'readback results', (1, {u'ON': 1}))
('2018-08-31 23:03:13', 'L2', 'target', 'ON', 'readback results', (1, {u'ON': 1}))
('2018-08-31 23:03:13', 'L3', 'target', 'ON', 'readback results', (1, {u'ON': 1}))
('2018-08-31 23:03:13', 'L1', 'target', 'ON', 'readback results', (1, {u'HVRAMPINGUP': 1}))
not stable yet
('2018-08-31 23:03:15', 'R1', 'target', 'ON', 'readback results', (1, {u'ON': 1}))
('2018-08-31 23:03:15', 'R2', 'target', 'ON', 'readback results', (1, {u'ON': 1}))
('2018-08-31 23:03:15', 'L4', 'target', 'ON', 'readback results', (1, {u'ON': 1}))
('2018-08-31 23:03:16', 'L2', 'target', 'ON', 'readback results', (1, {u'ON': 1}))
('2018-08-31 23:03:16', 'L3', 'target', 'ON', 'readback results', (1, {u'ON': 1}))
('2018-08-31 23:03:16', 'L1', 'target', 'ON', 'readback results', (1, {u'ON': 1}))
all states stable
timestamp(UTC):2018-08-31 23:03:17, fill:7110, run:322022, lumisection:351, orbit:91965880 -- L1:320, L2:175, L3:175, L4:150, R1:175, R2:175 -- start
timestamp(UTC):2018-08-31 23:07:16, fill:7110, run:322022, lumisection:362, orbit:94679839 -- L1:320, L2:175, L3:175, L4:150, R1:175, R2:175 -- stop
('2018-08-31 23:07:18', 'R1', 'target', 200, 'readback results', (1, {u'175.000000': 1}))
not fully updated yet
('2018-08-31 23:07:20', 'R1', 'target', 200, 'readback results', (1, {u'175.000000': 1}))
not fully updated yet
('2018-08-31 23:07:22', 'R1', 'target', 200, 'readback results', (1, {u'175.000000': 1}))
not fully updated yet
('2018-08-31 23:07:24', 'R1', 'target', 200, 'readback results', (1, {u'175.000000': 1}))
not fully updated yet
('2018-08-31 23:07:26', 'R1', 'target', 200, 'readback results', (1, {u'200.000000': 1}))
('2018-08-31 23:07:26', 'R2', 'target', 200, 'readback results', (1, {u'200.000000': 1}))
('2018-08-31 23:07:26', 'L4', 'target', 175, 'readback results', (1, {u'175.000000': 1}))
('2018-08-31 23:07:26', 'L2', 'target', 200, 'readback results', (1, {u'200.000000': 1}))
('2018-08-31 23:07:26', 'L3', 'target', 200, 'readback results', (1, {u'200.000000': 1}))
('2018-08-31 23:07:26', 'L1', 'target', 350, 'readback results', (1, {u'350.000000': 1}))
all settings updated
('2018-08-31 23:07:26', 'R1', 'target', 'ON', 'readback results', (1, {u'ON': 1}))
('2018-08-31 23:07:26', 'R2', 'target', 'ON', 'readback results', (1, {u'ON': 1}))
('2018-08-31 23:07:26', 'L4', 'target', 'ON', 'readback results', (1, {u'HVRAMPINGUP': 1}))
not stable yet
('2018-08-31 23:07:28', 'R1', 'target', 'ON', 'readback results', (1, {u'ON': 1}))
('2018-08-31 23:07:28', 'R2', 'target', 'ON', 'readback results', (1, {u'ON': 1}))
('2018-08-31 23:07:28', 'L4', 'target', 'ON', 'readback results', (1, {u'HVRAMPINGUP': 1}))
not stable yet
('2018-08-31 23:07:30', 'R1', 'target', 'ON', 'readback results', (1, {u'ON': 1}))
('2018-08-31 23:07:30', 'R2', 'target', 'ON', 'readback results', (1, {u'ON': 1}))
('2018-08-31 23:07:30', 'L4', 'target', 'ON', 'readback results', (1, {u'ON': 1}))
('2018-08-31 23:07:30', 'L2', 'target', 'ON', 'readback results', (1, {u'ON': 1}))
('2018-08-31 23:07:30', 'L3', 'target', 'ON', 'readback results', (1, {u'ON': 1}))
('2018-08-31 23:07:30', 'L1', 'target', 'ON', 'readback results', (1, {u'ON': 1}))
all states stable
timestamp(UTC):2018-08-31 23:07:33, fill:7110, run:322022, lumisection:362, orbit:94865315 -- L1:350, L2:200, L3:200, L4:175, R1:200, R2:200 -- start
timestamp(UTC):2018-08-31 23:11:08, fill:7110, run:322022, lumisection:372, orbit:97286456 -- L1:350, L2:200, L3:200, L4:175, R1:200, R2:200 -- stop
('2018-08-31 23:11:10', 'R1', 'target', 225, 'readback results', (1, {u'200.000000': 1}))
not fully updated yet
('2018-08-31 23:11:12', 'R1', 'target', 225, 'readback results', (1, {u'200.000000': 1}))
not fully updated yet
('2018-08-31 23:11:14', 'R1', 'target', 225, 'readback results', (1, {u'200.000000': 1}))
not fully updated yet
('2018-08-31 23:11:16', 'R1', 'target', 225, 'readback results', (1, {u'200.000000': 1}))
not fully updated yet
('2018-08-31 23:11:18', 'R1', 'target', 225, 'readback results', (1, {u'225.000000': 1}))
('2018-08-31 23:11:18', 'R2', 'target', 225, 'readback results', (1, {u'225.000000': 1}))
('2018-08-31 23:11:18', 'L4', 'target', 200, 'readback results', (1, {u'200.000000': 1}))
('2018-08-31 23:11:18', 'L2', 'target', 225, 'readback results', (1, {u'225.000000': 1}))
('2018-08-31 23:11:18', 'L3', 'target', 225, 'readback results', (1, {u'225.000000': 1}))
('2018-08-31 23:11:18', 'L1', 'target', 400, 'readback results', (1, {u'400.000000': 1}))
all settings updated
('2018-08-31 23:11:18', 'R1', 'target', 'ON', 'readback results', (1, {u'ON': 1}))
('2018-08-31 23:11:18', 'R2', 'target', 'ON', 'readback results', (1, {u'ON': 1}))
('2018-08-31 23:11:18', 'L4', 'target', 'ON', 'readback results', (1, {u'ON': 1}))
('2018-08-31 23:11:18', 'L2', 'target', 'ON', 'readback results', (1, {u'ON': 1}))
('2018-08-31 23:11:18', 'L3', 'target', 'ON', 'readback results', (1, {u'ON': 1}))
('2018-08-31 23:11:18', 'L1', 'target', 'ON', 'readback results', (1, {u'HVRAMPINGUP': 1}))
not stable yet
('2018-08-31 23:11:21', 'R1', 'target', 'ON', 'readback results', (1, {u'ON': 1}))
('2018-08-31 23:11:21', 'R2', 'target', 'ON', 'readback results', (1, {u'ON': 1}))
('2018-08-31 23:11:21', 'L4', 'target', 'ON', 'readback results', (1, {u'ON': 1}))
('2018-08-31 23:11:21', 'L2', 'target', 'ON', 'readback results', (1, {u'ON': 1}))
('2018-08-31 23:11:21', 'L3', 'target', 'ON', 'readback results', (1, {u'ON': 1}))
('2018-08-31 23:11:21', 'L1', 'target', 'ON', 'readback results', (1, {u'HVRAMPINGUP': 1}))
not stable yet
('2018-08-31 23:11:23', 'R1', 'target', 'ON', 'readback results', (1, {u'ON': 1}))
('2018-08-31 23:11:23', 'R2', 'target', 'ON', 'readback results', (1, {u'ON': 1}))
('2018-08-31 23:11:23', 'L4', 'target', 'ON', 'readback results', (1, {u'ON': 1}))
('2018-08-31 23:11:23', 'L2', 'target', 'ON', 'readback results', (1, {u'ON': 1}))
('2018-08-31 23:11:23', 'L3', 'target', 'ON', 'readback results', (1, {u'ON': 1}))
('2018-08-31 23:11:23', 'L1', 'target', 'ON', 'readback results', (1, {u'ON': 1}))
all states stable
timestamp(UTC):2018-08-31 23:11:25, fill:7110, run:322022, lumisection:372, orbit:97472797 -- L1:400, L2:225, L3:225, L4:200, R1:225, R2:225 -- start
timestamp(UTC):2018-08-31 23:15:01, fill:7110, run:322022, lumisection:382, orbit:99884436 -- L1:400, L2:225, L3:225, L4:200, R1:225, R2:225 -- stop
('2018-08-31 23:15:03', 'R1', 'target', 250, 'readback results', (1, {u'225.000000': 1}))
not fully updated yet
('2018-08-31 23:15:05', 'R1', 'target', 250, 'readback results', (1, {u'225.000000': 1}))
not fully updated yet
('2018-08-31 23:15:07', 'R1', 'target', 250, 'readback results', (1, {u'225.000000': 1}))
not fully updated yet
('2018-08-31 23:15:09', 'R1', 'target', 250, 'readback results', (1, {u'225.000000': 1}))
not fully updated yet
('2018-08-31 23:15:11', 'R1', 'target', 250, 'readback results', (1, {u'250.000000': 1}))
('2018-08-31 23:15:11', 'R2', 'target', 250, 'readback results', (1, {u'250.000000': 1}))
('2018-08-31 23:15:11', 'L4', 'target', 250, 'readback results', (1, {u'250.000000': 1}))
('2018-08-31 23:15:11', 'L2', 'target', 250, 'readback results', (1, {u'250.000000': 1}))
('2018-08-31 23:15:11', 'L3', 'target', 250, 'readback results', (1, {u'250.000000': 1}))
('2018-08-31 23:15:11', 'L1', 'target', 450, 'readback results', (1, {u'450.000000': 1}))
all settings updated
('2018-08-31 23:15:11', 'R1', 'target', 'ON', 'readback results', (1, {u'ON': 1}))
('2018-08-31 23:15:11', 'R2', 'target', 'ON', 'readback results', (1, {u'ON': 1}))
('2018-08-31 23:15:11', 'L4', 'target', 'ON', 'readback results', (1, {u'HVRAMPINGUP': 1}))
not stable yet
('2018-08-31 23:15:13', 'R1', 'target', 'ON', 'readback results', (1, {u'ON': 1}))
('2018-08-31 23:15:13', 'R2', 'target', 'ON', 'readback results', (1, {u'ON': 1}))
('2018-08-31 23:15:13', 'L4', 'target', 'ON', 'readback results', (1, {u'HVRAMPINGUP': 1}))
not stable yet
('2018-08-31 23:15:15', 'R1', 'target', 'ON', 'readback results', (1, {u'ON': 1}))
('2018-08-31 23:15:15', 'R2', 'target', 'ON', 'readback results', (1, {u'ON': 1}))
('2018-08-31 23:15:15', 'L4', 'target', 'ON', 'readback results', (1, {u'HVRAMPINGUP': 1}))
not stable yet
('2018-08-31 23:15:17', 'R1', 'target', 'ON', 'readback results', (1, {u'ON': 1}))
('2018-08-31 23:15:17', 'R2', 'target', 'ON', 'readback results', (1, {u'ON': 1}))
('2018-08-31 23:15:17', 'L4', 'target', 'ON', 'readback results', (1, {u'ON': 1}))
('2018-08-31 23:15:17', 'L2', 'target', 'ON', 'readback results', (1, {u'ON': 1}))
('2018-08-31 23:15:17', 'L3', 'target', 'ON', 'readback results', (1, {u'ON': 1}))
('2018-08-31 23:15:17', 'L1', 'target', 'ON', 'readback results', (1, {u'ON': 1}))
all states stable
timestamp(UTC):2018-08-31 23:15:18, fill:7110, run:322022, lumisection:382, orbit:100098900 -- L1:450, L2:250, L3:250, L4:250, R1:250, R2:250 -- start
timestamp(UTC):2018-08-31 23:18:54, fill:7110, run:322022, lumisection:392, orbit:102523723 -- L1:450, L2:250, L3:250, L4:250, R1:250, R2:250 -- stop
('2018-08-31 23:18:55', 'R1', 'target', 300, 'readback results', (1, {u'250.000000': 1}))
not fully updated yet
('2018-08-31 23:18:57', 'R1', 'target', 300, 'readback results', (1, {u'250.000000': 1}))
not fully updated yet
('2018-08-31 23:18:59', 'R1', 'target', 300, 'readback results', (1, {u'250.000000': 1}))
not fully updated yet
('2018-08-31 23:19:01', 'R1', 'target', 300, 'readback results', (1, {u'250.000000': 1}))
not fully updated yet
('2018-08-31 23:19:04', 'R1', 'target', 300, 'readback results', (1, {u'300.000000': 1}))
('2018-08-31 23:19:04', 'R2', 'target', 300, 'readback results', (1, {u'300.000000': 1}))
('2018-08-31 23:19:04', 'L4', 'target', 300, 'readback results', (1, {u'300.000000': 1}))
('2018-08-31 23:19:04', 'L2', 'target', 300, 'readback results', (1, {u'300.000000': 1}))
('2018-08-31 23:19:04', 'L3', 'target', 300, 'readback results', (1, {u'300.000000': 1}))
('2018-08-31 23:19:04', 'L1', 'target', 500, 'readback results', (1, {u'500.000000': 1}))
all settings updated
('2018-08-31 23:19:04', 'R1', 'target', 'ON', 'readback results', (1, {u'ON': 1}))
('2018-08-31 23:19:04', 'R2', 'target', 'ON', 'readback results', (1, {u'ON': 1}))
('2018-08-31 23:19:04', 'L4', 'target', 'ON', 'readback results', (1, {u'HVRAMPINGUP': 1}))
not stable yet
('2018-08-31 23:19:06', 'R1', 'target', 'ON', 'readback results', (1, {u'ON': 1}))
('2018-08-31 23:19:06', 'R2', 'target', 'ON', 'readback results', (1, {u'ON': 1}))
('2018-08-31 23:19:06', 'L4', 'target', 'ON', 'readback results', (1, {u'HVRAMPINGUP': 1}))
not stable yet
('2018-08-31 23:19:08', 'R1', 'target', 'ON', 'readback results', (1, {u'ON': 1}))
('2018-08-31 23:19:08', 'R2', 'target', 'ON', 'readback results', (1, {u'ON': 1}))
('2018-08-31 23:19:08', 'L4', 'target', 'ON', 'readback results', (1, {u'HVRAMPINGUP': 1}))
not stable yet
('2018-08-31 23:19:10', 'R1', 'target', 'ON', 'readback results', (1, {u'ON': 1}))
('2018-08-31 23:19:10', 'R2', 'target', 'ON', 'readback results', (1, {u'ON': 1}))
('2018-08-31 23:19:10', 'L4', 'target', 'ON', 'readback results', (1, {u'ON': 1}))
('2018-08-31 23:19:10', 'L2', 'target', 'ON', 'readback results', (1, {u'ON': 1}))
('2018-08-31 23:19:10', 'L3', 'target', 'ON', 'readback results', (1, {u'ON': 1}))
('2018-08-31 23:19:10', 'L1', 'target', 'ON', 'readback results', (1, {u'ON': 1}))
all states stable
timestamp(UTC):2018-08-31 23:19:11, fill:7110, run:322022, lumisection:392, orbit:102708961 -- L1:500, L2:300, L3:300, L4:300, R1:300, R2:300 -- start
timestamp(UTC):2018-08-31 23:22:46, fill:7110, run:322022, lumisection:402, orbit:105133240 -- L1:500, L2:300, L3:300, L4:300, R1:300, R2:300 -- stop
('2018-08-31 23:22:49', 'R1', 'target', 350, 'readback results', (1, {u'300.000000': 1}))
not fully updated yet
('2018-08-31 23:22:51', 'R1', 'target', 350, 'readback results', (1, {u'300.000000': 1}))
not fully updated yet
('2018-08-31 23:22:53', 'R1', 'target', 350, 'readback results', (1, {u'350.000000': 1}))
('2018-08-31 23:22:53', 'R2', 'target', 350, 'readback results', (1, {u'350.000000': 1}))
('2018-08-31 23:22:53', 'L4', 'target', 350, 'readback results', (1, {u'300.000000': 1}))
not fully updated yet
('2018-08-31 23:22:55', 'R1', 'target', 350, 'readback results', (1, {u'350.000000': 1}))
('2018-08-31 23:22:55', 'R2', 'target', 350, 'readback results', (1, {u'350.000000': 1}))
('2018-08-31 23:22:55', 'L4', 'target', 350, 'readback results', (1, {u'300.000000': 1}))
not fully updated yet
('2018-08-31 23:22:57', 'R1', 'target', 350, 'readback results', (1, {u'350.000000': 1}))
('2018-08-31 23:22:57', 'R2', 'target', 350, 'readback results', (1, {u'350.000000': 1}))
('2018-08-31 23:22:57', 'L4', 'target', 350, 'readback results', (1, {u'300.000000': 1}))
not fully updated yet
('2018-08-31 23:22:59', 'R1', 'target', 350, 'readback results', (1, {u'350.000000': 1}))
('2018-08-31 23:22:59', 'R2', 'target', 350, 'readback results', (1, {u'350.000000': 1}))
('2018-08-31 23:22:59', 'L4', 'target', 350, 'readback results', (1, {u'350.000000': 1}))
('2018-08-31 23:22:59', 'L2', 'target', 350, 'readback results', (1, {u'350.000000': 1}))
('2018-08-31 23:22:59', 'L3', 'target', 350, 'readback results', (1, {u'350.000000': 1}))
('2018-08-31 23:22:59', 'L1', 'target', 550, 'readback results', (1, {u'550.000000': 1}))
all settings updated
('2018-08-31 23:22:59', 'R1', 'target', 'ON', 'readback results', (1, {u'ON': 1}))
('2018-08-31 23:22:59', 'R2', 'target', 'ON', 'readback results', (1, {u'ON': 1}))
('2018-08-31 23:22:59', 'L4', 'target', 'ON', 'readback results', (1, {u'ON': 1}))
('2018-08-31 23:22:59', 'L2', 'target', 'ON', 'readback results', (1, {u'ON': 1}))
('2018-08-31 23:22:59', 'L3', 'target', 'ON', 'readback results', (1, {u'ON': 1}))
('2018-08-31 23:22:59', 'L1', 'target', 'ON', 'readback results', (1, {u'ON': 1}))
all states stable
timestamp(UTC):2018-08-31 23:23:00, fill:7110, run:322022, lumisection:402, orbit:105290722 -- L1:550, L2:350, L3:350, L4:350, R1:350, R2:350 -- start
timestamp(UTC):2018-08-31 23:26:39, fill:7110, run:322022, lumisection:412, orbit:107757020 -- L1:550, L2:350, L3:350, L4:350, R1:350, R2:350 -- stop
('2018-08-31 23:26:42', 'R1', 'target', 400, 'readback results', (1, {u'350.000000': 1}))
not fully updated yet
('2018-08-31 23:26:44', 'R1', 'target', 400, 'readback results', (1, {u'350.000000': 1}))
not fully updated yet
('2018-08-31 23:26:46', 'R1', 'target', 400, 'readback results', (1, {u'350.000000': 1}))
not fully updated yet
('2018-08-31 23:26:48', 'R1', 'target', 400, 'readback results', (1, {u'400.000000': 1}))
('2018-08-31 23:26:48', 'R2', 'target', 400, 'readback results', (1, {u'400.000000': 1}))
('2018-08-31 23:26:48', 'L4', 'target', 400, 'readback results', (1, {u'350.000000': 1}))
not fully updated yet
('2018-08-31 23:26:50', 'R1', 'target', 400, 'readback results', (1, {u'400.000000': 1}))
('2018-08-31 23:26:50', 'R2', 'target', 400, 'readback results', (1, {u'400.000000': 1}))
('2018-08-31 23:26:50', 'L4', 'target', 400, 'readback results', (1, {u'350.000000': 1}))
not fully updated yet
('2018-08-31 23:26:52', 'R1', 'target', 400, 'readback results', (1, {u'400.000000': 1}))
('2018-08-31 23:26:52', 'R2', 'target', 400, 'readback results', (1, {u'400.000000': 1}))
('2018-08-31 23:26:52', 'L4', 'target', 400, 'readback results', (1, {u'400.000000': 1}))
('2018-08-31 23:26:52', 'L2', 'target', 400, 'readback results', (1, {u'400.000000': 1}))
('2018-08-31 23:26:52', 'L3', 'target', 400, 'readback results', (1, {u'400.000000': 1}))
('2018-08-31 23:26:52', 'L1', 'target', 600, 'readback results', (1, {u'600.000000': 1}))
all settings updated
('2018-08-31 23:26:52', 'R1', 'target', 'ON', 'readback results', (1, {u'ON': 1}))
('2018-08-31 23:26:52', 'R2', 'target', 'ON', 'readback results', (1, {u'ON': 1}))
('2018-08-31 23:26:52', 'L4', 'target', 'ON', 'readback results', (1, {u'ON': 1}))
('2018-08-31 23:26:52', 'L2', 'target', 'ON', 'readback results', (1, {u'ON': 1}))
('2018-08-31 23:26:52', 'L3', 'target', 'ON', 'readback results', (1, {u'ON': 1}))
('2018-08-31 23:26:52', 'L1', 'target', 'ON', 'readback results', (1, {u'ON': 1}))
all states stable
timestamp(UTC):2018-08-31 23:26:53, fill:7110, run:322022, lumisection:412, orbit:107888477 -- L1:600, L2:400, L3:400, L4:400, R1:400, R2:400 -- start
timestamp(UTC):2018-08-31 23:30:33, fill:7110, run:322022, lumisection:422, orbit:110382854 -- L1:600, L2:400, L3:400, L4:400, R1:400, R2:400 -- stop
('2018-08-31 23:30:35', 'R1', 'target', 300, 'readback results', (1, {u'400.000000': 1}))
not fully updated yet
('2018-08-31 23:30:37', 'R1', 'target', 300, 'readback results', (1, {u'400.000000': 1}))
not fully updated yet
('2018-08-31 23:30:39', 'R1', 'target', 300, 'readback results', (1, {u'400.000000': 1}))
not fully updated yet
('2018-08-31 23:30:41', 'R1', 'target', 300, 'readback results', (1, {u'300.000000': 1}))
('2018-08-31 23:30:41', 'R2', 'target', 300, 'readback results', (1, {u'300.000000': 1}))
('2018-08-31 23:30:41', 'L4', 'target', 250, 'readback results', (1, {u'250.000000': 1}))
('2018-08-31 23:30:41', 'L2', 'target', 300, 'readback results', (1, {u'300.000000': 1}))
('2018-08-31 23:30:41', 'L3', 'target', 250, 'readback results', (1, {u'250.000000': 1}))
('2018-08-31 23:30:41', 'L1', 'target', 400, 'readback results', (1, {u'400.000000': 1}))
all settings updated
('2018-08-31 23:30:41', 'R1', 'target', 'ON', 'readback results', (1, {u'HVRAMPINGDOWN': 1}))
not stable yet
('2018-08-31 23:30:43', 'R1', 'target', 'ON', 'readback results', (1, {u'HVRAMPINGDOWN': 1}))
not stable yet
('2018-08-31 23:30:45', 'R1', 'target', 'ON', 'readback results', (1, {u'HVRAMPINGDOWN': 1}))
not stable yet
('2018-08-31 23:30:47', 'R1', 'target', 'ON', 'readback results', (1, {u'HVRAMPINGDOWN': 1}))
not stable yet
('2018-08-31 23:30:49', 'R1', 'target', 'ON', 'readback results', (1, {u'HVRAMPINGDOWN': 1}))
not stable yet
('2018-08-31 23:30:51', 'R1', 'target', 'ON', 'readback results', (1, {u'ON': 1}))
('2018-08-31 23:30:51', 'R2', 'target', 'ON', 'readback results', (1, {u'ON': 1}))
('2018-08-31 23:30:51', 'L4', 'target', 'ON', 'readback results', (1, {u'HVRAMPINGDOWN': 1}))
not stable yet
('2018-08-31 23:30:53', 'R1', 'target', 'ON', 'readback results', (1, {u'ON': 1}))
('2018-08-31 23:30:53', 'R2', 'target', 'ON', 'readback results', (1, {u'ON': 1}))
('2018-08-31 23:30:53', 'L4', 'target', 'ON', 'readback results', (1, {u'HVRAMPINGDOWN': 1}))
not stable yet
('2018-08-31 23:30:55', 'R1', 'target', 'ON', 'readback results', (1, {u'ON': 1}))
('2018-08-31 23:30:55', 'R2', 'target', 'ON', 'readback results', (1, {u'ON': 1}))
('2018-08-31 23:30:55', 'L4', 'target', 'ON', 'readback results', (1, {u'HVRAMPINGDOWN': 1}))
not stable yet
('2018-08-31 23:30:57', 'R1', 'target', 'ON', 'readback results', (1, {u'ON': 1}))
('2018-08-31 23:30:57', 'R2', 'target', 'ON', 'readback results', (1, {u'ON': 1}))
('2018-08-31 23:30:57', 'L4', 'target', 'ON', 'readback results', (1, {u'HVRAMPINGDOWN': 1}))
not stable yet
('2018-08-31 23:30:59', 'R1', 'target', 'ON', 'readback results', (1, {u'ON': 1}))
('2018-08-31 23:30:59', 'R2', 'target', 'ON', 'readback results', (1, {u'ON': 1}))
('2018-08-31 23:30:59', 'L4', 'target', 'ON', 'readback results', (1, {u'HVRAMPINGDOWN': 1}))
not stable yet
('2018-08-31 23:31:01', 'R1', 'target', 'ON', 'readback results', (1, {u'ON': 1}))
('2018-08-31 23:31:01', 'R2', 'target', 'ON', 'readback results', (1, {u'ON': 1}))
('2018-08-31 23:31:01', 'L4', 'target', 'ON', 'readback results', (1, {u'ON': 1}))
('2018-08-31 23:31:01', 'L2', 'target', 'ON', 'readback results', (1, {u'ON': 1}))
('2018-08-31 23:31:01', 'L3', 'target', 'ON', 'readback results', (1, {u'ON': 1}))
('2018-08-31 23:31:01', 'L1', 'target', 'ON', 'readback results', (1, {u'ON': 1}))
all states stable
timestamp(UTC):2018-08-31 23:31:03, fill:7110, run:322022, lumisection:423, orbit:110727354 -- L1:400, L2:300, L3:250, L4:250, R1:300, R2:300 -- start
timestamp(UTC):2018-08-31 23:31:20, fill:7110, run:322022, lumisection:424, orbit:110914389 -- L1:400, L2:300, L3:250, L4:250, R1:300, R2:300 -- stop
