3I_L1D1MF   -7.74   0.0
3M_L1D1MF   -7.93   0.0
3R_L1D1MF   -8.25   0.0
4M_L2D2MF   -4.86   0.0
4R_L2D2MF   -14.52   0.0
2I_L3D2MF   -10.72   0.0
2M_L3D2MF   -12.45   0.0
2R_L3D2MF   -12.52   0.0
5I_L3D4MF   -10.28   0.0
5M_L3D4MF   -10.06   0.0
5R_L3D4MF   -12.52   0.0
1I_L4D1MF   -9.17   0.0
1M_L4D1MF   -10.04   0.0
1R_L4D1MF   -13.34   0.0
6I_L4D3MF   -10.21   0.0
6M_L4D3MF   -10.94   0.0
6R_L4D3MF   -12.93   0.0
4I_L1D2PF   -10.72   0.0
4R_L1D2PF   -10.65   0.0
3I_L2D1PF   -7.57   0.0
3M_L2D1PF   -10.7   0.0
3R_L2D1PF   -12.42   0.0
2I_L3D1PF   -11.14   0.0
2M_L3D1PF   -11.16   0.0
2R_L3D1PF   -13.75   0.0
5I_L3D3PF   -10.21   0.0
5M_L3D3PF   -12.28   0.0
5R_L3D3PF   -13.46   0.0
1I_L4D2PF   -10.04   0.0
1M_L4D2PF   -10.87   0.0
1R_L4D2PF   -13.56   0.0
6I_L4D4PF   -8.46   0.0
6M_L4D4PF   -10.38   0.0
6R_L4D4PF   -12.57   0.0
4I_L1D2MN   -7.76   0.0
4M_L1D2MN   -9.34   0.0
4R_L1D2MN   -11.7   0.0
3I_L2D1MN   -8.47   0.0
3M_L2D1MN   -10.24   0.0
3R_L2D1MN   -14.4   0.0
2I_L3D1MN   -13.17   0.0
2R_L3D1MN   -13.51   0.0
5I_L3D3MN   -11.06   0.0
5M_L3D3MN   -12.18   0.0
5R_L3D3MN   -13.22   0.0
1I_L4D2MN   -10.02   0.0
1M_L4D2MN   -11.41   0.0
1R_L4D2MN   -13.99   0.0
6I_L4D4MN   -10.06   0.0
6M_L4D4MN   -11.45   0.0
6R_L4D4MN   -13.7   0.0
3I_L1D1PN   -7.13   0.0
3R_L1D1PN   -13.7   0.0
4M_L2D2PN   -10.62   0.0
4R_L2D2PN   -12.59   0.0
2I_L3D2PN   -11.48   0.0
2M_L3D2PN   null   null
2R_L3D2PN   -13.46   0.0
5I_L3D4PN   -11.16   0.0
5M_L3D4PN   -12.24   0.0
5R_L3D4PN   -13.39   0.0
1I_L4D1PN   -9.02   0.0
1M_L4D1PN   -10.33   0.0
1R_L4D1PN   -13.17   0.0
6I_L4D3PN   -11.01   0.0
6M_L4D3PN   -11.1   0.0
6R_L4D3PN   -13.35   0.0
