BPix_BpI_SEC1_LYR1_LDR1F_MOD2 0
BPix_BpI_SEC1_LYR1_LDR1F_MOD3 310.75
BPix_BpI_SEC1_LYR1_LDR1F_MOD4 310.75
BPix_BpI_SEC1_LYR1_LDR1H_MOD2 0
BPix_BpI_SEC1_LYR1_LDR1H_MOD3 310.75
BPix_BpI_SEC1_LYR1_LDR1H_MOD4 310.75
BPix_BpI_SEC1_LYR2_LDR1F_MOD1 109.8125
BPix_BpI_SEC1_LYR2_LDR1F_MOD2 109.8125
BPix_BpI_SEC1_LYR2_LDR1F_MOD3 109.8125
BPix_BpI_SEC1_LYR2_LDR1F_MOD4 109.8125
BPix_BpI_SEC1_LYR2_LDR2F_MOD1 109.8125
BPix_BpI_SEC1_LYR2_LDR2F_MOD2 109.8125
BPix_BpI_SEC1_LYR2_LDR2F_MOD3 109.8125
BPix_BpI_SEC1_LYR2_LDR2F_MOD4 109.8125
BPix_BpI_SEC1_LYR3_LDR1F_MOD1 79.5625
BPix_BpI_SEC1_LYR3_LDR1F_MOD2 79.5625
BPix_BpI_SEC1_LYR3_LDR1F_MOD3 79.5625
BPix_BpI_SEC1_LYR3_LDR1F_MOD4 79.5625
BPix_BpI_SEC1_LYR3_LDR2F_MOD1 79.5625
BPix_BpI_SEC1_LYR3_LDR2F_MOD2 79.5625
BPix_BpI_SEC1_LYR3_LDR2F_MOD3 79.5625
BPix_BpI_SEC1_LYR3_LDR2F_MOD4 79.5625
BPix_BpI_SEC1_LYR4_LDR1F_MOD1 67.875
BPix_BpI_SEC1_LYR4_LDR1F_MOD2 67.875
BPix_BpI_SEC1_LYR4_LDR1F_MOD3 67.875
BPix_BpI_SEC1_LYR4_LDR1F_MOD4 67.875
BPix_BpI_SEC1_LYR4_LDR2F_MOD1 67.875
BPix_BpI_SEC1_LYR4_LDR2F_MOD2 67.875
BPix_BpI_SEC1_LYR4_LDR2F_MOD3 67.875
BPix_BpI_SEC1_LYR4_LDR2F_MOD4 67.875
BPix_BpI_SEC1_LYR4_LDR3F_MOD1 67.875
BPix_BpI_SEC1_LYR4_LDR3F_MOD2 67.875
BPix_BpI_SEC1_LYR4_LDR3F_MOD3 67.875
BPix_BpI_SEC1_LYR4_LDR3F_MOD4 67.875
BPix_BpI_SEC1_LYR4_LDR4F_MOD1 67.875
BPix_BpI_SEC1_LYR4_LDR4F_MOD2 67.875
BPix_BpI_SEC1_LYR4_LDR4F_MOD3 67.875
BPix_BpI_SEC1_LYR4_LDR4F_MOD4 67.875
BPix_BpI_SEC2_LYR1_LDR1F_MOD1 262.5
BPix_BpI_SEC2_LYR1_LDR1H_MOD1 262.5
BPix_BpI_SEC2_LYR1_LDR2F_MOD3 262.5
BPix_BpI_SEC2_LYR1_LDR2F_MOD4 262.5
BPix_BpI_SEC2_LYR1_LDR2H_MOD3 262.5
BPix_BpI_SEC2_LYR1_LDR2H_MOD4 262.5
BPix_BpI_SEC2_LYR2_LDR3F_MOD1 84.1875
BPix_BpI_SEC2_LYR2_LDR3F_MOD2 84.1875
BPix_BpI_SEC2_LYR2_LDR3F_MOD3 84.1875
BPix_BpI_SEC2_LYR2_LDR3F_MOD4 84.1875
BPix_BpI_SEC2_LYR2_LDR4F_MOD1 84.1875
BPix_BpI_SEC2_LYR2_LDR4F_MOD2 84.1875
BPix_BpI_SEC2_LYR2_LDR4F_MOD3 84.1875
BPix_BpI_SEC2_LYR2_LDR4F_MOD4 84.1875
BPix_BpI_SEC2_LYR3_LDR3F_MOD1 86.6666666667
BPix_BpI_SEC2_LYR3_LDR3F_MOD2 86.6666666667
BPix_BpI_SEC2_LYR3_LDR3F_MOD3 86.6666666667
BPix_BpI_SEC2_LYR3_LDR3F_MOD4 86.6666666667
BPix_BpI_SEC2_LYR3_LDR4F_MOD1 86.6666666667
BPix_BpI_SEC2_LYR3_LDR4F_MOD2 86.6666666667
BPix_BpI_SEC2_LYR3_LDR4F_MOD3 86.6666666667
BPix_BpI_SEC2_LYR3_LDR4F_MOD4 86.6666666667
BPix_BpI_SEC2_LYR3_LDR5F_MOD1 86.6666666667
BPix_BpI_SEC2_LYR3_LDR5F_MOD2 86.6666666667
BPix_BpI_SEC2_LYR3_LDR5F_MOD3 86.6666666667
BPix_BpI_SEC2_LYR3_LDR5F_MOD4 86.6666666667
BPix_BpI_SEC2_LYR4_LDR5F_MOD1 82.6875
BPix_BpI_SEC2_LYR4_LDR5F_MOD2 82.6875
BPix_BpI_SEC2_LYR4_LDR5F_MOD3 82.6875
BPix_BpI_SEC2_LYR4_LDR5F_MOD4 82.6875
BPix_BpI_SEC2_LYR4_LDR6F_MOD1 82.6875
BPix_BpI_SEC2_LYR4_LDR6F_MOD2 82.6875
BPix_BpI_SEC2_LYR4_LDR6F_MOD3 82.6875
BPix_BpI_SEC2_LYR4_LDR6F_MOD4 82.6875
BPix_BpI_SEC2_LYR4_LDR7F_MOD1 82.6875
BPix_BpI_SEC2_LYR4_LDR7F_MOD2 82.6875
BPix_BpI_SEC2_LYR4_LDR7F_MOD3 82.6875
BPix_BpI_SEC2_LYR4_LDR7F_MOD4 82.6875
BPix_BpI_SEC2_LYR4_LDR8F_MOD1 82.6875
BPix_BpI_SEC2_LYR4_LDR8F_MOD2 82.6875
BPix_BpI_SEC2_LYR4_LDR8F_MOD3 82.6875
BPix_BpI_SEC2_LYR4_LDR8F_MOD4 82.6875
BPix_BpI_SEC3_LYR1_LDR2F_MOD1 0.0
BPix_BpI_SEC3_LYR1_LDR2F_MOD2 0.0
BPix_BpI_SEC3_LYR1_LDR2H_MOD1 0.0
BPix_BpI_SEC3_LYR1_LDR2H_MOD2 0.0
BPix_BpI_SEC3_LYR1_LDR3F_MOD4 0.0
BPix_BpI_SEC3_LYR1_LDR3H_MOD4 0.0
BPix_BpI_SEC3_LYR2_LDR5F_MOD1 142.875
BPix_BpI_SEC3_LYR2_LDR5F_MOD2 142.875
BPix_BpI_SEC3_LYR2_LDR5F_MOD3 142.875
BPix_BpI_SEC3_LYR2_LDR5F_MOD4 142.875
BPix_BpI_SEC3_LYR3_LDR6F_MOD1 93.3333333333
BPix_BpI_SEC3_LYR3_LDR6F_MOD2 93.3333333333
BPix_BpI_SEC3_LYR3_LDR6F_MOD3 93.3333333333
BPix_BpI_SEC3_LYR3_LDR6F_MOD4 93.3333333333
BPix_BpI_SEC3_LYR3_LDR7F_MOD1 93.3333333333
BPix_BpI_SEC3_LYR3_LDR7F_MOD2 93.3333333333
BPix_BpI_SEC3_LYR3_LDR7F_MOD3 93.3333333333
BPix_BpI_SEC3_LYR3_LDR7F_MOD4 93.3333333333
BPix_BpI_SEC3_LYR3_LDR8F_MOD1 93.3333333333
BPix_BpI_SEC3_LYR3_LDR8F_MOD2 93.3333333333
BPix_BpI_SEC3_LYR3_LDR8F_MOD3 93.3333333333
BPix_BpI_SEC3_LYR3_LDR8F_MOD4 93.3333333333
BPix_BpI_SEC3_LYR4_LDR10F_MOD1 43.375
BPix_BpI_SEC3_LYR4_LDR10F_MOD2 43.375
BPix_BpI_SEC3_LYR4_LDR10F_MOD3 43.375
BPix_BpI_SEC3_LYR4_LDR10F_MOD4 43.375
BPix_BpI_SEC3_LYR4_LDR11F_MOD1 43.375
BPix_BpI_SEC3_LYR4_LDR11F_MOD2 43.375
BPix_BpI_SEC3_LYR4_LDR11F_MOD3 43.375
BPix_BpI_SEC3_LYR4_LDR11F_MOD4 43.375
BPix_BpI_SEC3_LYR4_LDR12F_MOD1 43.375
BPix_BpI_SEC3_LYR4_LDR12F_MOD2 43.375
BPix_BpI_SEC3_LYR4_LDR12F_MOD3 43.375
BPix_BpI_SEC3_LYR4_LDR12F_MOD4 43.375
BPix_BpI_SEC3_LYR4_LDR9F_MOD1 43.375
BPix_BpI_SEC3_LYR4_LDR9F_MOD2 43.375
BPix_BpI_SEC3_LYR4_LDR9F_MOD3 43.375
BPix_BpI_SEC3_LYR4_LDR9F_MOD4 43.375
BPix_BpI_SEC4_LYR1_LDR3F_MOD1 258.5
BPix_BpI_SEC4_LYR1_LDR3F_MOD2 258.5
BPix_BpI_SEC4_LYR1_LDR3F_MOD3 258.5
BPix_BpI_SEC4_LYR1_LDR3H_MOD1 258.5
BPix_BpI_SEC4_LYR1_LDR3H_MOD2 258.5
BPix_BpI_SEC4_LYR1_LDR3H_MOD3 258.5
BPix_BpI_SEC4_LYR2_LDR6F_MOD1 96.625
BPix_BpI_SEC4_LYR2_LDR6F_MOD2 96.625
BPix_BpI_SEC4_LYR2_LDR6F_MOD3 96.625
BPix_BpI_SEC4_LYR2_LDR6F_MOD4 96.625
BPix_BpI_SEC4_LYR2_LDR7F_MOD1 96.625
BPix_BpI_SEC4_LYR2_LDR7F_MOD2 96.625
BPix_BpI_SEC4_LYR2_LDR7F_MOD3 96.625
BPix_BpI_SEC4_LYR2_LDR7F_MOD4 96.625
BPix_BpI_SEC4_LYR3_LDR10F_MOD1 93.25
BPix_BpI_SEC4_LYR3_LDR10F_MOD2 93.25
BPix_BpI_SEC4_LYR3_LDR10F_MOD3 93.25
BPix_BpI_SEC4_LYR3_LDR10F_MOD4 93.25
BPix_BpI_SEC4_LYR3_LDR11F_MOD1 93.25
BPix_BpI_SEC4_LYR3_LDR11F_MOD2 93.25
BPix_BpI_SEC4_LYR3_LDR11F_MOD3 93.25
BPix_BpI_SEC4_LYR3_LDR11F_MOD4 93.25
BPix_BpI_SEC4_LYR3_LDR9F_MOD1 93.25
BPix_BpI_SEC4_LYR3_LDR9F_MOD2 93.25
BPix_BpI_SEC4_LYR3_LDR9F_MOD3 93.25
BPix_BpI_SEC4_LYR3_LDR9F_MOD4 93.25
BPix_BpI_SEC4_LYR4_LDR13F_MOD1 90.5625
BPix_BpI_SEC4_LYR4_LDR13F_MOD2 90.5625
BPix_BpI_SEC4_LYR4_LDR13F_MOD3 90.5625
BPix_BpI_SEC4_LYR4_LDR13F_MOD4 90.5625
BPix_BpI_SEC4_LYR4_LDR14F_MOD1 90.5625
BPix_BpI_SEC4_LYR4_LDR14F_MOD2 90.5625
BPix_BpI_SEC4_LYR4_LDR14F_MOD3 90.5625
BPix_BpI_SEC4_LYR4_LDR14F_MOD4 90.5625
BPix_BpI_SEC4_LYR4_LDR15F_MOD1 90.5625
BPix_BpI_SEC4_LYR4_LDR15F_MOD2 90.5625
BPix_BpI_SEC4_LYR4_LDR15F_MOD3 90.5625
BPix_BpI_SEC4_LYR4_LDR15F_MOD4 90.5625
BPix_BpI_SEC4_LYR4_LDR16F_MOD1 90.5625
BPix_BpI_SEC4_LYR4_LDR16F_MOD2 90.5625
BPix_BpI_SEC4_LYR4_LDR16F_MOD3 90.5625
BPix_BpI_SEC4_LYR4_LDR16F_MOD4 90.5625
BPix_BpI_SEC5_LYR1_LDR4F_MOD2 284.666666667
BPix_BpI_SEC5_LYR1_LDR4F_MOD3 284.666666667
BPix_BpI_SEC5_LYR1_LDR4F_MOD4 284.666666667
BPix_BpI_SEC5_LYR1_LDR4H_MOD2 284.666666667
BPix_BpI_SEC5_LYR1_LDR4H_MOD3 284.666666667
BPix_BpI_SEC5_LYR1_LDR4H_MOD4 284.666666667
BPix_BpI_SEC5_LYR2_LDR8F_MOD1 0.0
BPix_BpI_SEC5_LYR2_LDR8F_MOD2 0.0
BPix_BpI_SEC5_LYR2_LDR8F_MOD3 0.0
BPix_BpI_SEC5_LYR2_LDR8F_MOD4 0.0
BPix_BpI_SEC5_LYR2_LDR9F_MOD1 0.0
BPix_BpI_SEC5_LYR2_LDR9F_MOD2 0.0
BPix_BpI_SEC5_LYR2_LDR9F_MOD3 0.0
BPix_BpI_SEC5_LYR2_LDR9F_MOD4 0.0
BPix_BpI_SEC5_LYR3_LDR12F_MOD1 90.8333333333
BPix_BpI_SEC5_LYR3_LDR12F_MOD2 90.8333333333
BPix_BpI_SEC5_LYR3_LDR12F_MOD3 90.8333333333
BPix_BpI_SEC5_LYR3_LDR12F_MOD4 90.8333333333
BPix_BpI_SEC5_LYR3_LDR13F_MOD1 90.8333333333
BPix_BpI_SEC5_LYR3_LDR13F_MOD2 90.8333333333
BPix_BpI_SEC5_LYR3_LDR13F_MOD3 90.8333333333
BPix_BpI_SEC5_LYR3_LDR13F_MOD4 90.8333333333
BPix_BpI_SEC5_LYR3_LDR14F_MOD1 90.8333333333
BPix_BpI_SEC5_LYR3_LDR14F_MOD2 90.8333333333
BPix_BpI_SEC5_LYR3_LDR14F_MOD3 90.8333333333
BPix_BpI_SEC5_LYR3_LDR14F_MOD4 90.8333333333
BPix_BpI_SEC5_LYR4_LDR17F_MOD1 87.75
BPix_BpI_SEC5_LYR4_LDR17F_MOD2 87.75
BPix_BpI_SEC5_LYR4_LDR17F_MOD3 87.75
BPix_BpI_SEC5_LYR4_LDR17F_MOD4 87.75
BPix_BpI_SEC5_LYR4_LDR18F_MOD1 87.75
BPix_BpI_SEC5_LYR4_LDR18F_MOD2 87.75
BPix_BpI_SEC5_LYR4_LDR18F_MOD3 87.75
BPix_BpI_SEC5_LYR4_LDR18F_MOD4 87.75
BPix_BpI_SEC5_LYR4_LDR19F_MOD1 87.75
BPix_BpI_SEC5_LYR4_LDR19F_MOD2 87.75
BPix_BpI_SEC5_LYR4_LDR19F_MOD3 87.75
BPix_BpI_SEC5_LYR4_LDR19F_MOD4 87.75
BPix_BpI_SEC5_LYR4_LDR20F_MOD1 87.75
BPix_BpI_SEC5_LYR4_LDR20F_MOD2 87.75
BPix_BpI_SEC5_LYR4_LDR20F_MOD3 87.75
BPix_BpI_SEC5_LYR4_LDR20F_MOD4 87.75
BPix_BpI_SEC6_LYR1_LDR4F_MOD1 248.833333333
BPix_BpI_SEC6_LYR1_LDR4H_MOD1 248.833333333
BPix_BpI_SEC6_LYR1_LDR5F_MOD3 248.833333333
BPix_BpI_SEC6_LYR1_LDR5F_MOD4 248.833333333
BPix_BpI_SEC6_LYR1_LDR5H_MOD3 248.833333333
BPix_BpI_SEC6_LYR1_LDR5H_MOD4 248.833333333
BPix_BpI_SEC6_LYR2_LDR10F_MOD1 159.75
BPix_BpI_SEC6_LYR2_LDR10F_MOD2 159.75
BPix_BpI_SEC6_LYR2_LDR10F_MOD3 159.75
BPix_BpI_SEC6_LYR2_LDR10F_MOD4 159.75
BPix_BpI_SEC6_LYR3_LDR15F_MOD1 89.9166666667
BPix_BpI_SEC6_LYR3_LDR15F_MOD2 89.9166666667
BPix_BpI_SEC6_LYR3_LDR15F_MOD3 89.9166666667
BPix_BpI_SEC6_LYR3_LDR15F_MOD4 89.9166666667
BPix_BpI_SEC6_LYR3_LDR16F_MOD1 89.9166666667
BPix_BpI_SEC6_LYR3_LDR16F_MOD2 89.9166666667
BPix_BpI_SEC6_LYR3_LDR16F_MOD3 89.9166666667
BPix_BpI_SEC6_LYR3_LDR16F_MOD4 89.9166666667
BPix_BpI_SEC6_LYR3_LDR17F_MOD1 89.9166666667
BPix_BpI_SEC6_LYR3_LDR17F_MOD2 89.9166666667
BPix_BpI_SEC6_LYR3_LDR17F_MOD3 89.9166666667
BPix_BpI_SEC6_LYR3_LDR17F_MOD4 89.9166666667
BPix_BpI_SEC6_LYR4_LDR21F_MOD1 41.1875
BPix_BpI_SEC6_LYR4_LDR21F_MOD2 41.1875
BPix_BpI_SEC6_LYR4_LDR21F_MOD3 41.1875
BPix_BpI_SEC6_LYR4_LDR21F_MOD4 41.1875
BPix_BpI_SEC6_LYR4_LDR22F_MOD1 41.1875
BPix_BpI_SEC6_LYR4_LDR22F_MOD2 41.1875
BPix_BpI_SEC6_LYR4_LDR22F_MOD3 41.1875
BPix_BpI_SEC6_LYR4_LDR22F_MOD4 41.1875
BPix_BpI_SEC6_LYR4_LDR23F_MOD1 41.1875
BPix_BpI_SEC6_LYR4_LDR23F_MOD2 41.1875
BPix_BpI_SEC6_LYR4_LDR23F_MOD3 41.1875
BPix_BpI_SEC6_LYR4_LDR23F_MOD4 41.1875
BPix_BpI_SEC6_LYR4_LDR24F_MOD1 41.1875
BPix_BpI_SEC6_LYR4_LDR24F_MOD2 41.1875
BPix_BpI_SEC6_LYR4_LDR24F_MOD3 41.1875
BPix_BpI_SEC6_LYR4_LDR24F_MOD4 41.1875
BPix_BpI_SEC7_LYR1_LDR5F_MOD1 249.0
BPix_BpI_SEC7_LYR1_LDR5F_MOD2 249.0
BPix_BpI_SEC7_LYR1_LDR5H_MOD1 249.0
BPix_BpI_SEC7_LYR1_LDR5H_MOD2 249.0
BPix_BpI_SEC7_LYR1_LDR6F_MOD4 249.0
BPix_BpI_SEC7_LYR1_LDR6H_MOD4 249.0
BPix_BpI_SEC7_LYR2_LDR11F_MOD1 75.5
BPix_BpI_SEC7_LYR2_LDR11F_MOD2 75.5
BPix_BpI_SEC7_LYR2_LDR11F_MOD3 75.5
BPix_BpI_SEC7_LYR2_LDR11F_MOD4 75.5
BPix_BpI_SEC7_LYR2_LDR12F_MOD1 75.5
BPix_BpI_SEC7_LYR2_LDR12F_MOD2 75.5
BPix_BpI_SEC7_LYR2_LDR12F_MOD3 75.5
BPix_BpI_SEC7_LYR2_LDR12F_MOD4 75.5
BPix_BpI_SEC7_LYR3_LDR18F_MOD1 93.1666666667
BPix_BpI_SEC7_LYR3_LDR18F_MOD2 93.1666666667
BPix_BpI_SEC7_LYR3_LDR18F_MOD3 93.1666666667
BPix_BpI_SEC7_LYR3_LDR18F_MOD4 93.1666666667
BPix_BpI_SEC7_LYR3_LDR19F_MOD1 93.1666666667
BPix_BpI_SEC7_LYR3_LDR19F_MOD2 93.1666666667
BPix_BpI_SEC7_LYR3_LDR19F_MOD3 93.1666666667
BPix_BpI_SEC7_LYR3_LDR19F_MOD4 93.1666666667
BPix_BpI_SEC7_LYR3_LDR20F_MOD1 93.1666666667
BPix_BpI_SEC7_LYR3_LDR20F_MOD2 93.1666666667
BPix_BpI_SEC7_LYR3_LDR20F_MOD3 93.1666666667
BPix_BpI_SEC7_LYR3_LDR20F_MOD4 93.1666666667
BPix_BpI_SEC7_LYR4_LDR25F_MOD1 74.1875
BPix_BpI_SEC7_LYR4_LDR25F_MOD2 74.1875
BPix_BpI_SEC7_LYR4_LDR25F_MOD3 74.1875
BPix_BpI_SEC7_LYR4_LDR25F_MOD4 74.1875
BPix_BpI_SEC7_LYR4_LDR26F_MOD1 74.1875
BPix_BpI_SEC7_LYR4_LDR26F_MOD2 74.1875
BPix_BpI_SEC7_LYR4_LDR26F_MOD3 74.1875
BPix_BpI_SEC7_LYR4_LDR26F_MOD4 74.1875
BPix_BpI_SEC7_LYR4_LDR27F_MOD1 74.1875
BPix_BpI_SEC7_LYR4_LDR27F_MOD2 74.1875
BPix_BpI_SEC7_LYR4_LDR27F_MOD3 74.1875
BPix_BpI_SEC7_LYR4_LDR27F_MOD4 74.1875
BPix_BpI_SEC7_LYR4_LDR28F_MOD1 74.1875
BPix_BpI_SEC7_LYR4_LDR28F_MOD2 74.1875
BPix_BpI_SEC7_LYR4_LDR28F_MOD3 74.1875
BPix_BpI_SEC7_LYR4_LDR28F_MOD4 74.1875
BPix_BpI_SEC8_LYR1_LDR6F_MOD1 196.5
BPix_BpI_SEC8_LYR1_LDR6F_MOD2 196.5
BPix_BpI_SEC8_LYR1_LDR6F_MOD3 196.5
BPix_BpI_SEC8_LYR1_LDR6H_MOD1 196.5
BPix_BpI_SEC8_LYR1_LDR6H_MOD2 196.5
BPix_BpI_SEC8_LYR1_LDR6H_MOD3 196.5
BPix_BpI_SEC8_LYR2_LDR13F_MOD1 96.1875
BPix_BpI_SEC8_LYR2_LDR13F_MOD2 96.1875
BPix_BpI_SEC8_LYR2_LDR13F_MOD3 96.1875
BPix_BpI_SEC8_LYR2_LDR13F_MOD4 96.1875
BPix_BpI_SEC8_LYR2_LDR14F_MOD1 96.1875
BPix_BpI_SEC8_LYR2_LDR14F_MOD2 96.1875
BPix_BpI_SEC8_LYR2_LDR14F_MOD3 96.1875
BPix_BpI_SEC8_LYR2_LDR14F_MOD4 96.1875
BPix_BpI_SEC8_LYR3_LDR21F_MOD1 122.75
BPix_BpI_SEC8_LYR3_LDR21F_MOD2 122.75
BPix_BpI_SEC8_LYR3_LDR21F_MOD3 122.75
BPix_BpI_SEC8_LYR3_LDR21F_MOD4 122.75
BPix_BpI_SEC8_LYR3_LDR22F_MOD1 122.75
BPix_BpI_SEC8_LYR3_LDR22F_MOD2 122.75
BPix_BpI_SEC8_LYR3_LDR22F_MOD3 122.75
BPix_BpI_SEC8_LYR3_LDR22F_MOD4 122.75
BPix_BpI_SEC8_LYR4_LDR29F_MOD1 63.8125
BPix_BpI_SEC8_LYR4_LDR29F_MOD2 63.8125
BPix_BpI_SEC8_LYR4_LDR29F_MOD3 63.8125
BPix_BpI_SEC8_LYR4_LDR29F_MOD4 63.8125
BPix_BpI_SEC8_LYR4_LDR30F_MOD1 63.8125
BPix_BpI_SEC8_LYR4_LDR30F_MOD2 63.8125
BPix_BpI_SEC8_LYR4_LDR30F_MOD3 63.8125
BPix_BpI_SEC8_LYR4_LDR30F_MOD4 63.8125
BPix_BpI_SEC8_LYR4_LDR31F_MOD1 63.8125
BPix_BpI_SEC8_LYR4_LDR31F_MOD2 63.8125
BPix_BpI_SEC8_LYR4_LDR31F_MOD3 63.8125
BPix_BpI_SEC8_LYR4_LDR31F_MOD4 63.8125
BPix_BpI_SEC8_LYR4_LDR32F_MOD1 63.8125
BPix_BpI_SEC8_LYR4_LDR32F_MOD2 63.8125
BPix_BpI_SEC8_LYR4_LDR32F_MOD3 63.8125
BPix_BpI_SEC8_LYR4_LDR32F_MOD4 63.8125
BPix_BpO_SEC1_LYR1_LDR1F_MOD2 303.333333333
BPix_BpO_SEC1_LYR1_LDR1F_MOD3 303.333333333
BPix_BpO_SEC1_LYR1_LDR1F_MOD4 303.333333333
BPix_BpO_SEC1_LYR1_LDR1H_MOD2 303.333333333
BPix_BpO_SEC1_LYR1_LDR1H_MOD3 303.333333333
BPix_BpO_SEC1_LYR1_LDR1H_MOD4 303.333333333
BPix_BpO_SEC1_LYR2_LDR1F_MOD1 146.875
BPix_BpO_SEC1_LYR2_LDR1F_MOD2 146.875
BPix_BpO_SEC1_LYR2_LDR1F_MOD3 146.875
BPix_BpO_SEC1_LYR2_LDR1F_MOD4 146.875
BPix_BpO_SEC1_LYR2_LDR2F_MOD1 146.875
BPix_BpO_SEC1_LYR2_LDR2F_MOD2 146.875
BPix_BpO_SEC1_LYR2_LDR2F_MOD3 146.875
BPix_BpO_SEC1_LYR2_LDR2F_MOD4 146.875
BPix_BpO_SEC1_LYR3_LDR1F_MOD1 78.9375
BPix_BpO_SEC1_LYR3_LDR1F_MOD2 78.9375
BPix_BpO_SEC1_LYR3_LDR1F_MOD3 78.9375
BPix_BpO_SEC1_LYR3_LDR1F_MOD4 78.9375
BPix_BpO_SEC1_LYR3_LDR2F_MOD1 78.9375
BPix_BpO_SEC1_LYR3_LDR2F_MOD2 78.9375
BPix_BpO_SEC1_LYR3_LDR2F_MOD3 78.9375
BPix_BpO_SEC1_LYR3_LDR2F_MOD4 78.9375
BPix_BpO_SEC1_LYR4_LDR1F_MOD1 48.375
BPix_BpO_SEC1_LYR4_LDR1F_MOD2 48.375
BPix_BpO_SEC1_LYR4_LDR1F_MOD3 48.375
BPix_BpO_SEC1_LYR4_LDR1F_MOD4 48.375
BPix_BpO_SEC1_LYR4_LDR2F_MOD1 48.375
BPix_BpO_SEC1_LYR4_LDR2F_MOD2 48.375
BPix_BpO_SEC1_LYR4_LDR2F_MOD3 48.375
BPix_BpO_SEC1_LYR4_LDR2F_MOD4 48.375
BPix_BpO_SEC1_LYR4_LDR3F_MOD1 48.375
BPix_BpO_SEC1_LYR4_LDR3F_MOD2 48.375
BPix_BpO_SEC1_LYR4_LDR3F_MOD3 48.375
BPix_BpO_SEC1_LYR4_LDR3F_MOD4 48.375
BPix_BpO_SEC1_LYR4_LDR4F_MOD1 48.375
BPix_BpO_SEC1_LYR4_LDR4F_MOD2 48.375
BPix_BpO_SEC1_LYR4_LDR4F_MOD3 48.375
BPix_BpO_SEC1_LYR4_LDR4F_MOD4 48.375
BPix_BpO_SEC2_LYR1_LDR1F_MOD1 414.333333333
BPix_BpO_SEC2_LYR1_LDR1H_MOD1 414.333333333
BPix_BpO_SEC2_LYR1_LDR2F_MOD3 414.333333333
BPix_BpO_SEC2_LYR1_LDR2F_MOD4 414.333333333
BPix_BpO_SEC2_LYR1_LDR2H_MOD3 414.333333333
BPix_BpO_SEC2_LYR1_LDR2H_MOD4 414.333333333
BPix_BpO_SEC2_LYR2_LDR3F_MOD1 167.0
BPix_BpO_SEC2_LYR2_LDR3F_MOD2 167.0
BPix_BpO_SEC2_LYR2_LDR3F_MOD3 167.0
BPix_BpO_SEC2_LYR2_LDR3F_MOD4 167.0
BPix_BpO_SEC2_LYR2_LDR4F_MOD1 167.0
BPix_BpO_SEC2_LYR2_LDR4F_MOD2 167.0
BPix_BpO_SEC2_LYR2_LDR4F_MOD3 167.0
BPix_BpO_SEC2_LYR2_LDR4F_MOD4 167.0
BPix_BpO_SEC2_LYR3_LDR3F_MOD1 64.7083333333
BPix_BpO_SEC2_LYR3_LDR3F_MOD2 64.7083333333
BPix_BpO_SEC2_LYR3_LDR3F_MOD3 64.7083333333
BPix_BpO_SEC2_LYR3_LDR3F_MOD4 64.7083333333
BPix_BpO_SEC2_LYR3_LDR4F_MOD1 64.7083333333
BPix_BpO_SEC2_LYR3_LDR4F_MOD2 64.7083333333
BPix_BpO_SEC2_LYR3_LDR4F_MOD3 64.7083333333
BPix_BpO_SEC2_LYR3_LDR4F_MOD4 64.7083333333
BPix_BpO_SEC2_LYR3_LDR5F_MOD1 64.7083333333
BPix_BpO_SEC2_LYR3_LDR5F_MOD2 64.7083333333
BPix_BpO_SEC2_LYR3_LDR5F_MOD3 64.7083333333
BPix_BpO_SEC2_LYR3_LDR5F_MOD4 64.7083333333
BPix_BpO_SEC2_LYR4_LDR5F_MOD1 39.28125
BPix_BpO_SEC2_LYR4_LDR5F_MOD2 39.28125
BPix_BpO_SEC2_LYR4_LDR5F_MOD3 39.28125
BPix_BpO_SEC2_LYR4_LDR5F_MOD4 39.28125
BPix_BpO_SEC2_LYR4_LDR6F_MOD1 39.28125
BPix_BpO_SEC2_LYR4_LDR6F_MOD2 39.28125
BPix_BpO_SEC2_LYR4_LDR6F_MOD3 39.28125
BPix_BpO_SEC2_LYR4_LDR6F_MOD4 39.28125
BPix_BpO_SEC2_LYR4_LDR7F_MOD1 39.28125
BPix_BpO_SEC2_LYR4_LDR7F_MOD2 39.28125
BPix_BpO_SEC2_LYR4_LDR7F_MOD3 39.28125
BPix_BpO_SEC2_LYR4_LDR7F_MOD4 39.28125
BPix_BpO_SEC2_LYR4_LDR8F_MOD1 39.28125
BPix_BpO_SEC2_LYR4_LDR8F_MOD2 39.28125
BPix_BpO_SEC2_LYR4_LDR8F_MOD3 39.28125
BPix_BpO_SEC2_LYR4_LDR8F_MOD4 39.28125
BPix_BpO_SEC3_LYR1_LDR2F_MOD1 361.666666667
BPix_BpO_SEC3_LYR1_LDR2F_MOD2 361.666666667
BPix_BpO_SEC3_LYR1_LDR2H_MOD1 361.666666667
BPix_BpO_SEC3_LYR1_LDR2H_MOD2 361.666666667
BPix_BpO_SEC3_LYR1_LDR3F_MOD4 361.666666667
BPix_BpO_SEC3_LYR1_LDR3H_MOD4 361.666666667
BPix_BpO_SEC3_LYR2_LDR5F_MOD1 161.25
BPix_BpO_SEC3_LYR2_LDR5F_MOD2 161.25
BPix_BpO_SEC3_LYR2_LDR5F_MOD3 161.25
BPix_BpO_SEC3_LYR2_LDR5F_MOD4 161.25
BPix_BpO_SEC3_LYR3_LDR6F_MOD1 59.75
BPix_BpO_SEC3_LYR3_LDR6F_MOD2 59.75
BPix_BpO_SEC3_LYR3_LDR6F_MOD3 59.75
BPix_BpO_SEC3_LYR3_LDR6F_MOD4 59.75
BPix_BpO_SEC3_LYR3_LDR7F_MOD1 59.75
BPix_BpO_SEC3_LYR3_LDR7F_MOD2 59.75
BPix_BpO_SEC3_LYR3_LDR7F_MOD3 59.75
BPix_BpO_SEC3_LYR3_LDR7F_MOD4 59.75
BPix_BpO_SEC3_LYR3_LDR8F_MOD1 59.75
BPix_BpO_SEC3_LYR3_LDR8F_MOD2 59.75
BPix_BpO_SEC3_LYR3_LDR8F_MOD3 59.75
BPix_BpO_SEC3_LYR3_LDR8F_MOD4 59.75
BPix_BpO_SEC3_LYR4_LDR10F_MOD1 37.59375
BPix_BpO_SEC3_LYR4_LDR10F_MOD2 37.59375
BPix_BpO_SEC3_LYR4_LDR10F_MOD3 37.59375
BPix_BpO_SEC3_LYR4_LDR10F_MOD4 37.59375
BPix_BpO_SEC3_LYR4_LDR11F_MOD1 37.59375
BPix_BpO_SEC3_LYR4_LDR11F_MOD2 37.59375
BPix_BpO_SEC3_LYR4_LDR11F_MOD3 37.59375
BPix_BpO_SEC3_LYR4_LDR11F_MOD4 37.59375
BPix_BpO_SEC3_LYR4_LDR12F_MOD1 37.59375
BPix_BpO_SEC3_LYR4_LDR12F_MOD2 37.59375
BPix_BpO_SEC3_LYR4_LDR12F_MOD3 37.59375
BPix_BpO_SEC3_LYR4_LDR12F_MOD4 37.59375
BPix_BpO_SEC3_LYR4_LDR9F_MOD1 37.59375
BPix_BpO_SEC3_LYR4_LDR9F_MOD2 37.59375
BPix_BpO_SEC3_LYR4_LDR9F_MOD3 37.59375
BPix_BpO_SEC3_LYR4_LDR9F_MOD4 37.59375
BPix_BpO_SEC4_LYR1_LDR3F_MOD1 363.333333333
BPix_BpO_SEC4_LYR1_LDR3F_MOD2 363.333333333
BPix_BpO_SEC4_LYR1_LDR3F_MOD3 363.333333333
BPix_BpO_SEC4_LYR1_LDR3H_MOD1 363.333333333
BPix_BpO_SEC4_LYR1_LDR3H_MOD2 363.333333333
BPix_BpO_SEC4_LYR1_LDR3H_MOD3 363.333333333
BPix_BpO_SEC4_LYR2_LDR6F_MOD1 221.5
BPix_BpO_SEC4_LYR2_LDR6F_MOD2 221.5
BPix_BpO_SEC4_LYR2_LDR6F_MOD3 221.5
BPix_BpO_SEC4_LYR2_LDR6F_MOD4 221.5
BPix_BpO_SEC4_LYR2_LDR7F_MOD1 221.5
BPix_BpO_SEC4_LYR2_LDR7F_MOD2 221.5
BPix_BpO_SEC4_LYR2_LDR7F_MOD3 221.5
BPix_BpO_SEC4_LYR2_LDR7F_MOD4 221.5
BPix_BpO_SEC4_LYR3_LDR10F_MOD1 73.7916666667
BPix_BpO_SEC4_LYR3_LDR10F_MOD2 73.7916666667
BPix_BpO_SEC4_LYR3_LDR10F_MOD3 73.7916666667
BPix_BpO_SEC4_LYR3_LDR10F_MOD4 73.7916666667
BPix_BpO_SEC4_LYR3_LDR11F_MOD1 73.7916666667
BPix_BpO_SEC4_LYR3_LDR11F_MOD2 73.7916666667
BPix_BpO_SEC4_LYR3_LDR11F_MOD3 73.7916666667
BPix_BpO_SEC4_LYR3_LDR11F_MOD4 73.7916666667
BPix_BpO_SEC4_LYR3_LDR9F_MOD1 73.7916666667
BPix_BpO_SEC4_LYR3_LDR9F_MOD2 73.7916666667
BPix_BpO_SEC4_LYR3_LDR9F_MOD3 73.7916666667
BPix_BpO_SEC4_LYR3_LDR9F_MOD4 73.7916666667
BPix_BpO_SEC4_LYR4_LDR13F_MOD1 60.75
BPix_BpO_SEC4_LYR4_LDR13F_MOD2 60.75
BPix_BpO_SEC4_LYR4_LDR13F_MOD3 60.75
BPix_BpO_SEC4_LYR4_LDR13F_MOD4 60.75
BPix_BpO_SEC4_LYR4_LDR14F_MOD1 60.75
BPix_BpO_SEC4_LYR4_LDR14F_MOD2 60.75
BPix_BpO_SEC4_LYR4_LDR14F_MOD3 60.75
BPix_BpO_SEC4_LYR4_LDR14F_MOD4 60.75
BPix_BpO_SEC4_LYR4_LDR15F_MOD1 60.75
BPix_BpO_SEC4_LYR4_LDR15F_MOD2 60.75
BPix_BpO_SEC4_LYR4_LDR15F_MOD3 60.75
BPix_BpO_SEC4_LYR4_LDR15F_MOD4 60.75
BPix_BpO_SEC4_LYR4_LDR16F_MOD1 60.75
BPix_BpO_SEC4_LYR4_LDR16F_MOD2 60.75
BPix_BpO_SEC4_LYR4_LDR16F_MOD3 60.75
BPix_BpO_SEC4_LYR4_LDR16F_MOD4 60.75
BPix_BpO_SEC5_LYR1_LDR4F_MOD2 346.666666667
BPix_BpO_SEC5_LYR1_LDR4F_MOD3 346.666666667
BPix_BpO_SEC5_LYR1_LDR4F_MOD4 346.666666667
BPix_BpO_SEC5_LYR1_LDR4H_MOD2 346.666666667
BPix_BpO_SEC5_LYR1_LDR4H_MOD3 346.666666667
BPix_BpO_SEC5_LYR1_LDR4H_MOD4 346.666666667
BPix_BpO_SEC5_LYR2_LDR8F_MOD1 210.125
BPix_BpO_SEC5_LYR2_LDR8F_MOD2 210.125
BPix_BpO_SEC5_LYR2_LDR8F_MOD3 210.125
BPix_BpO_SEC5_LYR2_LDR8F_MOD4 210.125
BPix_BpO_SEC5_LYR2_LDR9F_MOD1 210.125
BPix_BpO_SEC5_LYR2_LDR9F_MOD2 210.125
BPix_BpO_SEC5_LYR2_LDR9F_MOD3 210.125
BPix_BpO_SEC5_LYR2_LDR9F_MOD4 210.125
BPix_BpO_SEC5_LYR3_LDR12F_MOD1 84.8333333333
BPix_BpO_SEC5_LYR3_LDR12F_MOD2 84.8333333333
BPix_BpO_SEC5_LYR3_LDR12F_MOD3 84.8333333333
BPix_BpO_SEC5_LYR3_LDR12F_MOD4 84.8333333333
BPix_BpO_SEC5_LYR3_LDR13F_MOD1 84.8333333333
BPix_BpO_SEC5_LYR3_LDR13F_MOD2 84.8333333333
BPix_BpO_SEC5_LYR3_LDR13F_MOD3 84.8333333333
BPix_BpO_SEC5_LYR3_LDR13F_MOD4 84.8333333333
BPix_BpO_SEC5_LYR3_LDR14F_MOD1 84.8333333333
BPix_BpO_SEC5_LYR3_LDR14F_MOD2 84.8333333333
BPix_BpO_SEC5_LYR3_LDR14F_MOD3 84.8333333333
BPix_BpO_SEC5_LYR3_LDR14F_MOD4 84.8333333333
BPix_BpO_SEC5_LYR4_LDR17F_MOD1 48.9375
BPix_BpO_SEC5_LYR4_LDR17F_MOD2 48.9375
BPix_BpO_SEC5_LYR4_LDR17F_MOD3 48.9375
BPix_BpO_SEC5_LYR4_LDR17F_MOD4 48.9375
BPix_BpO_SEC5_LYR4_LDR18F_MOD1 48.9375
BPix_BpO_SEC5_LYR4_LDR18F_MOD2 48.9375
BPix_BpO_SEC5_LYR4_LDR18F_MOD3 48.9375
BPix_BpO_SEC5_LYR4_LDR18F_MOD4 48.9375
BPix_BpO_SEC5_LYR4_LDR19F_MOD1 48.9375
BPix_BpO_SEC5_LYR4_LDR19F_MOD2 48.9375
BPix_BpO_SEC5_LYR4_LDR19F_MOD3 48.9375
BPix_BpO_SEC5_LYR4_LDR19F_MOD4 48.9375
BPix_BpO_SEC5_LYR4_LDR20F_MOD1 48.9375
BPix_BpO_SEC5_LYR4_LDR20F_MOD2 48.9375
BPix_BpO_SEC5_LYR4_LDR20F_MOD3 48.9375
BPix_BpO_SEC5_LYR4_LDR20F_MOD4 48.9375
BPix_BpO_SEC6_LYR1_LDR4F_MOD1 369.666666667
BPix_BpO_SEC6_LYR1_LDR4H_MOD1 369.666666667
BPix_BpO_SEC6_LYR1_LDR5F_MOD3 369.666666667
BPix_BpO_SEC6_LYR1_LDR5F_MOD4 369.666666667
BPix_BpO_SEC6_LYR1_LDR5H_MOD3 369.666666667
BPix_BpO_SEC6_LYR1_LDR5H_MOD4 369.666666667
BPix_BpO_SEC6_LYR2_LDR10F_MOD1 212.375
BPix_BpO_SEC6_LYR2_LDR10F_MOD2 212.375
BPix_BpO_SEC6_LYR2_LDR10F_MOD3 212.375
BPix_BpO_SEC6_LYR2_LDR10F_MOD4 212.375
BPix_BpO_SEC6_LYR3_LDR15F_MOD1 75.1666666667
BPix_BpO_SEC6_LYR3_LDR15F_MOD2 75.1666666667
BPix_BpO_SEC6_LYR3_LDR15F_MOD3 75.1666666667
BPix_BpO_SEC6_LYR3_LDR15F_MOD4 75.1666666667
BPix_BpO_SEC6_LYR3_LDR16F_MOD1 75.1666666667
BPix_BpO_SEC6_LYR3_LDR16F_MOD2 75.1666666667
BPix_BpO_SEC6_LYR3_LDR16F_MOD3 75.1666666667
BPix_BpO_SEC6_LYR3_LDR16F_MOD4 75.1666666667
BPix_BpO_SEC6_LYR3_LDR17F_MOD1 75.1666666667
BPix_BpO_SEC6_LYR3_LDR17F_MOD2 75.1666666667
BPix_BpO_SEC6_LYR3_LDR17F_MOD3 75.1666666667
BPix_BpO_SEC6_LYR3_LDR17F_MOD4 75.1666666667
BPix_BpO_SEC6_LYR4_LDR21F_MOD1 37.4375
BPix_BpO_SEC6_LYR4_LDR21F_MOD2 37.4375
BPix_BpO_SEC6_LYR4_LDR21F_MOD3 37.4375
BPix_BpO_SEC6_LYR4_LDR21F_MOD4 37.4375
BPix_BpO_SEC6_LYR4_LDR22F_MOD1 37.4375
BPix_BpO_SEC6_LYR4_LDR22F_MOD2 37.4375
BPix_BpO_SEC6_LYR4_LDR22F_MOD3 37.4375
BPix_BpO_SEC6_LYR4_LDR22F_MOD4 37.4375
BPix_BpO_SEC6_LYR4_LDR23F_MOD1 37.4375
BPix_BpO_SEC6_LYR4_LDR23F_MOD2 37.4375
BPix_BpO_SEC6_LYR4_LDR23F_MOD3 37.4375
BPix_BpO_SEC6_LYR4_LDR23F_MOD4 37.4375
BPix_BpO_SEC6_LYR4_LDR24F_MOD1 37.4375
BPix_BpO_SEC6_LYR4_LDR24F_MOD2 37.4375
BPix_BpO_SEC6_LYR4_LDR24F_MOD3 37.4375
BPix_BpO_SEC6_LYR4_LDR24F_MOD4 37.4375
BPix_BpO_SEC7_LYR1_LDR5F_MOD1 331.0
BPix_BpO_SEC7_LYR1_LDR5F_MOD2 331.0
BPix_BpO_SEC7_LYR1_LDR5H_MOD1 331.0
BPix_BpO_SEC7_LYR1_LDR5H_MOD2 331.0
BPix_BpO_SEC7_LYR1_LDR6F_MOD4 331.0
BPix_BpO_SEC7_LYR1_LDR6H_MOD4 331.0
BPix_BpO_SEC7_LYR2_LDR11F_MOD1 163.0
BPix_BpO_SEC7_LYR2_LDR11F_MOD2 163.0
BPix_BpO_SEC7_LYR2_LDR11F_MOD3 163.0
BPix_BpO_SEC7_LYR2_LDR11F_MOD4 163.0
BPix_BpO_SEC7_LYR2_LDR12F_MOD1 163.0
BPix_BpO_SEC7_LYR2_LDR12F_MOD2 163.0
BPix_BpO_SEC7_LYR2_LDR12F_MOD3 163.0
BPix_BpO_SEC7_LYR2_LDR12F_MOD4 163.0
BPix_BpO_SEC7_LYR3_LDR18F_MOD1 72.0
BPix_BpO_SEC7_LYR3_LDR18F_MOD2 72.0
BPix_BpO_SEC7_LYR3_LDR18F_MOD3 72.0
BPix_BpO_SEC7_LYR3_LDR18F_MOD4 72.0
BPix_BpO_SEC7_LYR3_LDR19F_MOD1 72.0
BPix_BpO_SEC7_LYR3_LDR19F_MOD2 72.0
BPix_BpO_SEC7_LYR3_LDR19F_MOD3 72.0
BPix_BpO_SEC7_LYR3_LDR19F_MOD4 72.0
BPix_BpO_SEC7_LYR3_LDR20F_MOD1 72.0
BPix_BpO_SEC7_LYR3_LDR20F_MOD2 72.0
BPix_BpO_SEC7_LYR3_LDR20F_MOD3 72.0
BPix_BpO_SEC7_LYR3_LDR20F_MOD4 72.0
BPix_BpO_SEC7_LYR4_LDR25F_MOD1 44.25
BPix_BpO_SEC7_LYR4_LDR25F_MOD2 44.25
BPix_BpO_SEC7_LYR4_LDR25F_MOD3 44.25
BPix_BpO_SEC7_LYR4_LDR25F_MOD4 44.25
BPix_BpO_SEC7_LYR4_LDR26F_MOD1 44.25
BPix_BpO_SEC7_LYR4_LDR26F_MOD2 44.25
BPix_BpO_SEC7_LYR4_LDR26F_MOD3 44.25
BPix_BpO_SEC7_LYR4_LDR26F_MOD4 44.25
BPix_BpO_SEC7_LYR4_LDR27F_MOD1 44.25
BPix_BpO_SEC7_LYR4_LDR27F_MOD2 44.25
BPix_BpO_SEC7_LYR4_LDR27F_MOD3 44.25
BPix_BpO_SEC7_LYR4_LDR27F_MOD4 44.25
BPix_BpO_SEC7_LYR4_LDR28F_MOD1 44.25
BPix_BpO_SEC7_LYR4_LDR28F_MOD2 44.25
BPix_BpO_SEC7_LYR4_LDR28F_MOD3 44.25
BPix_BpO_SEC7_LYR4_LDR28F_MOD4 44.25
BPix_BpO_SEC8_LYR1_LDR6F_MOD1 276.0
BPix_BpO_SEC8_LYR1_LDR6F_MOD2 276.0
BPix_BpO_SEC8_LYR1_LDR6F_MOD3 276.0
BPix_BpO_SEC8_LYR1_LDR6H_MOD1 276.0
BPix_BpO_SEC8_LYR1_LDR6H_MOD2 276.0
BPix_BpO_SEC8_LYR1_LDR6H_MOD3 276.0
BPix_BpO_SEC8_LYR2_LDR13F_MOD1 136.0
BPix_BpO_SEC8_LYR2_LDR13F_MOD2 136.0
BPix_BpO_SEC8_LYR2_LDR13F_MOD3 136.0
BPix_BpO_SEC8_LYR2_LDR13F_MOD4 136.0
BPix_BpO_SEC8_LYR2_LDR14F_MOD1 136.0
BPix_BpO_SEC8_LYR2_LDR14F_MOD2 136.0
BPix_BpO_SEC8_LYR2_LDR14F_MOD3 136.0
BPix_BpO_SEC8_LYR2_LDR14F_MOD4 136.0
BPix_BpO_SEC8_LYR3_LDR21F_MOD1 75.5625
BPix_BpO_SEC8_LYR3_LDR21F_MOD2 75.5625
BPix_BpO_SEC8_LYR3_LDR21F_MOD3 75.5625
BPix_BpO_SEC8_LYR3_LDR21F_MOD4 75.5625
BPix_BpO_SEC8_LYR3_LDR22F_MOD1 75.5625
BPix_BpO_SEC8_LYR3_LDR22F_MOD2 75.5625
BPix_BpO_SEC8_LYR3_LDR22F_MOD3 75.5625
BPix_BpO_SEC8_LYR3_LDR22F_MOD4 75.5625
BPix_BpO_SEC8_LYR4_LDR29F_MOD1 64.0625
BPix_BpO_SEC8_LYR4_LDR29F_MOD2 64.0625
BPix_BpO_SEC8_LYR4_LDR29F_MOD3 64.0625
BPix_BpO_SEC8_LYR4_LDR29F_MOD4 64.0625
BPix_BpO_SEC8_LYR4_LDR30F_MOD1 64.0625
BPix_BpO_SEC8_LYR4_LDR30F_MOD2 64.0625
BPix_BpO_SEC8_LYR4_LDR30F_MOD3 64.0625
BPix_BpO_SEC8_LYR4_LDR30F_MOD4 64.0625
BPix_BpO_SEC8_LYR4_LDR31F_MOD1 64.0625
BPix_BpO_SEC8_LYR4_LDR31F_MOD2 64.0625
BPix_BpO_SEC8_LYR4_LDR31F_MOD3 64.0625
BPix_BpO_SEC8_LYR4_LDR31F_MOD4 64.0625
BPix_BpO_SEC8_LYR4_LDR32F_MOD1 64.0625
BPix_BpO_SEC8_LYR4_LDR32F_MOD2 64.0625
BPix_BpO_SEC8_LYR4_LDR32F_MOD3 64.0625
BPix_BpO_SEC8_LYR4_LDR32F_MOD4 64.0625
BPix_BmI_SEC1_LYR1_LDR1F_MOD2 266.5
BPix_BmI_SEC1_LYR1_LDR1F_MOD3 266.5
BPix_BmI_SEC1_LYR1_LDR1F_MOD4 266.5
BPix_BmI_SEC1_LYR1_LDR1H_MOD2 266.5
BPix_BmI_SEC1_LYR1_LDR1H_MOD3 266.5
BPix_BmI_SEC1_LYR1_LDR1H_MOD4 266.5
BPix_BmI_SEC1_LYR2_LDR1F_MOD1 141.375
BPix_BmI_SEC1_LYR2_LDR1F_MOD2 141.375
BPix_BmI_SEC1_LYR2_LDR1F_MOD3 141.375
BPix_BmI_SEC1_LYR2_LDR1F_MOD4 141.375
BPix_BmI_SEC1_LYR2_LDR2F_MOD1 141.375
BPix_BmI_SEC1_LYR2_LDR2F_MOD2 141.375
BPix_BmI_SEC1_LYR2_LDR2F_MOD3 141.375
BPix_BmI_SEC1_LYR2_LDR2F_MOD4 141.375
BPix_BmI_SEC1_LYR3_LDR1F_MOD1 75.5
BPix_BmI_SEC1_LYR3_LDR1F_MOD2 75.5
BPix_BmI_SEC1_LYR3_LDR1F_MOD3 75.5
BPix_BmI_SEC1_LYR3_LDR1F_MOD4 75.5
BPix_BmI_SEC1_LYR3_LDR2F_MOD1 75.5
BPix_BmI_SEC1_LYR3_LDR2F_MOD2 75.5
BPix_BmI_SEC1_LYR3_LDR2F_MOD3 75.5
BPix_BmI_SEC1_LYR3_LDR2F_MOD4 75.5
BPix_BmI_SEC1_LYR4_LDR1F_MOD1 52.78125
BPix_BmI_SEC1_LYR4_LDR1F_MOD2 52.78125
BPix_BmI_SEC1_LYR4_LDR1F_MOD3 52.78125
BPix_BmI_SEC1_LYR4_LDR1F_MOD4 52.78125
BPix_BmI_SEC1_LYR4_LDR2F_MOD1 52.78125
BPix_BmI_SEC1_LYR4_LDR2F_MOD2 52.78125
BPix_BmI_SEC1_LYR4_LDR2F_MOD3 52.78125
BPix_BmI_SEC1_LYR4_LDR2F_MOD4 52.78125
BPix_BmI_SEC1_LYR4_LDR3F_MOD1 52.78125
BPix_BmI_SEC1_LYR4_LDR3F_MOD2 52.78125
BPix_BmI_SEC1_LYR4_LDR3F_MOD3 52.78125
BPix_BmI_SEC1_LYR4_LDR3F_MOD4 52.78125
BPix_BmI_SEC1_LYR4_LDR4F_MOD1 52.78125
BPix_BmI_SEC1_LYR4_LDR4F_MOD2 52.78125
BPix_BmI_SEC1_LYR4_LDR4F_MOD3 52.78125
BPix_BmI_SEC1_LYR4_LDR4F_MOD4 52.78125
BPix_BmI_SEC2_LYR1_LDR1F_MOD1 334.0
BPix_BmI_SEC2_LYR1_LDR1H_MOD1 334.0
BPix_BmI_SEC2_LYR1_LDR2F_MOD3 334.0
BPix_BmI_SEC2_LYR1_LDR2F_MOD4 334.0
BPix_BmI_SEC2_LYR1_LDR2H_MOD3 334.0
BPix_BmI_SEC2_LYR1_LDR2H_MOD4 334.0
BPix_BmI_SEC2_LYR2_LDR3F_MOD1 156.125
BPix_BmI_SEC2_LYR2_LDR3F_MOD2 156.125
BPix_BmI_SEC2_LYR2_LDR3F_MOD3 156.125
BPix_BmI_SEC2_LYR2_LDR3F_MOD4 156.125
BPix_BmI_SEC2_LYR2_LDR4F_MOD1 156.125
BPix_BmI_SEC2_LYR2_LDR4F_MOD2 156.125
BPix_BmI_SEC2_LYR2_LDR4F_MOD3 156.125
BPix_BmI_SEC2_LYR2_LDR4F_MOD4 156.125
BPix_BmI_SEC2_LYR3_LDR3F_MOD1 62.4583333333
BPix_BmI_SEC2_LYR3_LDR3F_MOD2 62.4583333333
BPix_BmI_SEC2_LYR3_LDR3F_MOD3 62.4583333333
BPix_BmI_SEC2_LYR3_LDR3F_MOD4 62.4583333333
BPix_BmI_SEC2_LYR3_LDR4F_MOD1 62.4583333333
BPix_BmI_SEC2_LYR3_LDR4F_MOD2 62.4583333333
BPix_BmI_SEC2_LYR3_LDR4F_MOD3 62.4583333333
BPix_BmI_SEC2_LYR3_LDR4F_MOD4 62.4583333333
BPix_BmI_SEC2_LYR3_LDR5F_MOD1 62.4583333333
BPix_BmI_SEC2_LYR3_LDR5F_MOD2 62.4583333333
BPix_BmI_SEC2_LYR3_LDR5F_MOD3 62.4583333333
BPix_BmI_SEC2_LYR3_LDR5F_MOD4 62.4583333333
BPix_BmI_SEC2_LYR4_LDR5F_MOD1 42.0625
BPix_BmI_SEC2_LYR4_LDR5F_MOD2 42.0625
BPix_BmI_SEC2_LYR4_LDR5F_MOD3 42.0625
BPix_BmI_SEC2_LYR4_LDR5F_MOD4 42.0625
BPix_BmI_SEC2_LYR4_LDR6F_MOD1 42.0625
BPix_BmI_SEC2_LYR4_LDR6F_MOD2 42.0625
BPix_BmI_SEC2_LYR4_LDR6F_MOD3 42.0625
BPix_BmI_SEC2_LYR4_LDR6F_MOD4 42.0625
BPix_BmI_SEC2_LYR4_LDR7F_MOD1 42.0625
BPix_BmI_SEC2_LYR4_LDR7F_MOD2 42.0625
BPix_BmI_SEC2_LYR4_LDR7F_MOD3 42.0625
BPix_BmI_SEC2_LYR4_LDR7F_MOD4 42.0625
BPix_BmI_SEC2_LYR4_LDR8F_MOD1 42.0625
BPix_BmI_SEC2_LYR4_LDR8F_MOD2 42.0625
BPix_BmI_SEC2_LYR4_LDR8F_MOD3 42.0625
BPix_BmI_SEC2_LYR4_LDR8F_MOD4 42.0625
BPix_BmI_SEC3_LYR1_LDR2F_MOD1 0
BPix_BmI_SEC3_LYR1_LDR2F_MOD2 323.75
BPix_BmI_SEC3_LYR1_LDR2H_MOD1 0
BPix_BmI_SEC3_LYR1_LDR2H_MOD2 323.75
BPix_BmI_SEC3_LYR1_LDR3F_MOD4 323.75
BPix_BmI_SEC3_LYR1_LDR3H_MOD4 323.75
BPix_BmI_SEC3_LYR2_LDR5F_MOD1 111.75
BPix_BmI_SEC3_LYR2_LDR5F_MOD2 111.75
BPix_BmI_SEC3_LYR2_LDR5F_MOD3 111.75
BPix_BmI_SEC3_LYR2_LDR5F_MOD4 111.75
BPix_BmI_SEC3_LYR3_LDR6F_MOD1 67.4166666667
BPix_BmI_SEC3_LYR3_LDR6F_MOD2 67.4166666667
BPix_BmI_SEC3_LYR3_LDR6F_MOD3 67.4166666667
BPix_BmI_SEC3_LYR3_LDR6F_MOD4 67.4166666667
BPix_BmI_SEC3_LYR3_LDR7F_MOD1 67.4166666667
BPix_BmI_SEC3_LYR3_LDR7F_MOD2 67.4166666667
BPix_BmI_SEC3_LYR3_LDR7F_MOD3 67.4166666667
BPix_BmI_SEC3_LYR3_LDR7F_MOD4 67.4166666667
BPix_BmI_SEC3_LYR3_LDR8F_MOD1 67.4166666667
BPix_BmI_SEC3_LYR3_LDR8F_MOD2 67.4166666667
BPix_BmI_SEC3_LYR3_LDR8F_MOD3 67.4166666667
BPix_BmI_SEC3_LYR3_LDR8F_MOD4 67.4166666667
BPix_BmI_SEC3_LYR4_LDR10F_MOD1 35.25
BPix_BmI_SEC3_LYR4_LDR10F_MOD2 35.25
BPix_BmI_SEC3_LYR4_LDR10F_MOD3 35.25
BPix_BmI_SEC3_LYR4_LDR10F_MOD4 35.25
BPix_BmI_SEC3_LYR4_LDR11F_MOD1 35.25
BPix_BmI_SEC3_LYR4_LDR11F_MOD2 35.25
BPix_BmI_SEC3_LYR4_LDR11F_MOD3 35.25
BPix_BmI_SEC3_LYR4_LDR11F_MOD4 35.25
BPix_BmI_SEC3_LYR4_LDR12F_MOD1 35.25
BPix_BmI_SEC3_LYR4_LDR12F_MOD2 35.25
BPix_BmI_SEC3_LYR4_LDR12F_MOD3 35.25
BPix_BmI_SEC3_LYR4_LDR12F_MOD4 35.25
BPix_BmI_SEC3_LYR4_LDR9F_MOD1 35.25
BPix_BmI_SEC3_LYR4_LDR9F_MOD2 35.25
BPix_BmI_SEC3_LYR4_LDR9F_MOD3 35.25
BPix_BmI_SEC3_LYR4_LDR9F_MOD4 35.25
BPix_BmI_SEC4_LYR1_LDR3F_MOD1 377.666666667
BPix_BmI_SEC4_LYR1_LDR3F_MOD2 377.666666667
BPix_BmI_SEC4_LYR1_LDR3F_MOD3 377.666666667
BPix_BmI_SEC4_LYR1_LDR3H_MOD1 377.666666667
BPix_BmI_SEC4_LYR1_LDR3H_MOD2 377.666666667
BPix_BmI_SEC4_LYR1_LDR3H_MOD3 377.666666667
BPix_BmI_SEC4_LYR2_LDR6F_MOD1 160.875
BPix_BmI_SEC4_LYR2_LDR6F_MOD2 160.875
BPix_BmI_SEC4_LYR2_LDR6F_MOD3 160.875
BPix_BmI_SEC4_LYR2_LDR6F_MOD4 160.875
BPix_BmI_SEC4_LYR2_LDR7F_MOD1 160.875
BPix_BmI_SEC4_LYR2_LDR7F_MOD2 160.875
BPix_BmI_SEC4_LYR2_LDR7F_MOD3 160.875
BPix_BmI_SEC4_LYR2_LDR7F_MOD4 160.875
BPix_BmI_SEC4_LYR3_LDR10F_MOD1 67.2083333333
BPix_BmI_SEC4_LYR3_LDR10F_MOD2 67.2083333333
BPix_BmI_SEC4_LYR3_LDR10F_MOD3 67.2083333333
BPix_BmI_SEC4_LYR3_LDR10F_MOD4 67.2083333333
BPix_BmI_SEC4_LYR3_LDR11F_MOD1 67.2083333333
BPix_BmI_SEC4_LYR3_LDR11F_MOD2 67.2083333333
BPix_BmI_SEC4_LYR3_LDR11F_MOD3 67.2083333333
BPix_BmI_SEC4_LYR3_LDR11F_MOD4 67.2083333333
BPix_BmI_SEC4_LYR3_LDR9F_MOD1 67.2083333333
BPix_BmI_SEC4_LYR3_LDR9F_MOD2 67.2083333333
BPix_BmI_SEC4_LYR3_LDR9F_MOD3 67.2083333333
BPix_BmI_SEC4_LYR3_LDR9F_MOD4 67.2083333333
BPix_BmI_SEC4_LYR4_LDR13F_MOD1 48.84375
BPix_BmI_SEC4_LYR4_LDR13F_MOD2 48.84375
BPix_BmI_SEC4_LYR4_LDR13F_MOD3 48.84375
BPix_BmI_SEC4_LYR4_LDR13F_MOD4 48.84375
BPix_BmI_SEC4_LYR4_LDR14F_MOD1 48.84375
BPix_BmI_SEC4_LYR4_LDR14F_MOD2 48.84375
BPix_BmI_SEC4_LYR4_LDR14F_MOD3 48.84375
BPix_BmI_SEC4_LYR4_LDR14F_MOD4 48.84375
BPix_BmI_SEC4_LYR4_LDR15F_MOD1 48.84375
BPix_BmI_SEC4_LYR4_LDR15F_MOD2 48.84375
BPix_BmI_SEC4_LYR4_LDR15F_MOD3 48.84375
BPix_BmI_SEC4_LYR4_LDR15F_MOD4 48.84375
BPix_BmI_SEC4_LYR4_LDR16F_MOD1 48.84375
BPix_BmI_SEC4_LYR4_LDR16F_MOD2 48.84375
BPix_BmI_SEC4_LYR4_LDR16F_MOD3 48.84375
BPix_BmI_SEC4_LYR4_LDR16F_MOD4 48.84375
BPix_BmI_SEC5_LYR1_LDR4F_MOD2 367.666666667
BPix_BmI_SEC5_LYR1_LDR4F_MOD3 367.666666667
BPix_BmI_SEC5_LYR1_LDR4F_MOD4 367.666666667
BPix_BmI_SEC5_LYR1_LDR4H_MOD2 367.666666667
BPix_BmI_SEC5_LYR1_LDR4H_MOD3 367.666666667
BPix_BmI_SEC5_LYR1_LDR4H_MOD4 367.666666667
BPix_BmI_SEC5_LYR2_LDR8F_MOD1 173.875
BPix_BmI_SEC5_LYR2_LDR8F_MOD2 173.875
BPix_BmI_SEC5_LYR2_LDR8F_MOD3 173.875
BPix_BmI_SEC5_LYR2_LDR8F_MOD4 173.875
BPix_BmI_SEC5_LYR2_LDR9F_MOD1 173.875
BPix_BmI_SEC5_LYR2_LDR9F_MOD2 173.875
BPix_BmI_SEC5_LYR2_LDR9F_MOD3 173.875
BPix_BmI_SEC5_LYR2_LDR9F_MOD4 173.875
BPix_BmI_SEC5_LYR3_LDR12F_MOD1 71.0416666667
BPix_BmI_SEC5_LYR3_LDR12F_MOD2 71.0416666667
BPix_BmI_SEC5_LYR3_LDR12F_MOD3 71.0416666667
BPix_BmI_SEC5_LYR3_LDR12F_MOD4 71.0416666667
BPix_BmI_SEC5_LYR3_LDR13F_MOD1 71.0416666667
BPix_BmI_SEC5_LYR3_LDR13F_MOD2 71.0416666667
BPix_BmI_SEC5_LYR3_LDR13F_MOD3 71.0416666667
BPix_BmI_SEC5_LYR3_LDR13F_MOD4 71.0416666667
BPix_BmI_SEC5_LYR3_LDR14F_MOD1 71.0416666667
BPix_BmI_SEC5_LYR3_LDR14F_MOD2 71.0416666667
BPix_BmI_SEC5_LYR3_LDR14F_MOD3 71.0416666667
BPix_BmI_SEC5_LYR3_LDR14F_MOD4 71.0416666667
BPix_BmI_SEC5_LYR4_LDR17F_MOD1 49.875
BPix_BmI_SEC5_LYR4_LDR17F_MOD2 49.875
BPix_BmI_SEC5_LYR4_LDR17F_MOD3 49.875
BPix_BmI_SEC5_LYR4_LDR17F_MOD4 49.875
BPix_BmI_SEC5_LYR4_LDR18F_MOD1 49.875
BPix_BmI_SEC5_LYR4_LDR18F_MOD2 49.875
BPix_BmI_SEC5_LYR4_LDR18F_MOD3 49.875
BPix_BmI_SEC5_LYR4_LDR18F_MOD4 49.875
BPix_BmI_SEC5_LYR4_LDR19F_MOD1 49.875
BPix_BmI_SEC5_LYR4_LDR19F_MOD2 49.875
BPix_BmI_SEC5_LYR4_LDR19F_MOD3 49.875
BPix_BmI_SEC5_LYR4_LDR19F_MOD4 49.875
BPix_BmI_SEC5_LYR4_LDR20F_MOD1 49.875
BPix_BmI_SEC5_LYR4_LDR20F_MOD2 49.875
BPix_BmI_SEC5_LYR4_LDR20F_MOD3 49.875
BPix_BmI_SEC5_LYR4_LDR20F_MOD4 49.875
BPix_BmI_SEC6_LYR1_LDR4F_MOD1 362.0
BPix_BmI_SEC6_LYR1_LDR4H_MOD1 362.0
BPix_BmI_SEC6_LYR1_LDR5F_MOD3 362.0
BPix_BmI_SEC6_LYR1_LDR5F_MOD4 362.0
BPix_BmI_SEC6_LYR1_LDR5H_MOD3 362.0
BPix_BmI_SEC6_LYR1_LDR5H_MOD4 362.0
BPix_BmI_SEC6_LYR2_LDR10F_MOD1 160.125
BPix_BmI_SEC6_LYR2_LDR10F_MOD2 160.125
BPix_BmI_SEC6_LYR2_LDR10F_MOD3 160.125
BPix_BmI_SEC6_LYR2_LDR10F_MOD4 160.125
BPix_BmI_SEC6_LYR3_LDR15F_MOD1 57.5833333333
BPix_BmI_SEC6_LYR3_LDR15F_MOD2 57.5833333333
BPix_BmI_SEC6_LYR3_LDR15F_MOD3 57.5833333333
BPix_BmI_SEC6_LYR3_LDR15F_MOD4 57.5833333333
BPix_BmI_SEC6_LYR3_LDR16F_MOD1 57.5833333333
BPix_BmI_SEC6_LYR3_LDR16F_MOD2 57.5833333333
BPix_BmI_SEC6_LYR3_LDR16F_MOD3 57.5833333333
BPix_BmI_SEC6_LYR3_LDR16F_MOD4 57.5833333333
BPix_BmI_SEC6_LYR3_LDR17F_MOD1 57.5833333333
BPix_BmI_SEC6_LYR3_LDR17F_MOD2 57.5833333333
BPix_BmI_SEC6_LYR3_LDR17F_MOD3 57.5833333333
BPix_BmI_SEC6_LYR3_LDR17F_MOD4 57.5833333333
BPix_BmI_SEC6_LYR4_LDR21F_MOD1 39.90625
BPix_BmI_SEC6_LYR4_LDR21F_MOD2 39.90625
BPix_BmI_SEC6_LYR4_LDR21F_MOD3 39.90625
BPix_BmI_SEC6_LYR4_LDR21F_MOD4 39.90625
BPix_BmI_SEC6_LYR4_LDR22F_MOD1 39.90625
BPix_BmI_SEC6_LYR4_LDR22F_MOD2 39.90625
BPix_BmI_SEC6_LYR4_LDR22F_MOD3 39.90625
BPix_BmI_SEC6_LYR4_LDR22F_MOD4 39.90625
BPix_BmI_SEC6_LYR4_LDR23F_MOD1 39.90625
BPix_BmI_SEC6_LYR4_LDR23F_MOD2 39.90625
BPix_BmI_SEC6_LYR4_LDR23F_MOD3 39.90625
BPix_BmI_SEC6_LYR4_LDR23F_MOD4 39.90625
BPix_BmI_SEC6_LYR4_LDR24F_MOD1 39.90625
BPix_BmI_SEC6_LYR4_LDR24F_MOD2 39.90625
BPix_BmI_SEC6_LYR4_LDR24F_MOD3 39.90625
BPix_BmI_SEC6_LYR4_LDR24F_MOD4 39.90625
BPix_BmI_SEC7_LYR1_LDR5F_MOD1 382.333333333
BPix_BmI_SEC7_LYR1_LDR5F_MOD2 382.333333333
BPix_BmI_SEC7_LYR1_LDR5H_MOD1 382.333333333
BPix_BmI_SEC7_LYR1_LDR5H_MOD2 382.333333333
BPix_BmI_SEC7_LYR1_LDR6F_MOD4 382.333333333
BPix_BmI_SEC7_LYR1_LDR6H_MOD4 382.333333333
BPix_BmI_SEC7_LYR2_LDR11F_MOD1 148.25
BPix_BmI_SEC7_LYR2_LDR11F_MOD2 148.25
BPix_BmI_SEC7_LYR2_LDR11F_MOD3 148.25
BPix_BmI_SEC7_LYR2_LDR11F_MOD4 148.25
BPix_BmI_SEC7_LYR2_LDR12F_MOD1 148.25
BPix_BmI_SEC7_LYR2_LDR12F_MOD2 148.25
BPix_BmI_SEC7_LYR2_LDR12F_MOD3 148.25
BPix_BmI_SEC7_LYR2_LDR12F_MOD4 148.25
BPix_BmI_SEC7_LYR3_LDR18F_MOD1 55.75
BPix_BmI_SEC7_LYR3_LDR18F_MOD2 55.75
BPix_BmI_SEC7_LYR3_LDR18F_MOD3 55.75
BPix_BmI_SEC7_LYR3_LDR18F_MOD4 55.75
BPix_BmI_SEC7_LYR3_LDR19F_MOD1 55.75
BPix_BmI_SEC7_LYR3_LDR19F_MOD2 55.75
BPix_BmI_SEC7_LYR3_LDR19F_MOD3 55.75
BPix_BmI_SEC7_LYR3_LDR19F_MOD4 55.75
BPix_BmI_SEC7_LYR3_LDR20F_MOD1 55.75
BPix_BmI_SEC7_LYR3_LDR20F_MOD2 55.75
BPix_BmI_SEC7_LYR3_LDR20F_MOD3 55.75
BPix_BmI_SEC7_LYR3_LDR20F_MOD4 55.75
BPix_BmI_SEC7_LYR4_LDR25F_MOD1 39.0625
BPix_BmI_SEC7_LYR4_LDR25F_MOD2 39.0625
BPix_BmI_SEC7_LYR4_LDR25F_MOD3 39.0625
BPix_BmI_SEC7_LYR4_LDR25F_MOD4 39.0625
BPix_BmI_SEC7_LYR4_LDR26F_MOD1 39.0625
BPix_BmI_SEC7_LYR4_LDR26F_MOD2 39.0625
BPix_BmI_SEC7_LYR4_LDR26F_MOD3 39.0625
BPix_BmI_SEC7_LYR4_LDR26F_MOD4 39.0625
BPix_BmI_SEC7_LYR4_LDR27F_MOD1 39.0625
BPix_BmI_SEC7_LYR4_LDR27F_MOD2 39.0625
BPix_BmI_SEC7_LYR4_LDR27F_MOD3 39.0625
BPix_BmI_SEC7_LYR4_LDR27F_MOD4 39.0625
BPix_BmI_SEC7_LYR4_LDR28F_MOD1 39.0625
BPix_BmI_SEC7_LYR4_LDR28F_MOD2 39.0625
BPix_BmI_SEC7_LYR4_LDR28F_MOD3 39.0625
BPix_BmI_SEC7_LYR4_LDR28F_MOD4 39.0625
BPix_BmI_SEC8_LYR1_LDR6F_MOD1 304.5
BPix_BmI_SEC8_LYR1_LDR6F_MOD2 304.5
BPix_BmI_SEC8_LYR1_LDR6F_MOD3 304.5
BPix_BmI_SEC8_LYR1_LDR6H_MOD1 304.5
BPix_BmI_SEC8_LYR1_LDR6H_MOD2 304.5
BPix_BmI_SEC8_LYR1_LDR6H_MOD3 304.5
BPix_BmI_SEC8_LYR2_LDR13F_MOD1 120.5
BPix_BmI_SEC8_LYR2_LDR13F_MOD2 120.5
BPix_BmI_SEC8_LYR2_LDR13F_MOD3 120.5
BPix_BmI_SEC8_LYR2_LDR13F_MOD4 120.5
BPix_BmI_SEC8_LYR2_LDR14F_MOD1 120.5
BPix_BmI_SEC8_LYR2_LDR14F_MOD2 120.5
BPix_BmI_SEC8_LYR2_LDR14F_MOD3 120.5
BPix_BmI_SEC8_LYR2_LDR14F_MOD4 120.5
BPix_BmI_SEC8_LYR3_LDR21F_MOD1 66.375
BPix_BmI_SEC8_LYR3_LDR21F_MOD2 66.375
BPix_BmI_SEC8_LYR3_LDR21F_MOD3 66.375
BPix_BmI_SEC8_LYR3_LDR21F_MOD4 66.375
BPix_BmI_SEC8_LYR3_LDR22F_MOD1 66.375
BPix_BmI_SEC8_LYR3_LDR22F_MOD2 66.375
BPix_BmI_SEC8_LYR3_LDR22F_MOD3 66.375
BPix_BmI_SEC8_LYR3_LDR22F_MOD4 66.375
BPix_BmI_SEC8_LYR4_LDR29F_MOD1 42.6875
BPix_BmI_SEC8_LYR4_LDR29F_MOD2 42.6875
BPix_BmI_SEC8_LYR4_LDR29F_MOD3 42.6875
BPix_BmI_SEC8_LYR4_LDR29F_MOD4 42.6875
BPix_BmI_SEC8_LYR4_LDR30F_MOD1 42.6875
BPix_BmI_SEC8_LYR4_LDR30F_MOD2 42.6875
BPix_BmI_SEC8_LYR4_LDR30F_MOD3 42.6875
BPix_BmI_SEC8_LYR4_LDR30F_MOD4 42.6875
BPix_BmI_SEC8_LYR4_LDR31F_MOD1 42.6875
BPix_BmI_SEC8_LYR4_LDR31F_MOD2 42.6875
BPix_BmI_SEC8_LYR4_LDR31F_MOD3 42.6875
BPix_BmI_SEC8_LYR4_LDR31F_MOD4 42.6875
BPix_BmI_SEC8_LYR4_LDR32F_MOD1 42.6875
BPix_BmI_SEC8_LYR4_LDR32F_MOD2 42.6875
BPix_BmI_SEC8_LYR4_LDR32F_MOD3 42.6875
BPix_BmI_SEC8_LYR4_LDR32F_MOD4 42.6875
BPix_BmO_SEC1_LYR1_LDR1F_MOD2 320.166666667
BPix_BmO_SEC1_LYR1_LDR1F_MOD3 320.166666667
BPix_BmO_SEC1_LYR1_LDR1F_MOD4 320.166666667
BPix_BmO_SEC1_LYR1_LDR1H_MOD2 320.166666667
BPix_BmO_SEC1_LYR1_LDR1H_MOD3 320.166666667
BPix_BmO_SEC1_LYR1_LDR1H_MOD4 320.166666667
BPix_BmO_SEC1_LYR2_LDR1F_MOD1 145.375
BPix_BmO_SEC1_LYR2_LDR1F_MOD2 145.375
BPix_BmO_SEC1_LYR2_LDR1F_MOD3 145.375
BPix_BmO_SEC1_LYR2_LDR1F_MOD4 145.375
BPix_BmO_SEC1_LYR2_LDR2F_MOD1 145.375
BPix_BmO_SEC1_LYR2_LDR2F_MOD2 145.375
BPix_BmO_SEC1_LYR2_LDR2F_MOD3 145.375
BPix_BmO_SEC1_LYR2_LDR2F_MOD4 145.375
BPix_BmO_SEC1_LYR3_LDR1F_MOD1 81.5
BPix_BmO_SEC1_LYR3_LDR1F_MOD2 81.5
BPix_BmO_SEC1_LYR3_LDR1F_MOD3 81.5
BPix_BmO_SEC1_LYR3_LDR1F_MOD4 81.5
BPix_BmO_SEC1_LYR3_LDR2F_MOD1 81.5
BPix_BmO_SEC1_LYR3_LDR2F_MOD2 81.5
BPix_BmO_SEC1_LYR3_LDR2F_MOD3 81.5
BPix_BmO_SEC1_LYR3_LDR2F_MOD4 81.5
BPix_BmO_SEC1_LYR4_LDR1F_MOD1 52.375
BPix_BmO_SEC1_LYR4_LDR1F_MOD2 52.375
BPix_BmO_SEC1_LYR4_LDR1F_MOD3 52.375
BPix_BmO_SEC1_LYR4_LDR1F_MOD4 52.375
BPix_BmO_SEC1_LYR4_LDR2F_MOD1 52.375
BPix_BmO_SEC1_LYR4_LDR2F_MOD2 52.375
BPix_BmO_SEC1_LYR4_LDR2F_MOD3 52.375
BPix_BmO_SEC1_LYR4_LDR2F_MOD4 52.375
BPix_BmO_SEC1_LYR4_LDR3F_MOD1 52.375
BPix_BmO_SEC1_LYR4_LDR3F_MOD2 52.375
BPix_BmO_SEC1_LYR4_LDR3F_MOD3 52.375
BPix_BmO_SEC1_LYR4_LDR3F_MOD4 52.375
BPix_BmO_SEC1_LYR4_LDR4F_MOD1 52.375
BPix_BmO_SEC1_LYR4_LDR4F_MOD2 52.375
BPix_BmO_SEC1_LYR4_LDR4F_MOD3 52.375
BPix_BmO_SEC1_LYR4_LDR4F_MOD4 52.375
BPix_BmO_SEC2_LYR1_LDR1F_MOD1 315.166666667
BPix_BmO_SEC2_LYR1_LDR1H_MOD1 315.166666667
BPix_BmO_SEC2_LYR1_LDR2F_MOD3 315.166666667
BPix_BmO_SEC2_LYR1_LDR2F_MOD4 315.166666667
BPix_BmO_SEC2_LYR1_LDR2H_MOD3 315.166666667
BPix_BmO_SEC2_LYR1_LDR2H_MOD4 315.166666667
BPix_BmO_SEC2_LYR2_LDR3F_MOD1 167.875
BPix_BmO_SEC2_LYR2_LDR3F_MOD2 167.875
BPix_BmO_SEC2_LYR2_LDR3F_MOD3 167.875
BPix_BmO_SEC2_LYR2_LDR3F_MOD4 167.875
BPix_BmO_SEC2_LYR2_LDR4F_MOD1 167.875
BPix_BmO_SEC2_LYR2_LDR4F_MOD2 167.875
BPix_BmO_SEC2_LYR2_LDR4F_MOD3 167.875
BPix_BmO_SEC2_LYR2_LDR4F_MOD4 167.875
BPix_BmO_SEC2_LYR3_LDR3F_MOD1 65.2916666667
BPix_BmO_SEC2_LYR3_LDR3F_MOD2 65.2916666667
BPix_BmO_SEC2_LYR3_LDR3F_MOD3 65.2916666667
BPix_BmO_SEC2_LYR3_LDR3F_MOD4 65.2916666667
BPix_BmO_SEC2_LYR3_LDR4F_MOD1 65.2916666667
BPix_BmO_SEC2_LYR3_LDR4F_MOD2 65.2916666667
BPix_BmO_SEC2_LYR3_LDR4F_MOD3 65.2916666667
BPix_BmO_SEC2_LYR3_LDR4F_MOD4 65.2916666667
BPix_BmO_SEC2_LYR3_LDR5F_MOD1 65.2916666667
BPix_BmO_SEC2_LYR3_LDR5F_MOD2 65.2916666667
BPix_BmO_SEC2_LYR3_LDR5F_MOD3 65.2916666667
BPix_BmO_SEC2_LYR3_LDR5F_MOD4 65.2916666667
BPix_BmO_SEC2_LYR4_LDR5F_MOD1 40.21875
BPix_BmO_SEC2_LYR4_LDR5F_MOD2 40.21875
BPix_BmO_SEC2_LYR4_LDR5F_MOD3 40.21875
BPix_BmO_SEC2_LYR4_LDR5F_MOD4 40.21875
BPix_BmO_SEC2_LYR4_LDR6F_MOD1 40.21875
BPix_BmO_SEC2_LYR4_LDR6F_MOD2 40.21875
BPix_BmO_SEC2_LYR4_LDR6F_MOD3 40.21875
BPix_BmO_SEC2_LYR4_LDR6F_MOD4 40.21875
BPix_BmO_SEC2_LYR4_LDR7F_MOD1 40.21875
BPix_BmO_SEC2_LYR4_LDR7F_MOD2 40.21875
BPix_BmO_SEC2_LYR4_LDR7F_MOD3 40.21875
BPix_BmO_SEC2_LYR4_LDR7F_MOD4 40.21875
BPix_BmO_SEC2_LYR4_LDR8F_MOD1 40.21875
BPix_BmO_SEC2_LYR4_LDR8F_MOD2 40.21875
BPix_BmO_SEC2_LYR4_LDR8F_MOD3 40.21875
BPix_BmO_SEC2_LYR4_LDR8F_MOD4 40.21875
BPix_BmO_SEC3_LYR1_LDR2F_MOD1 409.333333333
BPix_BmO_SEC3_LYR1_LDR2F_MOD2 409.333333333
BPix_BmO_SEC3_LYR1_LDR2H_MOD1 409.333333333
BPix_BmO_SEC3_LYR1_LDR2H_MOD2 409.333333333
BPix_BmO_SEC3_LYR1_LDR3F_MOD4 409.333333333
BPix_BmO_SEC3_LYR1_LDR3H_MOD4 409.333333333
BPix_BmO_SEC3_LYR2_LDR5F_MOD1 164.25
BPix_BmO_SEC3_LYR2_LDR5F_MOD2 164.25
BPix_BmO_SEC3_LYR2_LDR5F_MOD3 164.25
BPix_BmO_SEC3_LYR2_LDR5F_MOD4 164.25
BPix_BmO_SEC3_LYR3_LDR6F_MOD1 64.125
BPix_BmO_SEC3_LYR3_LDR6F_MOD2 64.125
BPix_BmO_SEC3_LYR3_LDR6F_MOD3 64.125
BPix_BmO_SEC3_LYR3_LDR6F_MOD4 64.125
BPix_BmO_SEC3_LYR3_LDR7F_MOD1 64.125
BPix_BmO_SEC3_LYR3_LDR7F_MOD2 64.125
BPix_BmO_SEC3_LYR3_LDR7F_MOD3 64.125
BPix_BmO_SEC3_LYR3_LDR7F_MOD4 64.125
BPix_BmO_SEC3_LYR3_LDR8F_MOD1 64.125
BPix_BmO_SEC3_LYR3_LDR8F_MOD2 64.125
BPix_BmO_SEC3_LYR3_LDR8F_MOD3 64.125
BPix_BmO_SEC3_LYR3_LDR8F_MOD4 64.125
BPix_BmO_SEC3_LYR4_LDR10F_MOD1 41.0625
BPix_BmO_SEC3_LYR4_LDR10F_MOD2 41.0625
BPix_BmO_SEC3_LYR4_LDR10F_MOD3 41.0625
BPix_BmO_SEC3_LYR4_LDR10F_MOD4 41.0625
BPix_BmO_SEC3_LYR4_LDR11F_MOD1 41.0625
BPix_BmO_SEC3_LYR4_LDR11F_MOD2 41.0625
BPix_BmO_SEC3_LYR4_LDR11F_MOD3 41.0625
BPix_BmO_SEC3_LYR4_LDR11F_MOD4 41.0625
BPix_BmO_SEC3_LYR4_LDR12F_MOD1 41.0625
BPix_BmO_SEC3_LYR4_LDR12F_MOD2 41.0625
BPix_BmO_SEC3_LYR4_LDR12F_MOD3 41.0625
BPix_BmO_SEC3_LYR4_LDR12F_MOD4 41.0625
BPix_BmO_SEC3_LYR4_LDR9F_MOD1 41.0625
BPix_BmO_SEC3_LYR4_LDR9F_MOD2 41.0625
BPix_BmO_SEC3_LYR4_LDR9F_MOD3 41.0625
BPix_BmO_SEC3_LYR4_LDR9F_MOD4 41.0625
BPix_BmO_SEC4_LYR1_LDR3F_MOD1 368.0
BPix_BmO_SEC4_LYR1_LDR3F_MOD2 368.0
BPix_BmO_SEC4_LYR1_LDR3F_MOD3 368.0
BPix_BmO_SEC4_LYR1_LDR3H_MOD1 368.0
BPix_BmO_SEC4_LYR1_LDR3H_MOD2 368.0
BPix_BmO_SEC4_LYR1_LDR3H_MOD3 368.0
BPix_BmO_SEC4_LYR2_LDR6F_MOD1 216.125
BPix_BmO_SEC4_LYR2_LDR6F_MOD2 216.125
BPix_BmO_SEC4_LYR2_LDR6F_MOD3 216.125
BPix_BmO_SEC4_LYR2_LDR6F_MOD4 216.125
BPix_BmO_SEC4_LYR2_LDR7F_MOD1 216.125
BPix_BmO_SEC4_LYR2_LDR7F_MOD2 216.125
BPix_BmO_SEC4_LYR2_LDR7F_MOD3 216.125
BPix_BmO_SEC4_LYR2_LDR7F_MOD4 216.125
BPix_BmO_SEC4_LYR3_LDR10F_MOD1 72.875
BPix_BmO_SEC4_LYR3_LDR10F_MOD2 72.875
BPix_BmO_SEC4_LYR3_LDR10F_MOD3 72.875
BPix_BmO_SEC4_LYR3_LDR10F_MOD4 72.875
BPix_BmO_SEC4_LYR3_LDR11F_MOD1 72.875
BPix_BmO_SEC4_LYR3_LDR11F_MOD2 72.875
BPix_BmO_SEC4_LYR3_LDR11F_MOD3 72.875
BPix_BmO_SEC4_LYR3_LDR11F_MOD4 72.875
BPix_BmO_SEC4_LYR3_LDR9F_MOD1 72.875
BPix_BmO_SEC4_LYR3_LDR9F_MOD2 72.875
BPix_BmO_SEC4_LYR3_LDR9F_MOD3 72.875
BPix_BmO_SEC4_LYR3_LDR9F_MOD4 72.875
BPix_BmO_SEC4_LYR4_LDR13F_MOD1 49.34375
BPix_BmO_SEC4_LYR4_LDR13F_MOD2 49.34375
BPix_BmO_SEC4_LYR4_LDR13F_MOD3 49.34375
BPix_BmO_SEC4_LYR4_LDR13F_MOD4 49.34375
BPix_BmO_SEC4_LYR4_LDR14F_MOD1 49.34375
BPix_BmO_SEC4_LYR4_LDR14F_MOD2 49.34375
BPix_BmO_SEC4_LYR4_LDR14F_MOD3 49.34375
BPix_BmO_SEC4_LYR4_LDR14F_MOD4 49.34375
BPix_BmO_SEC4_LYR4_LDR15F_MOD1 49.34375
BPix_BmO_SEC4_LYR4_LDR15F_MOD2 49.34375
BPix_BmO_SEC4_LYR4_LDR15F_MOD3 49.34375
BPix_BmO_SEC4_LYR4_LDR15F_MOD4 49.34375
BPix_BmO_SEC4_LYR4_LDR16F_MOD1 49.34375
BPix_BmO_SEC4_LYR4_LDR16F_MOD2 49.34375
BPix_BmO_SEC4_LYR4_LDR16F_MOD3 49.34375
BPix_BmO_SEC4_LYR4_LDR16F_MOD4 49.34375
BPix_BmO_SEC5_LYR1_LDR4F_MOD2 365.666666667
BPix_BmO_SEC5_LYR1_LDR4F_MOD3 365.666666667
BPix_BmO_SEC5_LYR1_LDR4F_MOD4 365.666666667
BPix_BmO_SEC5_LYR1_LDR4H_MOD2 365.666666667
BPix_BmO_SEC5_LYR1_LDR4H_MOD3 365.666666667
BPix_BmO_SEC5_LYR1_LDR4H_MOD4 365.666666667
BPix_BmO_SEC5_LYR2_LDR8F_MOD1 201.0
BPix_BmO_SEC5_LYR2_LDR8F_MOD2 201.0
BPix_BmO_SEC5_LYR2_LDR8F_MOD3 201.0
BPix_BmO_SEC5_LYR2_LDR8F_MOD4 201.0
BPix_BmO_SEC5_LYR2_LDR9F_MOD1 201.0
BPix_BmO_SEC5_LYR2_LDR9F_MOD2 201.0
BPix_BmO_SEC5_LYR2_LDR9F_MOD3 201.0
BPix_BmO_SEC5_LYR2_LDR9F_MOD4 201.0
BPix_BmO_SEC5_LYR3_LDR12F_MOD1 74.25
BPix_BmO_SEC5_LYR3_LDR12F_MOD2 74.25
BPix_BmO_SEC5_LYR3_LDR12F_MOD3 74.25
BPix_BmO_SEC5_LYR3_LDR12F_MOD4 74.25
BPix_BmO_SEC5_LYR3_LDR13F_MOD1 74.25
BPix_BmO_SEC5_LYR3_LDR13F_MOD2 74.25
BPix_BmO_SEC5_LYR3_LDR13F_MOD3 74.25
BPix_BmO_SEC5_LYR3_LDR13F_MOD4 74.25
BPix_BmO_SEC5_LYR3_LDR14F_MOD1 74.25
BPix_BmO_SEC5_LYR3_LDR14F_MOD2 74.25
BPix_BmO_SEC5_LYR3_LDR14F_MOD3 74.25
BPix_BmO_SEC5_LYR3_LDR14F_MOD4 74.25
BPix_BmO_SEC5_LYR4_LDR17F_MOD1 48.9375
BPix_BmO_SEC5_LYR4_LDR17F_MOD2 48.9375
BPix_BmO_SEC5_LYR4_LDR17F_MOD3 48.9375
BPix_BmO_SEC5_LYR4_LDR17F_MOD4 48.9375
BPix_BmO_SEC5_LYR4_LDR18F_MOD1 48.9375
BPix_BmO_SEC5_LYR4_LDR18F_MOD2 48.9375
BPix_BmO_SEC5_LYR4_LDR18F_MOD3 48.9375
BPix_BmO_SEC5_LYR4_LDR18F_MOD4 48.9375
BPix_BmO_SEC5_LYR4_LDR19F_MOD1 48.9375
BPix_BmO_SEC5_LYR4_LDR19F_MOD2 48.9375
BPix_BmO_SEC5_LYR4_LDR19F_MOD3 48.9375
BPix_BmO_SEC5_LYR4_LDR19F_MOD4 48.9375
BPix_BmO_SEC5_LYR4_LDR20F_MOD1 48.9375
BPix_BmO_SEC5_LYR4_LDR20F_MOD2 48.9375
BPix_BmO_SEC5_LYR4_LDR20F_MOD3 48.9375
BPix_BmO_SEC5_LYR4_LDR20F_MOD4 48.9375
BPix_BmO_SEC6_LYR1_LDR4F_MOD1 370.666666667
BPix_BmO_SEC6_LYR1_LDR4H_MOD1 370.666666667
BPix_BmO_SEC6_LYR1_LDR5F_MOD3 370.666666667
BPix_BmO_SEC6_LYR1_LDR5F_MOD4 370.666666667
BPix_BmO_SEC6_LYR1_LDR5H_MOD3 370.666666667
BPix_BmO_SEC6_LYR1_LDR5H_MOD4 370.666666667
BPix_BmO_SEC6_LYR2_LDR10F_MOD1 204.5
BPix_BmO_SEC6_LYR2_LDR10F_MOD2 204.5
BPix_BmO_SEC6_LYR2_LDR10F_MOD3 204.5
BPix_BmO_SEC6_LYR2_LDR10F_MOD4 204.5
BPix_BmO_SEC6_LYR3_LDR15F_MOD1 77.5416666667
BPix_BmO_SEC6_LYR3_LDR15F_MOD2 77.5416666667
BPix_BmO_SEC6_LYR3_LDR15F_MOD3 77.5416666667
BPix_BmO_SEC6_LYR3_LDR15F_MOD4 77.5416666667
BPix_BmO_SEC6_LYR3_LDR16F_MOD1 77.5416666667
BPix_BmO_SEC6_LYR3_LDR16F_MOD2 77.5416666667
BPix_BmO_SEC6_LYR3_LDR16F_MOD3 77.5416666667
BPix_BmO_SEC6_LYR3_LDR16F_MOD4 77.5416666667
BPix_BmO_SEC6_LYR3_LDR17F_MOD1 77.5416666667
BPix_BmO_SEC6_LYR3_LDR17F_MOD2 77.5416666667
BPix_BmO_SEC6_LYR3_LDR17F_MOD3 77.5416666667
BPix_BmO_SEC6_LYR3_LDR17F_MOD4 77.5416666667
BPix_BmO_SEC6_LYR4_LDR21F_MOD1 40.53125
BPix_BmO_SEC6_LYR4_LDR21F_MOD2 40.53125
BPix_BmO_SEC6_LYR4_LDR21F_MOD3 40.53125
BPix_BmO_SEC6_LYR4_LDR21F_MOD4 40.53125
BPix_BmO_SEC6_LYR4_LDR22F_MOD1 40.53125
BPix_BmO_SEC6_LYR4_LDR22F_MOD2 40.53125
BPix_BmO_SEC6_LYR4_LDR22F_MOD3 40.53125
BPix_BmO_SEC6_LYR4_LDR22F_MOD4 40.53125
BPix_BmO_SEC6_LYR4_LDR23F_MOD1 40.53125
BPix_BmO_SEC6_LYR4_LDR23F_MOD2 40.53125
BPix_BmO_SEC6_LYR4_LDR23F_MOD3 40.53125
BPix_BmO_SEC6_LYR4_LDR23F_MOD4 40.53125
BPix_BmO_SEC6_LYR4_LDR24F_MOD1 40.53125
BPix_BmO_SEC6_LYR4_LDR24F_MOD2 40.53125
BPix_BmO_SEC6_LYR4_LDR24F_MOD3 40.53125
BPix_BmO_SEC6_LYR4_LDR24F_MOD4 40.53125
BPix_BmO_SEC7_LYR1_LDR5F_MOD1 268.833333333
BPix_BmO_SEC7_LYR1_LDR5F_MOD2 268.833333333
BPix_BmO_SEC7_LYR1_LDR5H_MOD1 268.833333333
BPix_BmO_SEC7_LYR1_LDR5H_MOD2 268.833333333
BPix_BmO_SEC7_LYR1_LDR6F_MOD4 268.833333333
BPix_BmO_SEC7_LYR1_LDR6H_MOD4 268.833333333
BPix_BmO_SEC7_LYR2_LDR11F_MOD1 159.375
BPix_BmO_SEC7_LYR2_LDR11F_MOD2 159.375
BPix_BmO_SEC7_LYR2_LDR11F_MOD3 159.375
BPix_BmO_SEC7_LYR2_LDR11F_MOD4 159.375
BPix_BmO_SEC7_LYR2_LDR12F_MOD1 159.375
BPix_BmO_SEC7_LYR2_LDR12F_MOD2 159.375
BPix_BmO_SEC7_LYR2_LDR12F_MOD3 159.375
BPix_BmO_SEC7_LYR2_LDR12F_MOD4 159.375
BPix_BmO_SEC7_LYR3_LDR18F_MOD1 75.0416666667
BPix_BmO_SEC7_LYR3_LDR18F_MOD2 75.0416666667
BPix_BmO_SEC7_LYR3_LDR18F_MOD3 75.0416666667
BPix_BmO_SEC7_LYR3_LDR18F_MOD4 75.0416666667
BPix_BmO_SEC7_LYR3_LDR19F_MOD1 75.0416666667
BPix_BmO_SEC7_LYR3_LDR19F_MOD2 75.0416666667
BPix_BmO_SEC7_LYR3_LDR19F_MOD3 75.0416666667
BPix_BmO_SEC7_LYR3_LDR19F_MOD4 75.0416666667
BPix_BmO_SEC7_LYR3_LDR20F_MOD1 75.0416666667
BPix_BmO_SEC7_LYR3_LDR20F_MOD2 75.0416666667
BPix_BmO_SEC7_LYR3_LDR20F_MOD3 75.0416666667
BPix_BmO_SEC7_LYR3_LDR20F_MOD4 75.0416666667
BPix_BmO_SEC7_LYR4_LDR25F_MOD1 46.5
BPix_BmO_SEC7_LYR4_LDR25F_MOD2 46.5
BPix_BmO_SEC7_LYR4_LDR25F_MOD3 46.5
BPix_BmO_SEC7_LYR4_LDR25F_MOD4 46.5
BPix_BmO_SEC7_LYR4_LDR26F_MOD1 46.5
BPix_BmO_SEC7_LYR4_LDR26F_MOD2 46.5
BPix_BmO_SEC7_LYR4_LDR26F_MOD3 46.5
BPix_BmO_SEC7_LYR4_LDR26F_MOD4 46.5
BPix_BmO_SEC7_LYR4_LDR27F_MOD1 46.5
BPix_BmO_SEC7_LYR4_LDR27F_MOD2 46.5
BPix_BmO_SEC7_LYR4_LDR27F_MOD3 46.5
BPix_BmO_SEC7_LYR4_LDR27F_MOD4 46.5
BPix_BmO_SEC7_LYR4_LDR28F_MOD1 46.5
BPix_BmO_SEC7_LYR4_LDR28F_MOD2 46.5
BPix_BmO_SEC7_LYR4_LDR28F_MOD3 46.5
BPix_BmO_SEC7_LYR4_LDR28F_MOD4 46.5
BPix_BmO_SEC8_LYR1_LDR6F_MOD1 277.5
BPix_BmO_SEC8_LYR1_LDR6F_MOD2 277.5
BPix_BmO_SEC8_LYR1_LDR6F_MOD3 277.5
BPix_BmO_SEC8_LYR1_LDR6H_MOD1 277.5
BPix_BmO_SEC8_LYR1_LDR6H_MOD2 277.5
BPix_BmO_SEC8_LYR1_LDR6H_MOD3 277.5
BPix_BmO_SEC8_LYR2_LDR13F_MOD1 133.875
BPix_BmO_SEC8_LYR2_LDR13F_MOD2 133.875
BPix_BmO_SEC8_LYR2_LDR13F_MOD3 133.875
BPix_BmO_SEC8_LYR2_LDR13F_MOD4 133.875
BPix_BmO_SEC8_LYR2_LDR14F_MOD1 133.875
BPix_BmO_SEC8_LYR2_LDR14F_MOD2 133.875
BPix_BmO_SEC8_LYR2_LDR14F_MOD3 133.875
BPix_BmO_SEC8_LYR2_LDR14F_MOD4 133.875
BPix_BmO_SEC8_LYR3_LDR21F_MOD1 76.0625
BPix_BmO_SEC8_LYR3_LDR21F_MOD2 76.0625
BPix_BmO_SEC8_LYR3_LDR21F_MOD3 76.0625
BPix_BmO_SEC8_LYR3_LDR21F_MOD4 76.0625
BPix_BmO_SEC8_LYR3_LDR22F_MOD1 76.0625
BPix_BmO_SEC8_LYR3_LDR22F_MOD2 76.0625
BPix_BmO_SEC8_LYR3_LDR22F_MOD3 76.0625
BPix_BmO_SEC8_LYR3_LDR22F_MOD4 76.0625
BPix_BmO_SEC8_LYR4_LDR29F_MOD1 56.84375
BPix_BmO_SEC8_LYR4_LDR29F_MOD2 56.84375
BPix_BmO_SEC8_LYR4_LDR29F_MOD3 56.84375
BPix_BmO_SEC8_LYR4_LDR29F_MOD4 56.84375
BPix_BmO_SEC8_LYR4_LDR30F_MOD1 56.84375
BPix_BmO_SEC8_LYR4_LDR30F_MOD2 56.84375
BPix_BmO_SEC8_LYR4_LDR30F_MOD3 56.84375
BPix_BmO_SEC8_LYR4_LDR30F_MOD4 56.84375
BPix_BmO_SEC8_LYR4_LDR31F_MOD1 56.84375
BPix_BmO_SEC8_LYR4_LDR31F_MOD2 56.84375
BPix_BmO_SEC8_LYR4_LDR31F_MOD3 56.84375
BPix_BmO_SEC8_LYR4_LDR31F_MOD4 56.84375
BPix_BmO_SEC8_LYR4_LDR32F_MOD1 56.84375
BPix_BmO_SEC8_LYR4_LDR32F_MOD2 56.84375
BPix_BmO_SEC8_LYR4_LDR32F_MOD3 56.84375
BPix_BmO_SEC8_LYR4_LDR32F_MOD4 56.84375
